interval_begin,interval_end,interval_id,interval_meanDurationWithin,interval_meanHaltsPerVehicle,interval_meanHaltsPerVehicleWithin,interval_meanIntervalDurationWithin,interval_meanIntervalHaltsPerVehicleWithin,interval_meanIntervalSpeedWithin,interval_meanSpeed,interval_meanSpeedWithin,interval_meanTravelTime,interval_vehicleSum,interval_vehicleSumWithin
0,20,smallround,0,0,0,0,0,0,0,0,0,0,0
20,40,smallround,0,0,0,0,0,0,0,0,0,0,0
40,60,smallround,0,0,0,0,0,0,0,0,0,0,0
60,80,smallround,0,0,0,0,0,0,0,0,0,0,0
80,100,smallround,0,0,0,0,0,0,0,0,0,0,0
100,120,smallround,0,0,0,0,0,0,0,0,0,0,0
120,140,smallround,11.5,0,0,11.5,0,13.29,0,13.29,0,0,3
140,160,smallround,19.62,0,0,14.7,0,13.21,0,13.28,0,0,7
160,180,smallround,26.57,0,0.33,15.12,0.33,12.87,0,13.14,0,0,12
180,200,smallround,36.7,0,0.5,16.77,0.25,12.71,0,12.87,0,0,16
200,220,smallround,34.57,1,0.25,15.93,0,13.27,12.88,13.22,82.15,3,20
220,240,smallround,33.75,1.25,0.08,17.37,0.08,13.2,12.77,13.26,82.93,4,25
240,260,smallround,32.85,0,0.24,16.15,0.18,12.93,13.06,13.08,79.07,4,34
260,280,smallround,39.69,0,0.58,17.91,0.37,12.87,13.24,13.04,82.06,4,38
280,300,smallround,40.35,0.22,1.56,17.33,1.05,11.86,13.08,12.57,78.37,9,39
300,320,smallround,41.84,0.86,2.18,17.99,0.93,12.2,12.91,12.43,84.63,7,44
320,340,smallround,42.06,4,1.96,17.16,0.68,12.37,12.18,12.51,83.99,8,50
340,360,smallround,43.7,3.42,3.43,18.68,2.21,11.28,12.36,12.08,84.76,12,47
360,380,smallround,50.4,3.17,4.06,18.6,1.22,11.51,12.51,11.79,85.68,6,50
380,400,smallround,44.37,5.64,4.78,17.25,2.35,11.48,11.87,11.9,89.04,14,51
400,420,smallround,46.29,6.9,5.02,17.82,1.65,11.93,11.6,12.11,87.44,10,52
420,440,smallround,50.36,3.09,5.52,18.99,0.79,12.31,12.21,12.11,88.75,11,48
440,460,smallround,47.1,7.58,4.52,17.46,1.04,11.82,12.16,12.05,87.48,12,50
460,480,smallround,47.02,10.85,2.31,18.77,0.42,12.65,11.55,12.44,92.07,13,45
480,500,smallround,45.75,4.69,2.68,18.24,1.63,11.5,12,12.22,87.99,13,41
500,520,smallround,43.8,2.89,3.49,17.9,1.62,11.72,12.32,12.13,87.53,9,45
520,540,smallround,44.81,2.38,3.86,17.66,1.1,12.14,12.39,12.21,84.84,8,50
540,560,smallround,42.14,6.92,3.24,17.85,1.14,11.99,11.82,12.29,89.48,13,49
560,580,smallround,45.95,3,3.49,17.95,0.9,12.1,12.66,12.15,82.69,9,51
580,600,smallround,45.59,6.42,3.3,17.96,1.28,11.92,11.98,12.13,88.12,12,50
600,620,smallround,45.26,4.85,3.34,18.19,1.17,11.93,12.02,12.17,87.53,13,47
620,640,smallround,44.95,4.44,3.48,17.58,1.23,11.85,12.13,12.12,87.77,9,52
640,660,smallround,46.09,6.08,3.71,18.07,1.51,11.79,11.91,12.09,89.13,12,49
660,680,smallround,45.6,6.55,4.14,17.57,1.9,11.61,11.79,11.98,89.37,11,49
680,700,smallround,47.27,4.2,5.28,18.15,2.06,11.57,12.21,11.9,86.58,10,50
700,720,smallround,46.02,6.38,5.96,17.82,2.11,11.24,11.95,11.72,87.61,13,47
720,740,smallround,47.38,7.75,6.41,17.94,2.14,11.64,11.77,11.83,93.26,8,51
740,760,smallround,45.51,9.83,5.62,17.92,1.6,11.63,11.58,11.89,90.28,12,52
760,780,smallround,47.79,5.1,5.77,18.31,1.23,11.68,12.2,11.78,88.76,10,53
780,800,smallround,48.74,11.6,4.89,17.73,1.44,11.96,11.43,11.92,92.86,10,55
800,820,smallround,50.23,8.92,4.88,18.4,1.82,11.54,11.49,11.86,91.62,13,50
820,840,smallround,48.11,5.92,6.45,18.19,2.89,10.71,11.8,11.55,91.01,13,47
840,860,smallround,45.15,6.55,6,17.45,1.38,11.51,12.04,11.67,89.36,11,50
860,880,smallround,45.29,10.11,5.29,17.78,1.49,11.7,11.45,11.78,92.31,9,55
880,900,smallround,46.9,8.55,6.29,17.9,2.71,10.6,11.47,11.42,90.63,11,55
900,920,smallround,50.69,11.7,6.7,18.92,2.38,10.78,11.1,11.25,99.82,10,53
920,940,smallround,51.12,9.6,6.38,17.96,1.75,11.46,11.23,11.46,93.96,10,56
940,960,smallround,47.17,11.07,4.3,18,0.76,12.2,11.07,12.01,93.91,15,54
960,980,smallround,47.54,6.29,3.94,18.55,1.06,11.99,11.74,12.08,89.21,14,50
980,1000,smallround,46.31,8.08,3.04,18.14,1,11.85,11.47,12.16,93.73,12,49
1000,1020,smallround,48.5,5.55,3.34,18.44,1.47,11.63,12.1,11.98,86.24,11,47
1020,1040,smallround,47.27,3.73,4.4,17.69,1.94,11.37,12.01,11.8,87.77,11,47
1040,1060,smallround,48.17,4.2,5.5,17.81,1.91,11.65,11.98,11.79,90.37,10,46
1060,1080,smallround,44.84,7.67,5.87,17.32,2.29,10.99,11.75,11.64,89.65,12,45
1080,1100,smallround,45.65,5.14,5.83,17.75,1.44,11.98,12.14,11.85,89.45,7,52
1100,1120,smallround,42.25,13,3.96,17.78,1.29,11.78,10.91,12.09,95.82,12,55
1120,1140,smallround,46.56,8.2,4.74,18.67,2.22,10.91,11.59,11.7,91.75,10,54
1140,1160,smallround,49.55,6.2,5.84,18.07,2.31,10.51,11.85,11.28,86.88,10,55
1160,1180,smallround,49.58,5.36,5.31,17.8,0.79,12.01,12.1,11.66,89.96,11,58
1180,1200,smallround,51.33,9.43,4.08,18.72,0.69,12.27,10.93,11.95,94.76,14,52
1200,1220,smallround,46.44,9.29,3.54,17.34,1.9,11.55,11.13,12.07,94.07,14,50
1220,1240,smallround,44.48,4.54,3.33,17.94,0.88,12.29,12.08,12.3,89.74,13,48
1240,1260,smallround,42.97,3.91,3.88,17.16,1.54,11.96,12.18,12.21,86.5,11,50
1260,1280,smallround,44.48,5.55,5.27,18.23,2.55,11.03,12.15,11.8,86.12,11,49
1280,1300,smallround,46.36,7.43,5.15,17.61,1.4,11.64,11.96,11.8,91.36,7,55
1300,1320,smallround,49.21,3.55,6.25,18.42,1.82,11.74,12.37,11.74,86.93,11,55
1320,1340,smallround,45.84,12.07,4.9,17.64,1.71,11.31,11.12,11.77,93.47,15,51
1340,1360,smallround,50,4.33,6.1,18.03,1.96,11.4,12.13,11.61,88.9,9,51
1360,1380,smallround,46.53,10.08,4.88,17.12,1.23,11.99,11.45,11.84,93.31,12,52
1380,1400,smallround,44.23,8.69,3.32,17.27,0.5,12.63,11.53,12.3,90.43,13,50
1400,1420,smallround,48,7.1,3.79,18.51,1.77,11.53,11.66,12.05,89.05,10,47
1420,1440,smallround,46.29,6.6,3.64,18.01,1.4,11.75,11.91,12.07,90.52,10,50
1440,1460,smallround,47.19,4.93,4.65,18.87,2.02,11.27,12.11,11.76,87.8,14,43
1460,1480,smallround,43.16,4.9,6.02,17.26,2.94,11.06,11.97,11.75,86.68,10,49
1480,1500,smallround,44.33,6.89,6.49,17.75,2.09,11.35,11.83,11.69,89.28,9,53
1500,1520,smallround,47.97,7.67,7.95,18.64,2.95,11.07,11.82,11.51,91.26,9,55
1520,1540,smallround,51.24,15.67,7.5,18.38,2.21,10.9,10.8,11.39,97.59,9,56
1540,1560,smallround,52.97,3.77,9.13,18.24,2.26,10.86,12.47,11.06,85.32,13,54
1560,1580,smallround,50.79,16.45,6.04,17.98,0.56,12.27,10.86,11.71,98.73,11,57
1580,1600,smallround,49.2,15.57,3.73,18.38,1.31,12.05,10.62,12.02,100.27,14,52
1600,1620,smallround,47.6,6.5,3,18.17,0.85,11.72,11.66,12.03,88.77,14,48
1620,1640,smallround,45.69,4,3.06,18.24,1.06,12.09,12.13,12.16,90.96,12,48
1640,1660,smallround,44.41,5.08,2.69,17.9,0.9,12.11,11.8,12.28,87.77,12,48
1660,1680,smallround,42.73,3.36,3.54,17.35,1.7,11.8,12.16,12.2,86.36,11,50
1680,1700,smallround,44.11,4.17,4.79,18.23,2.15,11.63,12.18,12.08,84.8,12,48
1700,1720,smallround,46.59,6,4.84,18.43,1.32,11.64,12.11,11.93,88.23,9,50
1720,1740,smallround,47.89,2.6,5.47,17.96,1.4,11.76,12.8,11.78,83.51,10,53
1740,1760,smallround,47.04,12.55,3.87,17.63,1.06,12.08,11.23,12.07,94.24,11,54
1760,1780,smallround,46.49,6.36,3.54,18.3,1.14,11.8,11.84,12.04,88.89,14,50
1780,1800,smallround,44.6,5.45,3.92,17.44,1.72,11.68,11.9,12.02,87.29,11,53
1800,1820,smallround,46.72,5.67,4.16,18.2,1.31,11.58,11.94,11.89,91.12,12,49
1820,1840,smallround,46.99,6.27,4.69,17.83,1.94,11.47,11.87,11.82,89.03,11,49
1840,1860,smallround,48.4,5.73,5.26,18.1,1.7,11.38,11.8,11.71,89.15,11,47
1860,1880,smallround,43.92,6.27,5.84,17.21,2.35,11.44,11.77,11.78,91.64,11,51
1880,1900,smallround,44.4,9.8,5.81,17.58,2.04,11.3,11.32,11.77,92.93,10,53
1900,1920,smallround,46.84,7,6.21,17.96,1.72,11.19,11.81,11.58,91.04,10,53
1920,1940,smallround,48.77,11.4,5.19,18.24,1.2,11.93,11.37,11.83,92.85,10,54
1940,1960,smallround,50.78,9.46,4.04,18.4,0.84,12.36,11.45,12.1,90.12,13,49
1960,1980,smallround,45.3,5.21,3.82,17.6,1.27,11.96,11.91,12.23,89.28,14,49
1980,2000,smallround,44.11,7.45,3.18,17.47,1.04,12.04,11.89,12.25,91.12,11,49
2000,2020,smallround,47.96,4.36,3.98,18.9,1.58,11.7,12.18,11.99,88.09,11,45
2020,2040,smallround,43.88,6.73,4.24,17.86,2.1,11.41,11.81,11.97,88.71,11,49
2040,2060,smallround,43.22,3.8,5.13,17.56,1.92,11.57,12.23,11.97,86.99,10,53
2060,2080,smallround,47.53,5.91,6.04,18.7,1.98,11.22,11.92,11.65,85.92,11,51
2080,2100,smallround,49.63,7.67,6.19,17.98,1.76,11.17,12.07,11.49,88.84,9,54
2100,2120,smallround,48.78,10.45,5.54,17.94,1.63,11.57,11.39,11.67,94.63,11,56
2120,2140,smallround,49.42,9.69,4.35,18.17,0.81,12.09,11.3,11.88,93.48,13,52
2140,2160,smallround,46.09,8.14,4.1,17.54,1.82,11.58,11.4,11.93,93.75,14,49
2160,2180,smallround,46.43,6.91,4.29,17.98,1.69,11.61,11.63,11.96,89.24,11,48
2180,2200,smallround,48.68,5.67,3.69,18.33,0.53,12.35,11.94,12.14,90.06,9,49
2200,2220,smallround,44.36,6.69,3.22,17.42,1.31,11.93,11.72,12.22,90.34,13,49
2220,2240,smallround,43.16,4.69,3.91,18.04,1.85,11.33,12.35,11.96,85.88,13,47
2240,2260,smallround,44.43,5.88,3.62,17.7,0.98,12.02,11.82,12.11,90.32,8,52
2260,2280,smallround,47.31,6.2,3.73,18.41,1.31,11.98,11.84,12.12,91.07,10,52
2280,2300,smallround,46,7.54,3,18.16,1.12,11.81,11.54,12.15,88.94,13,51
2300,2320,smallround,45.93,4.31,3.5,18.01,1.48,11.73,12.17,12.07,86.97,13,48
2320,2340,smallround,45.81,5.3,3.22,17.36,0.92,12.38,11.92,12.25,87.74,10,50
2340,2360,smallround,46.82,4.92,3.82,18.7,1.67,11.62,12.03,12.09,87.22,13,45
2360,2380,smallround,46.25,4.64,4.77,18.47,2.02,11.32,12.14,11.82,87.82,11,44
2380,2400,smallround,47.25,6.71,4.25,18.22,1.06,11.81,11.9,11.95,90.72,7,51
2400,2420,smallround,45.6,3.93,6.04,17.84,2.67,10.98,12.27,11.54,86.34,14,48
2420,2440,smallround,45.06,11.86,6.21,17.33,2.58,11.08,11.12,11.6,91.45,7,57
2440,2460,smallround,46.2,9.9,5.95,17.64,1.63,11.61,11.34,11.71,96.28,10,59
2460,2480,smallround,50.01,6.75,7.5,18.61,2.68,11.01,11.66,11.45,90.75,12,56
2480,2500,smallround,50.56,15,6.06,18.35,1.61,11.5,10.9,11.58,95.83,12,54
2500,2520,smallround,50.72,2.67,6.42,17.98,1.05,12.04,12.32,11.68,86.32,12,55
2520,2540,smallround,45.52,13.71,3.46,18.3,0.96,11.8,11.04,11.98,96.69,17,48
2540,2560,smallround,47.47,4.8,5.21,18.06,2.75,11.07,11.97,11.64,86.4,10,48
2560,2580,smallround,48.13,8,5.76,18.14,2.24,10.98,11.49,11.5,89.33,11,46
2580,2600,smallround,48.11,3.88,7.06,17.18,2.38,11.16,12.11,11.47,93.28,8,50
2600,2620,smallround,46.4,8.64,5.63,17.64,0.67,12.33,11.6,11.89,91.49,11,52
2620,2640,smallround,44.91,10.67,4.81,17.96,1.63,11.81,11.21,11.97,94.23,12,52
2640,2660,smallround,44.67,11.33,4.72,18.33,2.44,11.11,11.21,11.86,93.6,12,50
2660,2680,smallround,47.3,5.33,5.43,18.15,1.89,11.23,12.11,11.69,87.12,9,53
2680,2700,smallround,50.37,3.91,6.38,18.58,1.67,11.42,12.2,11.52,86.96,11,52
2700,2720,smallround,49.61,10.58,6.49,18.12,2.47,11.02,11.41,11.44,92.54,12,51
2720,2740,smallround,47.99,9.9,6.13,17.78,1.91,11.44,11.23,11.59,93.4,10,55
2740,2760,smallround,49.62,9.29,6.47,18.89,2.06,11,11.29,11.43,94.17,14,47
2760,2780,smallround,48.5,8.2,6.58,18.09,2.14,11.06,11.68,11.46,93.28,10,50
2780,2800,smallround,47.3,11,5.51,17.73,1.43,11.91,11.15,11.77,94.63,11,51
2800,2820,smallround,45.77,8.62,5.12,18.05,1.74,11.66,11.65,11.85,88.48,13,50
2820,2840,smallround,46.81,9.9,4.78,18.46,1.71,11.55,11.37,11.89,93.21,10,51
2840,2860,smallround,47.05,5.6,5.36,17.84,1.95,11.45,12.02,11.79,87.69,10,55
2860,2880,smallround,47.45,8.73,4.93,18.2,1.38,11.5,11.59,11.76,92.56,11,56
2880,2900,smallround,52.35,2.7,5.56,18.53,1.04,11.82,12.35,11.72,87.1,10,55
2900,2920,smallround,49.04,12.33,3.78,18.76,1.41,11.61,10.96,11.9,98.5,15,51
2920,2940,smallround,45.55,5.06,4.09,17.95,1.65,11.45,11.9,11.77,86.34,16,46
2940,2960,smallround,45.59,6.33,4.88,17.47,2.2,11.08,11.8,11.68,91.45,9,49
2960,2980,smallround,47.27,6.3,6.15,18.03,2.48,11.17,11.62,11.52,92.55,10,48
2980,3000,smallround,46.8,8.1,6.06,17.7,1.78,11.32,11.51,11.57,91.05,10,50
3000,3020,smallround,45.46,10.64,5.49,17.74,1.84,11.42,11.28,11.69,93.26,11,51
3020,3040,smallround,48.54,10.67,5.04,18.54,1.5,11.77,11.2,11.82,94.1,9,52
3040,3060,smallround,46.8,6.08,5.02,17.84,1.52,11.46,11.79,11.8,88.45,12,54
3060,3080,smallround,49.17,10.1,4.43,18.31,1.28,11.77,11.3,11.85,93.3,10,54
3080,3100,smallround,47.92,6.46,3.7,17.74,0.77,12.36,11.87,12.12,89.63,13,53
3100,3120,smallround,44.56,7.67,2.61,17.86,0.96,12.08,11.61,12.29,90.87,15,49
3120,3140,smallround,45,3.69,3.69,18.36,1.91,11.45,12.24,12.01,84.44,13,45
3140,3160,smallround,44.74,4.75,4.24,17.66,1.73,11.45,12.1,11.93,91.34,8,51
3160,3180,smallround,45.62,5.18,4.73,17.81,1.61,11.8,11.92,11.92,89.24,11,51
3180,3200,smallround,45.28,6.25,6.02,18.04,2.76,11.16,11.81,11.74,88.11,12,51
3200,3220,smallround,48.9,9.9,6.02,18.75,1.78,11.17,11.55,11.56,92.22,10,49
3220,3240,smallround,47.21,5.7,6.17,17.58,1.76,11.71,12,11.72,90.89,10,54
3240,3260,smallround,45.59,11.86,4.35,18.17,1.08,12.1,11.27,12.06,92.35,14,51
3260,3280,smallround,48.6,6.33,3.62,18.49,0.51,12.18,11.88,12.15,90.02,9,53
3280,3300,smallround,46.05,8.47,2.94,17.89,1.58,11.64,11.6,12.1,90.29,15,48
3300,3320,smallround,46.24,3.75,3.62,18.11,1.57,11.93,12.16,12.19,84.12,12,47
3320,3340,smallround,49.25,3.22,4.78,18.26,1.72,11.73,12.15,12.07,90.35,9,46
3340,3360,smallround,46.04,5.92,4.09,17.79,0.85,11.96,12.06,12.16,87.9,12,46
3360,3380,smallround,47.42,5.18,3.45,18.5,0.48,12.64,12.26,12.3,86.25,11,44
3380,3400,smallround,42.42,6.55,3.1,17,1.44,11.86,12,12.28,88.45,11,48
3400,3420,smallround,39.08,5.64,3.4,17.02,1.73,11.86,12.1,12.28,89.11,11,52
3420,3440,smallround,43.54,3.78,5.23,18.17,2.53,11.14,12.34,11.87,88.3,9,53
3440,3460,smallround,49.61,5.63,7.15,18.46,2.85,10.48,11.9,11.35,84.2,8,54
3460,3480,smallround,49.58,4.82,7.54,17.77,1.7,11,12.43,11.21,87.22,11,57
3480,3500,smallround,50.44,14.08,5.38,18.73,0.71,12.13,10.96,11.68,99.36,12,56
3500,3520,smallround,48.17,12.13,3.96,18.5,1.78,11.23,10.83,11.73,95.65,16,49
3520,3540,smallround,51.22,7.43,4.45,17.98,1.77,11.29,11.36,11.69,91.09,7,53
3540,3560,smallround,47.94,4.69,4.81,18.13,1.38,11.88,11.92,11.8,89.49,16,47
3560,3580,smallround,48.16,5.33,5,17.63,1.44,11.99,11.97,11.94,88.18,9,50
3580,3600,smallround,43.3,10.08,3.54,17.76,1.16,12.1,11.16,12.26,95.59,13,50
3600,3620,smallround,43.05,5.27,2.71,17.47,0.37,12.56,12.12,12.49,86.12,11,51
3620,3640,smallround,43.67,6.9,1.98,17.44,0.7,12.46,12,12.58,89.27,10,54
3640,3660,smallround,43.67,3.71,1.66,17.93,0.56,12.56,12.26,12.69,86.33,14,50
3660,3680,smallround,41.75,2.69,1.71,16.95,0.73,12.44,12.55,12.6,83.39,13,49
3680,3700,smallround,42.84,2.54,2.73,18.19,1.6,11.88,12.54,12.39,82.18,13,45
3700,3720,smallround,45.42,2.9,4.23,18.01,2.05,11.16,12.54,11.89,83.95,10,43
3720,3740,smallround,46.63,3.29,5.21,17.56,1.9,11.38,12.35,11.75,92.17,7,48
3740,3760,smallround,45.63,7.09,5.08,17.98,1.57,11.85,11.73,11.92,90.05,11,49
3760,3780,smallround,45.17,7.6,4.9,17.67,1.58,11.95,11.82,12.02,86.96,10,52
3780,3800,smallround,46.59,9.8,4.34,18.36,1.38,11.69,11.5,12.01,93.17,10,53
3800,3820,smallround,46.05,5.92,4.93,17.81,1.98,11.44,12.16,11.85,86.38,12,54
3820,3840,smallround,44.64,8.67,4.34,17.74,1.45,11.76,11.49,12,89.93,12,56
3840,3860,smallround,50.32,2.5,5.51,18.56,1.55,11.72,12.49,11.81,85.01,10,55
3860,3880,smallround,48.74,9.38,4.98,17.99,1.63,11.58,11.43,11.85,92.75,13,54
3880,3900,smallround,50.27,8.46,5.18,18.66,1.94,11.67,11.74,11.79,90.26,13,49
3900,3920,smallround,50.3,5.17,6.11,18.18,2.02,11.21,12.1,11.53,86.87,12,47
3920,3940,smallround,47.81,8.83,6.04,18.03,2.02,11.31,11.51,11.6,93.48,12,45
3940,3960,smallround,44.74,10.11,5.24,17.4,1.69,11.78,11.42,11.89,92.42,9,51
3960,3980,smallround,44.5,9.73,4.5,17.89,1.42,11.64,11.39,11.96,92.92,11,52
3980,4000,smallround,48.76,9,5.19,18.5,2.13,11.35,11.39,11.79,95.15,8,53
4000,4020,smallround,47.31,6.92,5.62,18.21,2.13,11.15,11.88,11.7,89.58,13,53
4020,4040,smallround,47.95,6.8,5.79,17.67,1.68,11.45,11.69,11.64,88.96,10,56
4040,4060,smallround,46.92,8.33,5.56,17.41,1.63,11.48,11.65,11.75,91.41,12,57
4060,4080,smallround,49.66,10.91,4.98,18.59,1.4,11.61,11.27,11.69,94.62,11,55
4080,4100,smallround,48.33,9,5.22,18.1,2.39,10.8,11.22,11.51,92.58,15,49
4100,4120,smallround,51.47,6.25,5.5,18.36,1.54,11.54,11.81,11.65,88.41,8,52
4120,4140,smallround,50.81,6.73,5.56,17.75,1.48,11.91,11.54,11.77,94.18,11,52
4140,4160,smallround,45.4,8.29,6,17.9,2.71,10.97,11.5,11.72,90.93,17,45
4160,4180,smallround,46.67,10.38,5.54,18.59,1.65,11.52,11.25,11.79,97.42,8,48
4180,4200,smallround,46.68,6.1,6.76,17.94,2.75,10.89,12.07,11.56,88.06,10,51
4200,4220,smallround,45.55,11.7,5.85,17.85,1.71,11.49,11.36,11.75,93.46,10,55
4220,4240,smallround,48.46,5.27,6.46,18.21,1.57,11.29,11.85,11.54,90.82,11,54
4240,4260,smallround,50.44,8.91,6.28,18.09,1.63,11.44,11.65,11.55,90.5,11,54
4260,4280,smallround,51.47,12.15,5.56,18.73,1.94,11.54,11.17,11.63,93.16,13,50
4280,4300,smallround,47.55,8.71,5.72,18.24,2.4,11.21,11.32,11.74,93.93,14,47
4300,4320,smallround,49.3,6,5.35,18.43,0.96,11.95,12.01,11.87,90.6,9,49
4320,4340,smallround,46.6,6.31,5.19,17.79,1.44,11.62,11.92,11.82,89.55,13,48
4340,4360,smallround,43.84,9.73,4,17.46,1.16,11.96,11.67,12.07,92.77,11,50
4360,4380,smallround,43.41,8.56,3.8,17.4,1.56,12.1,11.4,12.27,95.22,9,55
4380,4400,smallround,45.81,4.57,4.73,18.24,1.71,11.32,12.17,11.89,84.65,14,48
4400,4420,smallround,45.51,6.44,5.62,17.65,2.43,11.18,11.92,11.79,90.09,9,53
4420,4440,smallround,52.77,5.63,5.79,18.88,1.02,12.15,12.15,11.85,85.63,8,53
4440,4460,smallround,48.88,9,6.15,18.3,2.67,11.05,11.54,11.62,92.06,14,52
4460,4480,smallround,48.45,10.69,6.25,18.73,2.48,10.95,11.3,11.54,93.37,13,48
4480,4500,smallround,50.02,7.6,6.4,18.38,1.73,10.93,11.85,11.32,91.01,10,48
4500,4520,smallround,50.15,9.89,6.29,17.99,2.02,11.52,11.4,11.52,94.55,9,51
4520,4540,smallround,48.74,8.71,5.8,18.12,1.48,11.22,11.54,11.51,90.67,14,46
4540,4560,smallround,46.91,8.88,4.96,17.45,1.19,11.99,11.36,11.86,94.76,8,52
4560,4580,smallround,46.05,10.4,3.71,17.99,0.96,12.37,11.14,12.23,96.32,10,56
4580,4600,smallround,44.67,6.56,3.41,18.76,1.31,11.5,11.72,12.07,90.12,16,49
4600,4620,smallround,44.39,5.2,4.3,17.52,2.13,11.36,12.14,11.9,89.75,10,53
4620,4640,smallround,46.41,6.33,4.55,18.09,1.57,11.75,11.86,11.93,85.54,12,51
4640,4660,smallround,48.73,3.82,6.48,18.49,2.68,10.9,12.31,11.5,87.27,11,50
4660,4680,smallround,49.24,8.09,7.33,18.25,2.53,10.95,11.48,11.4,91.47,11,49
4680,4700,smallround,49.82,11.73,6.51,18.17,1.62,11.37,11.46,11.5,95.05,11,47
4700,4720,smallround,46.85,9.36,6.33,17.56,2.18,11.41,11.27,11.63,94.78,11,49
4720,4740,smallround,43.94,9.64,5.4,17.27,1.55,11.72,11.55,11.85,89.04,11,53
4740,4760,smallround,46.92,11.56,5.25,18.47,1.81,11.39,11.04,11.72,98.71,9,53
4760,4780,smallround,47.7,7.17,6.98,18.52,3.36,10.74,11.91,11.48,86.69,12,53
4780,4800,smallround,47.59,9.27,6.35,17.9,1.47,11.34,11.51,11.59,91.4,11,55
4800,4820,smallround,51.02,1.64,7.42,18.57,1.4,11.35,12.62,11.33,86.67,11,55
4820,4840,smallround,50.69,12.5,6.2,18.15,1.51,11.7,11.29,11.56,95.44,12,55
4840,4860,smallround,48.15,15.31,4.17,18.18,1.49,11.87,10.46,11.95,100.38,13,53
4860,4880,smallround,48.31,5.21,5.38,18.11,2.29,11.27,11.74,11.81,87.92,14,48
4880,4900,smallround,49.63,7.6,5.17,17.98,1.3,11.8,11.85,11.88,90.76,10,47
4900,4920,smallround,50.06,4.91,5.57,18.3,1.46,11.82,12.23,11.8,86.91,11,46
4920,4940,smallround,42.91,7.92,4.47,16.91,1.31,12.11,11.77,12.16,89.63,12,51
4940,4960,smallround,43.27,8.55,3.96,18.16,1.28,12.09,11.6,12.21,94.34,11,50
4960,4980,smallround,44.76,8.18,4.37,18.11,2.16,11.17,11.85,11.89,89.87,11,49
4980,5000,smallround,48.46,6,4.26,18.08,1.07,12.03,11.99,12.04,86.59,7,54
5000,5020,smallround,49.31,6.54,3.54,18.24,0.64,12.18,12.02,12.11,90.35,13,50
5020,5040,smallround,43.67,6.86,2.51,17.5,0.92,12.35,11.7,12.4,87.58,14,51
5040,5060,smallround,44.06,5.82,2.22,17.85,0.96,12.1,11.89,12.4,87.91,11,51
5060,5080,smallround,46.3,2.9,3.16,18.13,1.51,11.56,12.32,12.15,86.11,10,51
5080,5100,smallround,48.29,4.1,3.94,17.75,1.59,11.48,12.17,11.88,87.36,10,51
5100,5120,smallround,48.36,3.58,4.63,17.59,1.41,11.91,12.27,11.93,85.48,12,49
5120,5140,smallround,44.36,4.71,4.85,17.44,1.43,11.86,12.02,11.95,87.16,14,47
5140,5160,smallround,45.74,8.56,4.86,18.44,1.78,11.6,11.57,11.91,92.47,9,49
5160,5180,smallround,49.68,8.9,4.82,18.93,1.51,11.54,11.42,11.84,94.91,10,45
5180,5200,smallround,54.21,6.5,5.12,18.58,1.41,11.51,11.81,11.75,89.36,10,41
5200,5220,smallround,54.36,4.75,4.39,18.56,0.14,12.94,12.3,12.09,85.6,12,36
5220,5240,smallround,57.35,8.23,2.79,19.97,0.67,12.49,11.62,12.3,89.62,13,24
5240,5260,smallround,61.47,5.11,3.73,20,2.33,10.32,12.04,11.51,90.77,9,15
5260,5280,smallround,74.63,1.25,4.64,20,0,13.13,12.78,11.63,87.25,4,11
5280,5300,smallround,86.68,4.25,5.67,20,0,13.48,12.09,11.46,85.58,8,3
5300,5320,smallround,0,5.67,0,0,0,0,11.59,0,91.47,3,0
5320,5340,smallround,0,0,0,0,0,0,0,0,0,0,0
5340,5360,smallround,0,0,0,0,0,0,0,0,0,0,0
5360,5380,smallround,0,0,0,0,0,0,0,0,0,0,0
5380,5400,smallround,0,0,0,0,0,0,0,0,0,0,0
5400,5420,smallround,0,0,0,0,0,0,0,0,0,0,0
5420,5440,smallround,0,0,0,0,0,0,0,0,0,0,0
5440,5460,smallround,0,0,0,0,0,0,0,0,0,0,0
5460,5480,smallround,0,0,0,0,0,0,0,0,0,0,0
5480,5500,smallround,0,0,0,0,0,0,0,0,0,0,0
5500,5510,smallround,0,0,0,0,0,0,0,0,0,0,0
2750,2769.963768116,#DIV/0!,43.8798188406,6.4839130435,4.3950362319,16.8685869565,1.4558695652,10.9611231884,10.9443478261,11.1772826087,83.4627536232,10.1920289855,45.9528985507
