interval_begin;interval_end;interval_id;edge_arrived;edge_density;edge_departed;edge_entered;edge_id;edge_laneChangedFrom;edge_laneChangedTo;edge_left;edge_occupancy;edge_sampledSeconds;edge_speed;edge_traveltime;edge_waitingTime
0.00;5543.00;var1;0;13.36;935;0;E1;673;673;935;2.23;62935.97;12.62;67.32;82.00
0.00;5543.00;var1;0;17.00;0;1236;E10;1191;1191;1236;2.83;65495.25;13.21;52.61;27.00
0.00;5543.00;var1;0;16.73;0;1239;E11;998;998;1239;2.79;64455.03;13.46;51.65;0.00
0.00;5543.00;var1;912;12.25;0;912;E12;240;240;0;2.04;57416.14;13.49;62.65;0.00
0.00;5543.00;var1;0;14.66;0;1086;E2;918;918;1086;2.44;56472.41;13.46;51.63;2.00
0.00;5543.00;var1;0;15.21;0;1126;E3;1031;1031;1126;2.53;58587.89;13.45;51.66;0.00
0.00;5543.00;var1;912;12.25;0;912;E4;177;177;0;2.04;57384.54;13.50;62.61;0.00
0.00;5543.00;var1;0;10.68;748;0;E5;613;613;748;1.78;50307.25;12.63;67.26;42.00
0.00;5543.00;var1;0;16.36;0;1200;E6;1091;1091;1200;2.73;63006.07;13.33;52.13;15.00
0.00;5543.00;var1;0;16.28;0;1205;E7;1109;1109;1205;2.71;62700.62;13.45;51.66;0.00
0.00;5543.00;var1;722;9.70;0;722;E8;130;130;0;1.62;45438.01;13.50;62.63;0.00
0.00;5543.00;var1;0;11.97;823;0;E9;893;893;823;2.00;56393.98;12.40;68.53;237.00
0.00;5543.00;var1;905;12.16;0;905;N1;181;181;0;2.03;56967.34;13.49;62.64;0.00
0.00;5543.00;var1;0;13.38;936;0;N10;703;703;936;2.23;62709.85;12.62;67.01;68.00
0.00;5543.00;var1;0;10.68;747;0;N11;624;624;747;1.78;50055.32;12.61;67.02;74.00
0.00;5543.00;var1;0;11.81;821;0;N12;837;837;821;1.97;55348.92;12.54;67.42;97.00
0.00;5543.00;var1;703;9.44;0;703;N2;117;117;0;1.57;44250.43;13.50;62.64;0.00
0.00;5543.00;var1;888;11.94;0;888;N3;201;201;0;1.99;55945.28;13.48;62.70;0.00
0.00;5543.00;var1;0;15.11;0;1119;N4;1006;1006;1119;2.52;57849.34;13.45;51.33;0.00
0.00;5543.00;var1;0;16.13;0;1194;N5;1053;1053;1194;2.69;61741.10;13.45;51.34;1.00
0.00;5543.00;var1;0;16.68;0;1236;N6;959;959;1236;2.78;63859.28;13.46;51.29;0.00
0.00;5543.00;var1;0;14.62;0;1083;N7;928;928;1083;2.44;55957.50;13.46;51.30;0.00
0.00;5543.00;var1;0;16.21;0;1197;N8;1087;1087;1197;2.70;62029.27;13.42;51.45;5.00
0.00;5543.00;var1;0;16.84;0;1235;N9;1175;1175;1235;2.81;64470.10;13.32;51.83;19.00
0.00;5543.00;var1;0;88.10;0;822;R1-1;395;395;822;14.68;27347.20;1.83;30.54;11379.00
0.00;5543.00;var1;0;34.05;0;2089;R1-10;204;204;2089;5.68;12544.30;11.90;5.59;0.00
0.00;5543.00;var1;0;12.47;0;857;R1-11;207;207;857;2.08;4887.25;13.23;5.34;0.00
0.00;5543.00;var1;0;30.65;0;1943;R1-12;281;281;1943;5.11;11291.66;12.29;5.41;0.00
0.00;5543.00;var1;0;11.84;0;824;R1-13;253;253;824;1.97;4638.57;13.36;5.29;0.00
0.00;5543.00;var1;0;32.77;0;2053;R1-14;275;275;2053;5.46;11138.53;12.22;5.02;0.00
0.00;5543.00;var1;0;16.36;0;1118;R1-15;522;522;1118;2.73;6409.56;13.17;5.37;0.00
0.00;5543.00;var1;0;32.44;0;2006;R1-16;305;305;2006;5.41;11025.30;12.06;5.08;2.00
0.00;5543.00;var1;0;13.19;0;905;R1-2;22;22;905;2.20;4094.71;13.48;4.15;0.00
0.00;5543.00;var1;0;40.44;0;1232;R1-3;128;128;1232;6.74;12553.53;5.99;9.35;1610.00
0.00;5543.00;var1;0;15.82;0;1086;R1-4;69;69;1086;2.64;4911.98;13.48;4.15;0.00
0.00;5543.00;var1;0;45.66;0;1119;R1-5;258;258;1119;7.61;14173.80;4.82;11.63;2744.00
0.00;5543.00;var1;0;17.87;0;1229;R1-6;79;79;1229;2.98;5548.45;13.51;4.15;0.00
0.00;5543.00;var1;0;44.13;0;935;R1-7;196;196;935;7.35;13631.34;4.17;13.38;4177.00
0.00;5543.00;var1;0;12.96;0;888;R1-8;43;43;888;2.16;4021.55;13.47;4.16;0.00
0.00;5543.00;var1;0;17.46;0;1184;R1-9;366;366;1184;2.91;6842.33;13.05;5.42;0.00
0.00;5543.00;var1;0;99.54;0;746;R2-1;298;298;746;16.59;30898.50;1.47;38.02;17146.00
0.00;5543.00;var1;0;37.14;0;2193;R2-10;276;276;2193;6.19;12622.17;11.52;5.32;1.00
0.00;5543.00;var1;0;14.43;0;967;R2-11;343;343;967;2.40;5652.05;12.91;5.47;0.00
0.00;5543.00;var1;0;33.66;0;2093;R2-12;266;266;2093;5.61;11439.73;12.13;5.05;0.00
0.00;5543.00;var1;0;12.98;0;899;R2-13;267;267;899;2.16;5087.10;13.31;5.31;0.00
0.00;5543.00;var1;0;34.26;0;2090;R2-14;346;346;2090;5.71;11644.07;11.90;5.15;1.00
0.00;5543.00;var1;0;14.65;0;1004;R2-15;334;334;1004;2.44;5740.54;13.17;5.37;0.00
0.00;5543.00;var1;0;36.05;0;2236;R2-16;414;414;2236;6.01;12254.39;12.10;5.07;4.00
0.00;5543.00;var1;0;10.21;0;703;R2-2;12;12;703;1.70;3170.62;13.52;4.14;0.00
0.00;5543.00;var1;0;85.56;0;1226;R2-3;445;445;1226;14.26;26559.80;2.82;19.89;6515.00
0.00;5543.00;var1;0;16.38;0;1126;R2-4;93;93;1126;2.73;5083.72;13.51;4.15;0.00
0.00;5543.00;var1;0;52.61;0;1194;R2-5;266;266;1194;8.77;16331.67;4.46;12.56;3303.00
0.00;5543.00;var1;0;17.36;0;1191;R2-6;90;90;1191;2.89;5389.11;13.48;4.15;0.00
0.00;5543.00;var1;0;54.79;0;1086;R2-7;241;241;1086;9.13;16924.38;3.90;14.30;4143.00
0.00;5543.00;var1;0;17.94;0;1232;R2-8;93;93;1232;2.99;5568.06;13.49;4.15;0.00
0.00;5543.00;var1;0;22.50;0;1490;R2-9;595;595;1490;3.75;8816.28;12.75;5.54;0.00
0.00;5543.00;var1;0;48.37;0;929;R3-1;240;240;929;8.06;15014.13;3.77;14.84;4746.00
0.00;5543.00;var1;0;32.61;0;2004;R3-10;310;310;2004;5.44;10946.02;12.00;5.05;2.00
0.00;5543.00;var1;0;17.57;0;1187;R3-11;392;392;1187;2.93;6882.32;13.00;5.44;0.00
0.00;5543.00;var1;0;33.95;0;2099;R3-12;209;209;2099;5.66;11394.24;12.07;5.02;0.00
0.00;5543.00;var1;0;12.56;0;863;R3-13;234;234;863;2.09;4920.58;13.23;5.34;0.00
0.00;5543.00;var1;0;31.14;0;1945;R3-14;277;277;1945;5.19;10450.87;12.19;4.97;0.00
0.00;5543.00;var1;0;11.82;0;819;R3-15;236;236;819;1.97;4629.07;13.31;5.31;0.00
0.00;5543.00;var1;0;32.91;0;2045;R3-16;308;308;2045;5.48;11044.43;12.14;4.99;1.00
0.00;5543.00;var1;0;12.95;0;888;R3-2;40;40;888;2.16;4019.04;13.48;4.16;0.00
0.00;5543.00;var1;0;92.41;0;817;R3-3;415;415;817;15.40;28683.44;1.74;32.23;12031.00
0.00;5543.00;var1;0;13.28;0;912;R3-4;31;31;912;2.21;4123.10;13.49;4.15;0.00
0.00;5543.00;var1;0;46.95;0;1236;R3-5;207;207;1236;7.83;14573.89;5.17;10.82;2336.00
0.00;5543.00;var1;0;15.78;0;1082;R3-6;70;70;1082;2.63;4898.38;13.47;4.16;0.00
0.00;5543.00;var1;0;48.29;0;1126;R3-7;279;279;1126;8.05;14916.00;4.58;12.16;3227.00
0.00;5543.00;var1;0;17.88;0;1226;R3-8;88;88;1226;2.98;5548.59;13.48;4.16;0.00
0.00;5543.00;var1;0;16.53;0;1116;R3-9;472;472;1116;2.76;6477.67;12.99;5.44;0.00
0.00;5543.00;var1;0;79.55;0;1229;R4-1;401;401;1229;13.26;24692.81;3.04;18.44;5740.00
0.00;5543.00;var1;0;33.81;0;2081;R4-10;336;336;2081;5.64;12456.73;11.93;5.57;0.00
0.00;5543.00;var1;0;12.93;0;895;R4-11;248;248;895;2.16;5066.30;13.32;5.31;0.00
0.00;5543.00;var1;0;34.47;0;2095;R4-12;367;367;2095;5.75;11717.10;11.85;5.17;4.00
0.00;5543.00;var1;0;14.76;0;1012;R4-13;324;324;1012;2.46;5780.98;13.19;5.36;0.00
0.00;5543.00;var1;0;35.76;0;2236;R4-14;443;443;2236;5.96;13172.69;12.13;5.48;4.00
0.00;5543.00;var1;0;22.47;0;1488;R4-15;663;663;1488;3.74;8802.81;12.75;5.54;0.00
0.00;5543.00;var1;0;36.35;0;2191;R4-16;234;234;2191;6.06;12356.12;11.76;5.22;1.00
0.00;5543.00;var1;0;16.30;0;1119;R4-2;77;77;1119;2.72;5060.59;13.49;4.15;0.00
0.00;5543.00;var1;0;43.20;0;1186;R4-3;202;202;1186;7.20;13408.80;5.40;10.38;1928.00
0.00;5543.00;var1;0;17.48;0;1200;R4-4;101;101;1200;2.91;5425.97;13.49;4.15;0.00
0.00;5543.00;var1;0;58.00;0;1083;R4-5;264;264;1083;9.67;18004.40;3.67;15.26;4864.00
0.00;5543.00;var1;0;17.81;0;1224;R4-6;66;66;1224;2.97;5529.09;13.50;4.15;0.00
0.00;5543.00;var1;0;83.82;0;748;R4-7;331;331;748;13.97;25893.38;1.75;31.77;13406.00
0.00;5543.00;var1;0;10.23;0;703;R4-8;13;13;703;1.70;3174.65;13.51;4.15;0.00
0.00;5543.00;var1;0;14.20;0;962;R4-9;309;309;962;2.37;5565.04;13.04;5.42;0.00
0.00;5543.00;var1;0;83.25;0;1191;R5-1;377;377;1191;13.87;25840.30;2.81;19.92;7615.00
0.00;5543.00;var1;0;37.58;0;2269;R5-10;383;383;2269;6.26;12613.33;11.79;5.14;3.00
0.00;5543.00;var1;0;15.95;0;1082;R5-11;426;426;1082;2.66;6250.79;13.05;5.41;0.00
0.00;5543.00;var1;0;38.33;0;2287;R5-12;426;426;2287;6.39;13027.74;11.64;5.27;4.00
0.00;5543.00;var1;0;16.06;0;1090;R5-13;446;446;1090;2.68;6293.13;13.05;5.41;0.00
0.00;5543.00;var1;0;38.19;0;2280;R5-14;421;421;2280;6.37;12817.96;11.66;5.19;4.00
0.00;5543.00;var1;0;15.95;0;1080;R5-15;410;410;1080;2.66;6250.33;13.01;5.43;0.00
0.00;5543.00;var1;0;37.57;0;2266;R5-16;412;412;2266;6.26;12769.25;11.77;5.21;3.00
0.00;5543.00;var1;0;17.38;0;1194;R5-2;84;84;1194;2.90;5394.36;13.50;4.15;0.00
0.00;5543.00;var1;0;76.28;0;1187;R5-3;365;365;1187;12.71;23676.93;3.06;18.31;6311.00
0.00;5543.00;var1;0;17.57;0;1205;R5-4;103;103;1205;2.93;5455.41;13.47;4.16;0.00
0.00;5543.00;var1;0;75.86;0;1197;R5-5;345;345;1197;12.64;23547.94;3.10;18.06;6464.00
0.00;5543.00;var1;0;17.33;0;1190;R5-6;101;101;1190;2.89;5380.53;13.49;4.15;0.00
0.00;5543.00;var1;0;85.60;0;1200;R5-7;383;383;1200;14.27;26442.67;2.76;20.22;7903.00
0.00;5543.00;var1;0;17.28;0;1186;R5-8;103;103;1186;2.88;5362.58;13.49;4.15;0.00
0.00;5543.00;var1;0;15.85;0;1075;R5-9;429;429;1075;2.64;6211.11;13.05;5.42;0.00
0.00;5543.00;var1;0;59.37;0;1082;R6-1;286;286;1082;9.90;18430.17;3.58;15.64;4779.00
0.00;5543.00;var1;0;36.43;0;2239;R6-10;436;436;2239;6.07;13419.36;11.92;5.58;9.00
0.00;5543.00;var1;0;22.60;0;1495;R6-11;566;566;1495;3.77;8853.53;12.74;5.55;4.00
0.00;5543.00;var1;0;37.25;0;2217;R6-12;278;278;2217;6.21;12662.55;11.61;5.28;3.00
0.00;5543.00;var1;0;14.51;0;982;R6-13;334;334;982;2.42;5683.92;13.03;5.42;0.00
0.00;5543.00;var1;0;33.36;0;2103;R6-14;323;323;2103;5.56;12289.18;12.22;5.44;1.00
0.00;5543.00;var1;0;12.92;0;898;R6-15;247;247;898;2.15;5062.70;13.36;5.29;0.00
0.00;5543.00;var1;0;34.17;0;2085;R6-16;380;380;2085;5.70;11615.84;11.90;5.15;0.00
0.00;5543.00;var1;0;18.00;0;1236;R6-2;80;80;1236;3.00;5588.64;13.49;4.15;0.00
0.00;5543.00;var1;0;59.54;0;744;R6-3;252;252;744;9.92;18481.06;2.46;22.80;8288.00
0.00;5543.00;var1;0;10.51;0;722;R6-4;20;20;722;1.75;3263.73;13.49;4.15;0.00
0.00;5543.00;var1;0;79.74;0;1235;R6-5;400;400;1235;13.29;24751.09;3.04;18.40;5952.91
0.00;5543.00;var1;0;16.34;0;1121;R6-6;82;82;1121;2.72;5071.75;13.48;4.15;0.00
0.00;5543.00;var1;0;49.80;0;1205;R6-7;269;269;1205;8.30;15382.42;4.76;11.71;2726.00
0.00;5543.00;var1;0;17.28;0;1187;R6-8;96;96;1187;2.88;5363.18;13.50;4.15;0.00
0.00;5543.00;var1;0;14.59;0;1003;R6-9;331;331;1003;2.43;5716.76;13.21;5.35;0.00
0.00;5543.00;var1;0;43.01;0;1224;R7-1;172;172;1224;7.17;13350.97;5.59;10.01;1982.00
0.00;5543.00;var1;0;31.22;0;1934;R7-10;318;318;1934;5.20;11635.49;12.00;5.60;0.00
0.00;5543.00;var1;0;11.89;0;822;R7-11;188;188;822;1.98;4656.46;13.28;5.32;0.00
0.00;5543.00;var1;0;32.80;0;2058;R7-12;336;336;2058;5.47;12082.24;12.17;5.46;5.00
0.00;5543.00;var1;0;16.50;0;1122;R7-13;492;492;1122;2.75;6465.45;13.09;5.40;0.00
0.00;5543.00;var1;0;32.40;0;2010;R7-14;307;307;2010;5.40;10875.46;12.11;5.00;0.00
0.00;5543.00;var1;0;17.36;0;1187;R7-15;361;361;1187;2.89;6803.18;13.15;5.38;0.00
0.00;5543.00;var1;0;34.04;0;2075;R7-16;220;220;2075;5.67;12541.62;11.82;5.62;0.00
0.00;5543.00;var1;0;15.76;0;1083;R7-2;73;73;1083;2.63;4892.93;13.50;4.15;0.00
0.00;5543.00;var1;0;39.62;0;1112;R7-3;230;230;1112;6.60;12298.01;5.52;10.15;1831.00
0.00;5543.00;var1;0;17.99;0;1236;R7-4;107;107;1236;3.00;5583.42;13.50;4.15;0.00
0.00;5543.00;var1;0;48.35;0;936;R7-5;225;225;936;8.06;15007.52;3.80;14.72;4447.00
0.00;5543.00;var1;0;12.95;0;888;R7-6;29;29;888;2.16;4021.15;13.47;4.16;0.00
0.00;5543.00;var1;0;107.17;0;823;R7-7;403;403;823;17.86;33104.51;1.51;36.91;15259.00
0.00;5543.00;var1;0;12.94;0;888;R7-8;27;27;888;2.16;4017.31;13.48;4.15;0.00
0.00;5543.00;var1;0;12.40;0;851;R7-9;200;200;851;2.07;4858.14;13.23;5.34;0.00
0.00;5543.00;var1;0;54.72;0;1190;R8-1;273;273;1190;9.12;16986.58;4.27;13.10;3561.00
0.00;5543.00;var1;0;34.24;0;2087;R8-10;388;388;2087;5.71;11637.67;11.89;5.16;2.00
0.00;5543.00;var1;0;14.73;0;1009;R8-11;347;347;1009;2.46;5771.69;13.17;5.37;0.00
0.00;5543.00;var1;0;36.39;0;2248;R8-12;394;394;2248;6.07;12369.25;12.05;5.09;6.00
0.00;5543.00;var1;0;22.60;0;1501;R8-13;596;596;1501;3.77;8855.49;12.78;5.53;0.00
0.00;5543.00;var1;0;37.23;0;2204;R8-14;257;257;2204;6.20;12652.80;11.55;5.31;0.00
0.00;5543.00;var1;0;14.52;0;968;R8-15;315;315;968;2.42;5689.68;12.84;5.51;0.00
0.00;5543.00;var1;0;33.45;0;2080;R8-16;340;340;2080;5.58;11370.97;12.13;5.06;0.00
0.00;5543.00;var1;0;17.41;0;1197;R8-2;91;91;1197;2.90;5403.00;13.51;4.14;0.00
0.00;5543.00;var1;0;58.40;0;1078;R8-3;284;284;1078;9.73;18127.65;3.63;15.44;5001.00
0.00;5543.00;var1;0;18.05;0;1239;R8-4;83;83;1239;3.01;5603.64;13.49;4.15;0.00
0.00;5543.00;var1;0;86.07;0;747;R8-5;304;304;747;14.35;26717.22;1.71;32.83;14110.00
0.00;5543.00;var1;0;10.22;0;703;R8-6;22;22;703;1.70;3172.89;13.52;4.14;0.00
0.00;5543.00;var1;0;78.31;0;1236;R8-7;394;394;1236;13.05;24191.10;3.10;17.96;5311.00
0.00;5543.00;var1;0;16.19;0;1112;R8-8;76;76;1112;2.70;5024.53;13.50;4.15;0.00
0.00;5543.00;var1;0;12.80;0;890;R8-9;250;250;890;2.13;5015.86;13.36;5.29;0.00
0.00;5543.00;var1;0;39.12;0;1121;R9-1;217;217;1121;6.52;12144.64;5.63;9.95;1661.00
0.00;5543.00;var1;0;32.84;0;2054;R9-10;293;293;2054;5.47;11161.37;12.20;5.03;0.00
0.00;5543.00;var1;0;16.52;0;1122;R9-11;501;501;1122;2.75;6471.97;13.07;5.41;0.00
0.00;5543.00;var1;0;32.52;0;2034;R9-12;289;289;2034;5.42;11053.69;12.20;5.03;0.00
0.00;5543.00;var1;0;17.80;0;1213;R9-13;415;415;1213;2.97;6974.04;13.12;5.39;0.00
0.00;5543.00;var1;0;33.51;0;2101;R9-14;229;229;2101;5.59;12346.25;12.16;5.47;0.00
0.00;5543.00;var1;0;12.49;0;862;R9-15;213;213;862;2.08;4892.86;13.29;5.32;0.00
0.00;5543.00;var1;0;31.57;0;1940;R9-16;317;317;1940;5.26;11629.54;11.92;5.58;0.00
0.00;5543.00;var1;0;17.98;0;1235;R9-2;86;86;1235;3.00;5582.42;13.49;4.15;0.00
0.00;5543.00;var1;0;45.49;0;932;R9-3;208;208;932;7.58;14119.24;4.03;13.91;4491.00
0.00;5543.00;var1;0;13.29;0;912;R9-4;38;38;912;2.21;4124.06;13.49;4.15;0.00
0.00;5543.00;var1;0;76.75;0;821;R9-5;387;387;821;12.79;23823.56;2.10;26.64;8995.00
0.00;5543.00;var1;0;12.92;0;888;R9-6;22;22;888;2.15;4011.18;13.50;4.15;0.00
0.00;5543.00;var1;0;48.40;0;1239;R9-7;208;208;1239;8.07;14951.07;5.03;11.07;2616.00
0.00;5543.00;var1;0;15.71;0;1078;R9-8;84;84;1078;2.62;4875.50;13.49;4.15;0.00
0.00;5543.00;var1;0;11.82;0;819;R9-9;185;185;819;1.97;4632.36;13.29;5.32;0.00
0.00;5543.00;var1;0;11.89;822;0;S1;890;890;822;1.98;55712.67;12.47;67.79;173.00
0.00;5543.00;var1;888;11.94;0;888;S10;195;195;0;1.99;55936.96;13.48;62.68;0.00
0.00;5543.00;var1;703;9.45;0;703;S11;143;143;0;1.57;44269.71;13.49;62.66;0.00
0.00;5543.00;var1;888;11.93;0;888;S12;197;197;0;1.99;55896.06;13.49;62.65;0.00
0.00;5543.00;var1;0;10.71;746;0;S2;590;590;746;1.78;50172.04;12.57;67.26;100.00
0.00;5543.00;var1;0;13.29;929;0;S3;655;655;929;2.21;62259.14;12.61;67.03;66.00
0.00;5543.00;var1;0;16.76;0;1229;S4;1150;1150;1229;2.79;64146.73;13.33;51.82;19.00
0.00;5543.00;var1;0;16.21;0;1191;S5;1024;1024;1191;2.70;62031.60;13.35;51.71;20.00
0.00;5543.00;var1;0;14.59;0;1082;S6;938;938;1082;2.43;55836.46;13.48;51.23;0.00
0.00;5543.00;var1;0;16.50;0;1224;S7;943;943;1224;2.75;63169.79;13.48;51.24;0.00
0.00;5543.00;var1;0;16.06;0;1190;S8;1075;1075;1190;2.68;61472.04;13.46;51.29;0.00
0.00;5543.00;var1;0;15.13;0;1121;S9;1044;1044;1121;2.52;57908.38;13.46;51.29;0.00
0.00;5543.00;var1;888;11.93;0;888;W1;225;225;0;1.99;56212.39;13.49;63.00;0.00
0.00;5543.00;var1;0;15.00;0;1112;W10;1042;1042;1112;2.50;57793.13;13.47;51.60;0.00
0.00;5543.00;var1;0;14.56;0;1078;W11;916;916;1078;2.43;56103.31;13.45;51.67;1.00
0.00;5543.00;var1;0;13.33;932;0;W12;648;648;932;2.22;62441.23;12.62;67.01;71.00
0.00;5543.00;var1;0;16.63;0;1232;W2;952;952;1232;2.77;64063.38;13.46;51.63;0.00
0.00;5543.00;var1;0;16.86;0;1226;W3;1190;1190;1226;2.81;64953.06;13.21;52.60;40.00
0.00;5543.00;var1;0;11.81;817;0;W4;866;866;817;1.97;55331.56;12.48;67.73;170.00
0.00;5543.00;var1;703;9.44;0;703;W5;115;115;0;1.57;44476.48;13.50;62.96;0.00
0.00;5543.00;var1;0;16.00;0;1186;W6;1063;1063;1186;2.67;61656.68;13.46;51.62;0.00
0.00;5543.00;var1;0;16.10;0;1187;W7;1068;1068;1187;2.68;62031.36;13.39;51.89;17.00
0.00;5543.00;var1;0;10.62;744;0;W8;601;601;744;1.77;49751.05;12.64;66.88;41.00
0.00;5543.00;var1;888;11.93;0;888;W9;195;195;0;1.99;56210.32;13.49;62.99;0.00
