interval_begin,interval_end,interval_id,interval_meanDurationWithin,interval_meanHaltsPerVehicle,interval_meanHaltsPerVehicleWithin,interval_meanIntervalDurationWithin,interval_meanIntervalHaltsPerVehicleWithin,interval_meanIntervalSpeedWithin,interval_meanSpeed,interval_meanSpeedWithin,interval_meanTravelTime,interval_vehicleSum,interval_vehicleSumWithin
0,20,smallround,0,0,0,0,0,0,0,0,0,0,0
20,40,smallround,0,0,0,0,0,0,0,0,0,0,0
40,60,smallround,0,0,0,0,0,0,0,0,0,0,0
60,80,smallround,0,0,0,0,0,0,0,0,0,0,0
80,100,smallround,0,0,0,0,0,0,0,0,0,0,0
100,120,smallround,0,0,0,0,0,0,0,0,0,0,0
120,140,smallround,9.4,0,0,9.4,0,13.51,0,13.51,0,0,3
140,160,smallround,20.05,0,0,15.35,0,13.35,0,13.36,0,0,6
160,180,smallround,28.54,0,0.11,15.17,0.11,12.96,0,13.22,0,0,9
180,200,smallround,36.25,0,0.08,16.49,0,13.47,0,13.43,0,0,13
200,220,smallround,33.05,0.33,0.19,16.61,0.19,13.07,13.14,13.27,80.3,3,16
220,240,smallround,31.91,0,0.38,16.8,0.24,13.09,13.25,13.23,79.82,3,21
240,260,smallround,34.55,1.5,0.47,16.65,0.3,12.81,12.56,13.14,79.73,2,30
260,280,smallround,39.7,0,0.65,17.72,0.24,13.02,13.35,13.09,79.28,4,34
280,300,smallround,39.15,1.57,0.71,16.9,0.42,12.61,12.86,12.91,81.25,7,38
300,320,smallround,42.78,0.5,1.05,17.94,0.43,12.82,13.02,12.91,81.38,8,37
320,340,smallround,43.84,0.5,1.71,18,0.71,12.56,12.97,12.77,79.02,10,34
340,360,smallround,46.55,3.4,1.47,17.9,0.39,12.83,12.58,12.81,84.44,5,38
360,380,smallround,40.98,1.83,1.11,17.73,0.19,13.17,12.78,13.03,82.41,12,37
380,400,smallround,41.49,2,1.64,18.04,1,12.1,12.71,12.66,82.5,9,36
400,420,smallround,43.31,2.29,2,17.61,0.87,12.03,12.88,12.44,81.35,7,38
420,440,smallround,45.24,2,2.33,18.22,0.79,12.45,12.62,12.49,83.01,8,39
440,460,smallround,45.31,3.4,1.89,18.95,0.39,12.72,12.25,12.67,86.05,10,38
460,480,smallround,47.01,2.11,2.43,18.54,1,12.3,12.55,12.51,82.65,9,37
480,500,smallround,41.37,3.73,1.42,17.21,0.13,13.01,12.56,12.81,83.57,11,38
500,520,smallround,44.64,2,1.46,18.08,0.43,12.77,12.78,12.81,84.22,8,37
520,540,smallround,38.04,2.75,1.14,17.04,0.56,12.62,12.57,12.85,84.57,12,36
540,560,smallround,45.79,1.4,1,18.38,0.08,12.97,12.86,12.85,80.85,5,37
560,580,smallround,41.95,2.33,1.09,17.42,0.82,12.35,12.69,12.79,82.71,12,33
580,600,smallround,44.29,1,1.06,18.31,0.22,12.93,12.81,12.83,79.89,6,36
600,620,smallround,41.62,1.18,0.91,18.11,0.18,12.9,12.77,12.89,82.17,11,34
620,640,smallround,39.76,2.38,0.61,16.97,0.28,12.61,12.64,12.84,84.01,8,36
640,660,smallround,40.26,0.88,0.82,17.69,0.44,12.6,13.04,12.82,79.26,8,39
660,680,smallround,40.08,0.78,1.35,17.46,0.73,12.34,12.79,12.63,83.76,9,40
680,700,smallround,44.93,1.88,1.23,18.89,0.23,12.86,12.48,12.75,84.03,8,39
700,720,smallround,46.04,1.8,1.24,18.11,0.43,12.57,12.46,12.76,82.47,10,37
720,740,smallround,41.05,1.92,0.86,17.73,0.22,12.82,12.87,12.83,80.52,12,36
740,760,smallround,45.4,1.29,0.97,18.24,0.36,12.63,12.87,12.71,82.63,7,36
760,780,smallround,41.51,1.1,1.36,17.48,0.69,12.55,12.72,12.76,84.28,10,36
780,800,smallround,41.7,1.33,1.31,17.83,0.28,12.97,12.79,12.89,81.98,9,36
800,820,smallround,41.77,2.1,0.94,17.62,0.15,12.73,12.8,12.81,80.19,10,33
820,840,smallround,43.17,4.8,0.76,17.4,0.58,12.83,12.2,12.97,87.45,5,38
840,860,smallround,39.97,0.17,1.2,17.49,0.43,12.73,13.05,12.83,80.54,12,35
860,880,smallround,39.49,2,1.5,17.14,0.78,12.45,12.64,12.67,83.79,8,36
880,900,smallround,38.43,1.67,1.32,17.18,0.29,12.42,12.76,12.71,80.26,9,38
900,920,smallround,43.73,2.67,1.13,18.13,0.28,12.78,12.71,12.7,84.88,6,40
920,940,smallround,42.81,3.3,0.85,17.72,0.55,12.58,12.5,12.8,84.36,10,40
940,960,smallround,44.72,0.5,1.68,18.41,0.89,12.49,12.52,12.7,82.76,10,37
960,980,smallround,44.83,0.38,1.58,17.66,0.1,12.98,13.02,12.82,78.03,8,40
980,1000,smallround,44.44,2.55,1.31,18.27,0.33,12.85,12.68,12.84,85.6,11,36
1000,1020,smallround,39.64,3,0.72,17.35,0.33,12.85,12.59,13,82.95,11,36
1020,1040,smallround,43.16,0.33,0.87,17.64,0.26,12.81,13.03,12.92,81.2,6,39
1040,1060,smallround,42.3,1.67,0.91,18.03,0.48,12.55,12.81,12.79,81.25,12,33
1060,1080,smallround,45.86,0.8,1,18.12,0.3,13.02,13.03,12.92,79.68,5,37
1080,1100,smallround,40.74,1.58,1.2,17.76,0.69,12.62,12.7,12.9,83.56,12,35
1100,1120,smallround,39.7,0.88,1.81,17.01,0.86,12.19,12.96,12.58,79.92,8,37
1120,1140,smallround,43.7,1.29,3.21,18.14,1.68,11.47,12.88,12.16,79.97,7,38
1140,1160,smallround,44.42,4.86,3.44,17.7,1.29,12.01,12.23,12.16,89.85,7,41
1160,1180,smallround,44.96,4.11,3,17.96,0.52,12.59,12.14,12.42,85.45,9,42
1180,1200,smallround,47.5,5.18,2.38,18.95,0.51,12.7,12.01,12.6,86.69,11,37
1200,1220,smallround,43.52,4.7,1.61,17.5,0.53,12.47,12.36,12.7,84.91,10,38
1220,1240,smallround,46.89,3.14,1.26,18.49,0.26,13,12.61,12.83,84.37,7,39
1240,1260,smallround,42,1.18,1.25,17.17,0.35,12.81,12.79,12.83,82.15,11,40
1260,1280,smallround,40.98,3.27,0.65,18.23,0.27,12.8,12.55,12.92,85.44,11,37
1280,1300,smallround,44.46,1.11,1,18.24,0.59,12.36,12.86,12.67,78.45,9,34
1300,1320,smallround,44.26,0.57,1.32,17.45,0.51,12.67,12.96,12.73,81.73,7,37
1320,1340,smallround,42.96,1.36,1.09,18.28,0.09,13.1,12.73,12.92,81.82,11,34
1340,1360,smallround,44.14,0.86,1,18.26,0.14,12.77,12.83,12.84,82.48,7,36
1360,1380,smallround,39.69,3.22,0.68,17.25,0.5,12.66,12.6,12.88,83.73,9,40
1380,1400,smallround,39.97,0.4,1,17.3,0.41,12.47,12.82,12.71,81.65,10,39
1400,1420,smallround,44.12,0.63,1.89,18.46,1,12.02,12.88,12.45,82.24,8,38
1420,1440,smallround,43.55,2.6,1.73,17.88,0.49,12.67,12.38,12.62,83.09,10,37
1440,1460,smallround,44.42,1.5,1.72,17.63,0.38,12.67,12.7,12.69,81.39,8,39
1460,1480,smallround,44.37,3.9,1.06,17.92,0.28,12.9,12.36,12.89,87.15,10,36
1480,1500,smallround,40.28,1.7,0.73,16.9,0.16,13.02,12.69,13.04,82.03,10,37
1500,1520,smallround,44.53,1.57,0.59,18.42,0.16,13.14,12.92,13.06,82.23,7,37
1520,1540,smallround,39.21,1.23,0.78,17.47,0.59,12.29,12.93,12.81,81.97,13,32
1540,1560,smallround,42.73,0.4,0.78,17.48,0.14,13.09,12.95,12.98,78.29,5,36
1560,1580,smallround,41.33,0.78,0.79,17.45,0.24,13.06,12.93,13.01,80.86,9,38
1580,1600,smallround,41.23,1.89,0.51,17.57,0.16,12.86,12.61,12.99,83.39,9,37
1600,1620,smallround,40.99,0.44,1.68,17.88,1.29,12.05,13.13,12.68,80.77,9,38
1620,1640,smallround,42.12,1.5,1.88,17.74,0.58,12.58,12.82,12.65,81.63,8,40
1640,1660,smallround,43.93,1.44,2.02,18.02,0.48,12.66,12.86,12.64,80.6,9,40
1660,1680,smallround,44.62,4.64,1.47,18.63,0.64,12.61,12.31,12.73,86.09,11,36
1680,1700,smallround,41.8,0.6,1.87,17.91,0.63,12.57,12.87,12.71,79.83,10,38
1700,1720,smallround,45.46,3,1.86,18.24,0.56,12.3,12.73,12.55,85.88,8,36
1720,1740,smallround,40.88,2.2,1.39,17,0.21,12.89,12.75,12.74,82.39,10,38
1740,1760,smallround,45.63,2.57,0.92,18.15,0,13.3,12.54,13.01,83.53,7,38
1760,1780,smallround,40.32,2.54,0.47,17.42,0.41,12.77,12.48,13.13,84.39,13,32
1780,1800,smallround,42.93,0.33,0.57,17.88,0.2,13.02,13.17,13.05,77.72,6,35
1800,1820,smallround,39.17,0.27,0.6,17.58,0.11,12.97,13.14,13,78.34,11,35
1820,1840,smallround,40.57,2.33,0.89,16.92,0.71,12.4,12.74,12.75,84.83,6,38
1840,1860,smallround,41.22,0.67,1.55,17.79,0.82,12.22,13.04,12.61,81.23,9,38
1860,1880,smallround,41.66,0.89,1.74,17.57,0.39,12.59,12.77,12.58,82.84,9,38
1880,1900,smallround,44.55,2.5,1.82,18.64,0.64,12.59,12.53,12.65,82.6,8,39
1900,1920,smallround,43.35,3.55,1.78,17.89,0.89,12.34,12.28,12.62,84.94,11,36
1920,1940,smallround,44.07,1.5,1.39,17.72,0.03,12.89,12.83,12.79,79.39,8,38
1940,1960,smallround,45.88,2.5,1.26,18.18,0.39,12.79,12.67,12.75,85.1,8,38
1960,1980,smallround,40.1,2.31,0.89,18.06,0.37,12.8,12.53,12.92,84.08,13,35
1980,2000,smallround,43.79,0.38,1.35,18.78,0.53,12.45,13.07,12.69,80.94,8,34
2000,2020,smallround,40.71,2,1.67,16.88,0.89,12.33,12.72,12.62,80.41,9,36
2020,2040,smallround,41.59,2.14,1.21,17.32,0.05,13.07,12.58,12.87,84.39,7,39
2040,2060,smallround,41.82,1.3,1.35,17.59,0.43,12.82,12.79,12.83,82.06,10,37
2060,2080,smallround,42.69,3.78,1.17,18.04,0.71,12.14,12.34,12.7,86.26,9,35
2080,2100,smallround,41.94,0,1.95,17.52,0.87,12.39,13.18,12.57,79.42,8,38
2100,2120,smallround,41.5,3,1.8,16.98,0.59,12.59,12.53,12.66,82.67,8,41
2120,2140,smallround,43.09,2.6,1.63,18.29,0.37,12.72,12.36,12.74,85,10,38
2140,2160,smallround,46.21,2.67,1.72,18.81,0.67,12.39,12.57,12.62,82.73,9,36
2160,2180,smallround,44.25,3,1.25,17.49,0.3,12.75,12.68,12.74,81.68,8,40
2180,2200,smallround,45.09,1.9,0.86,18.31,0.03,13.2,12.54,12.97,85.61,10,37
2200,2220,smallround,40.87,2.1,0.82,16.65,0.53,12.55,12.72,12.91,82.94,10,38
2220,2240,smallround,43.87,1.11,1.06,19.03,0.46,12.8,12.95,12.84,84.5,9,35
2240,2260,smallround,39.1,0.45,1.65,16.54,0.71,11.96,12.85,12.46,79.11,11,34
2260,2280,smallround,44.69,4,1.45,17.88,0.39,12.72,12.48,12.69,83.12,4,38
2280,2300,smallround,41.98,1.9,1.64,17.3,0.72,12.6,12.5,12.72,84.13,10,39
2300,2320,smallround,39.66,2.6,2,17.34,1,12.21,12.46,12.59,85.35,10,38
2320,2340,smallround,42.81,1.67,2.6,17.59,1.07,11.88,12.94,12.33,79.36,6,43
2340,2360,smallround,43.97,3.45,3.1,17.94,1.21,12.03,12.4,12.21,84.23,11,39
2360,2380,smallround,45.87,5.71,2.57,17.83,0.64,12.5,12.14,12.42,88.13,7,42
2380,2400,smallround,49.21,3.3,2.53,18.95,0.55,12.56,12.12,12.5,85.64,10,38
2400,2420,smallround,42.68,4.67,1.73,17.57,0.65,12.37,12.34,12.59,85.88,12,37
2420,2440,smallround,45.39,2.75,1.75,18.37,0.58,12.75,12.5,12.7,85.16,8,36
2440,2460,smallround,42.75,1.2,1.92,17.32,0.5,12.67,12.88,12.73,80.09,10,36
2460,2480,smallround,43.9,4,1.08,17.73,0,13.26,12.31,12.97,87.96,7,38
2480,2500,smallround,42.82,2.25,1.5,18.43,1.06,12.25,12.73,12.75,81.86,12,32
2500,2520,smallround,40.78,2.33,1.23,17.48,0.36,12.77,12.65,12.81,83.97,6,39
2520,2540,smallround,41.47,0.4,1.43,17.6,0.24,12.76,13.16,12.73,81.37,10,37
2540,2560,smallround,40.08,3.56,1.37,17.07,0.82,12.49,12.39,12.78,82.93,9,38
2560,2580,smallround,40.42,1.56,2.18,17.34,1.21,11.87,12.77,12.44,80.16,9,39
2580,2600,smallround,44.09,2.25,2.71,18.07,0.95,12.1,12.73,12.27,83.37,8,38
2600,2620,smallround,43.72,5.29,2.02,17.56,0.49,12.75,12.07,12.58,88.04,7,43
2620,2640,smallround,48.43,3.1,1.66,18.99,0.18,12.61,12.3,12.6,84.45,10,38
2640,2660,smallround,41.32,2.92,0.95,16.98,0.21,12.79,12.49,12.87,83.98,12,38
2660,2680,smallround,46.55,3.86,0.59,18.56,0.35,12.97,12.3,12.94,87.93,7,37
2680,2700,smallround,36.08,0.21,1.06,15.75,0.51,12.53,12.93,12.85,80.77,14,35
2700,2720,smallround,42.91,1.2,0.97,18.4,0.14,13.02,12.81,12.93,83,5,37
2720,2740,smallround,40.53,1.75,0.81,17.77,0.34,12.67,12.73,12.9,82.49,12,32
2740,2760,smallround,41.49,2,0.69,17.43,0.31,12.72,12.73,12.88,80.64,6,36
2760,2780,smallround,38.78,0.36,0.94,17.68,0.34,12.86,13.08,12.87,81.69,11,35
2780,2800,smallround,40.2,1.5,1.91,17.91,1.31,11.81,12.58,12.51,83.24,8,35
2800,2820,smallround,42.89,1.67,1.92,17.8,0.46,12.28,12.75,12.45,81.71,6,39
2820,2840,smallround,42.67,3.88,1.33,17.24,0.3,12.87,12.47,12.72,82.97,8,43
2840,2860,smallround,43.81,3,1.29,18.12,0.63,12.56,12.21,12.76,85.98,10,41
2860,2880,smallround,46.74,2.18,1.91,19.23,1.09,12.14,12.47,12.52,83.72,11,35
2880,2900,smallround,44.51,0.75,2.15,17.75,0.63,12.49,13.03,12.57,79.04,8,40
2900,2920,smallround,47.54,3.78,1.7,18.53,0.3,12.81,12.27,12.66,86.64,9,37
2920,2940,smallround,38.31,3.42,1.34,16.01,0.76,12.48,12.56,12.78,84.97,12,38
2940,2960,smallround,41.98,2.67,0.9,17.63,0.05,13.11,12.43,12.96,85.37,6,41
2960,2980,smallround,41.33,2.62,0.61,18.38,0.52,12.58,12.57,12.94,83.57,13,33
2980,3000,smallround,43.03,0.17,1.16,17.67,0.65,12.45,12.8,12.79,78.39,6,37
3000,3020,smallround,42.92,0.2,1.36,17.57,0.22,12.9,13.15,12.79,78.99,10,36
3020,3040,smallround,42.83,0.38,2.27,17.24,1.03,12.31,12.88,12.62,81.14,8,37
3040,3060,smallround,40.53,5.13,2.1,17.37,1.03,12.11,12.21,12.47,88.63,8,40
3060,3080,smallround,42.48,2.11,3.03,17.76,1.36,11.89,12.63,12.23,82.03,9,39
3080,3100,smallround,45.35,5.43,2.37,18.13,0.41,12.64,12.12,12.5,89.07,7,41
3100,3120,smallround,48.36,3.9,1.95,19.15,0.42,12.56,12.1,12.58,84.91,10,38
3120,3140,smallround,40.79,3.75,1.13,16.86,0.38,12.81,12.45,12.86,83.51,12,39
3140,3160,smallround,44.28,2.44,0.97,18.44,0.36,12.86,12.5,12.88,84.93,9,36
3160,3180,smallround,42.04,0.7,1.22,17.61,0.44,12.6,12.94,12.81,81.11,10,36
3180,3200,smallround,44.6,2.86,0.7,18.44,0.05,13.05,12.62,12.95,86.64,7,37
3200,3220,smallround,43.01,0.27,1.32,17.75,0.65,12.5,12.95,12.8,81.07,11,34
3220,3240,smallround,41.78,3,0.76,17.43,0.13,13.05,12.63,12.98,80.59,7,38
3240,3260,smallround,40.21,0.3,0.97,17.38,0.29,12.92,12.97,13.01,82.5,10,38
3260,3280,smallround,40.5,2.6,0.97,17.91,0.66,12.37,12.66,12.81,82.25,10,35
3280,3300,smallround,45.51,0,1.8,18.57,0.95,12.09,13.12,12.52,77.41,5,40
3300,3320,smallround,45.6,1.5,2.26,17.9,0.76,12.28,12.73,12.39,82.44,10,38
3320,3340,smallround,42.89,2.6,1.9,17.67,0.36,12.88,12.36,12.71,84.97,10,39
3340,3360,smallround,46.31,3.22,1.5,18.62,0.25,12.88,12.44,12.81,84.77,9,36
3360,3380,smallround,39.72,2.73,1.22,17.07,0.57,12.72,12.59,12.91,83.83,11,37
3380,3400,smallround,46.15,2.29,1.03,18.79,0.2,12.91,12.74,12.86,82.38,7,35
3400,3420,smallround,38.21,0.92,0.89,16.58,0.17,12.73,12.96,12.85,81.14,12,35
3420,3440,smallround,43.54,4,0.68,18.13,0.39,12.89,12.56,12.96,86.42,5,38
3440,3460,smallround,39.7,0.15,1.45,17.66,0.73,12.41,12.89,12.77,80.01,13,33
3460,3480,smallround,42.41,2.2,1.32,17.51,0.34,12.63,12.68,12.78,82.03,5,38
3480,3500,smallround,40.62,1.73,1.56,17.55,0.69,12.51,12.85,12.68,83.36,11,36
3500,3520,smallround,40.32,3.33,1.29,17.36,0.54,12.25,12.32,12.63,85.22,9,35
3520,3540,smallround,39.67,1.14,1.85,17.1,0.95,12.27,12.8,12.57,81.78,7,41
3540,3560,smallround,42.8,1.22,2.41,17.61,0.74,12.31,12.72,12.41,81.6,9,39
3560,3580,smallround,43.59,4,2.29,18.12,0.78,12.29,12.02,12.51,87.64,8,41
3580,3600,smallround,45.16,4,2.41,18.59,1.05,12.22,12.39,12.37,84.55,11,37
3600,3620,smallround,45.02,0.56,3.03,17.58,0.82,12.25,12.95,12.39,78.98,9,38
3620,3640,smallround,48.39,6.13,2.53,18.95,0.69,12.48,11.98,12.45,90.51,8,36
3640,3660,smallround,40.48,2.33,2.56,16.59,0.81,12.44,12.56,12.58,83.83,12,36
3660,3680,smallround,46.05,9.5,1.43,18.54,0.08,13.14,11.67,12.88,96.6,4,40
3680,3700,smallround,39.48,2.87,1.55,17.25,1.12,11.92,12.51,12.55,83.03,15,33
3700,3720,smallround,42.99,2.75,1.85,17.53,0.82,12.25,12.42,12.56,83.09,4,39
3720,3740,smallround,44.02,0.56,2.15,17.6,0.44,12.68,12.98,12.51,81.62,9,39
3740,3760,smallround,43.2,4.3,2.08,18.25,0.97,12.34,12.05,12.58,87.09,10,37
3760,3780,smallround,42.77,3,2.45,17.59,1.13,12,12.63,12.41,81.08,8,40
3780,3800,smallround,46.16,2.38,2.92,17.97,0.9,12.31,12.57,12.36,84.46,8,39
3800,3820,smallround,43.53,4.5,2.05,17.85,0.33,12.87,12.16,12.7,86.45,10,40
3820,3840,smallround,43.34,4.18,1.16,18.51,0.19,12.71,12.28,12.77,84.98,11,37
3840,3860,smallround,41.82,2.78,0.5,17.4,0.03,12.96,12.57,12.96,83.66,9,38
3860,3880,smallround,46.14,1.63,0.41,18.54,0.24,12.97,12.71,12.99,81.39,8,37
3880,3900,smallround,37.25,0.38,0.76,16.68,0.49,12.71,12.99,12.97,81.64,13,37
3900,3920,smallround,43.76,0.33,0.86,18.29,0.16,12.94,13.03,12.91,82.57,6,37
3920,3940,smallround,44.12,0.73,1.53,17.89,0.78,11.95,12.98,12.48,80.12,11,32
3940,3960,smallround,44.33,3.67,0.97,17.96,0.22,13.14,12.18,12.86,84.07,6,36
3960,3980,smallround,40.48,0.6,0.76,17.46,0,13.08,12.8,13,81.86,10,38
3980,4000,smallround,39.71,3.63,0.33,17.21,0.33,12.8,12.39,13.01,85.78,8,40
4000,4020,smallround,44.27,0,1.27,18.57,0.92,12.06,13.17,12.59,78.45,9,37
4020,4040,smallround,44.69,0,2.11,17.87,0.84,12.4,13.03,12.49,80.33,9,37
4040,4060,smallround,44.67,1.63,2.02,17.95,0.4,12.77,12.72,12.62,82.31,8,40
4060,4080,smallround,42.59,3.91,1.5,18.19,0.5,12.75,12.25,12.76,85.08,11,38
4080,4100,smallround,43.3,2.44,2.03,17.76,1.08,12.18,12.64,12.56,84.13,9,37
4100,4120,smallround,44.82,1.78,2.22,18.25,0.58,12.52,12.9,12.54,82.28,9,36
4120,4140,smallround,41.8,1.5,2,16.8,0.34,12.79,12.68,12.73,82.83,8,41
4140,4160,smallround,42.11,4.7,0.9,18.38,0,13.24,12.32,13.02,87.42,10,39
4160,4180,smallround,42.85,2.75,0.88,18.35,0.81,12.34,12.57,12.87,83.09,12,32
4180,4200,smallround,44.58,0.4,1.16,17.77,0.47,12.79,12.93,12.91,78.3,5,38
4200,4220,smallround,44.32,0,1.49,18.1,0.3,12.98,13.24,12.84,79.13,10,37
4220,4240,smallround,40.96,3.36,1,17.92,0.47,12.25,12.42,12.74,84.66,11,34
4240,4260,smallround,41.4,1.17,1.58,17.27,0.9,11.99,13.06,12.45,80.09,6,40
4260,4280,smallround,44.78,0.75,2.13,18.34,0.7,12.21,12.82,12.33,82.59,8,40
4280,4300,smallround,47.66,2.57,1.93,17.97,0.33,12.73,12.47,12.47,84.03,7,42
4300,4320,smallround,46.88,3.83,1.68,18.58,0.73,12.54,11.93,12.66,87.44,12,37
4320,4340,smallround,41.46,2.45,1.42,17.4,0.5,12.7,12.57,12.77,82.15,11,38
4340,4360,smallround,42.52,1.44,1.16,18.09,0.05,13.14,12.77,12.98,82.18,9,37
4360,4380,smallround,39.76,2.44,0.8,16.81,0.28,12.94,12.65,13.04,82.99,9,40
4380,4400,smallround,43.89,2,0.51,18.6,0.17,12.93,12.95,13,82.02,10,35
4400,4420,smallround,40.7,0.09,0.56,16.57,0.03,12.7,13.1,12.84,79.21,11,32
4420,4440,smallround,41.72,2.4,0.34,17.44,0.18,13.07,12.71,13.07,83.51,5,38
4440,4460,smallround,40.67,0.38,0.73,18.78,0.47,12.53,12.8,12.83,82.19,13,30
4460,4480,smallround,40.85,0.2,1.47,17.36,0.89,12.5,12.84,12.77,84.22,5,36
4480,4500,smallround,42.04,1.13,1.37,17.82,0.21,12.72,12.86,12.77,79.27,8,38
4500,4520,smallround,42,1.89,1.45,17.64,0.53,12.58,12.76,12.72,83.23,9,38
4520,4540,smallround,41.76,4,1.05,17.67,0.49,12.7,12.38,12.83,86.18,8,41
4540,4560,smallround,44.98,0.64,1.61,19.03,0.61,12.5,12.89,12.63,79.86,11,36
4560,4580,smallround,42.21,2,1.82,17.21,0.79,12.37,12.7,12.64,81.64,9,39
4580,4600,smallround,45.62,2.44,1.69,18.58,0.33,12.78,12.53,12.71,85.97,9,36
4600,4620,smallround,43.66,0.78,1.87,17.29,0.45,12.72,12.96,12.73,80.02,9,38
4620,4640,smallround,41.87,4.4,0.86,18.17,0.14,13.07,12.4,12.96,86.83,10,37
4640,4660,smallround,43.18,1.6,0.88,18.68,0.41,12.51,12.8,12.8,80.97,10,34
4660,4680,smallround,46.4,2.14,0.71,18.51,0.26,12.78,12.65,12.82,81.54,7,34
4680,4700,smallround,43.45,0,1,17.56,0.35,12.93,13.08,12.87,80.96,9,37
4700,4720,smallround,39.2,1.91,0.91,17.34,0.46,12.63,12.7,12.82,82.08,11,35
4720,4740,smallround,40.65,0.57,1.35,17.42,0.59,12.32,12.88,12.67,81.18,7,37
4740,4760,smallround,39.42,1.63,1.36,17.26,0.48,12.74,12.7,12.79,83.56,8,42
4760,4780,smallround,46.37,1.88,1.87,18.72,0.79,12.39,12.63,12.6,82.82,8,39
4780,4800,smallround,46.96,2.91,2.37,19.06,1.2,11.82,12.41,12.37,83.99,11,35
4800,4820,smallround,43.97,2.63,2.1,17.47,0.55,12.64,12.72,12.54,82.4,8,40
4820,4840,smallround,46.46,2.22,2,18.37,0.32,12.78,12.53,12.64,83.93,9,38
4840,4860,smallround,40.79,4.08,1.05,17.72,0.32,12.48,12.39,12.72,84.71,12,37
4860,4880,smallround,46.12,4.25,0.78,17.44,0.24,12.94,12.14,12.83,92.03,4,41
4880,4900,smallround,42.85,0.79,1.56,17.93,0.94,12.09,12.73,12.58,81.22,14,34
4900,4920,smallround,42.36,2.57,1.14,17.45,0.19,12.81,12.54,12.77,83.3,7,37
4920,4940,smallround,42.61,1.75,1.26,17.89,0.54,12.67,12.8,12.77,83.99,8,39
4940,4960,smallround,44.41,3,1.19,17.99,0.59,12.32,12.42,12.6,82.67,9,37
4960,4980,smallround,41.95,1.3,1.86,17.62,1.03,12.06,12.7,12.46,82.61,10,37
4980,5000,smallround,41.82,2.67,1.78,17.49,0.57,12.41,12.48,12.51,82.82,9,37
5000,5020,smallround,41.39,1.13,1.63,17.57,0.24,12.89,12.88,12.71,82.4,8,41
5020,5040,smallround,45.67,4,1.22,18.79,0.38,12.43,12.17,12.65,86.93,9,37
5040,5060,smallround,40.36,2,1.15,16.85,0.54,12.66,12.64,12.78,81.64,10,41
5060,5080,smallround,45.93,1.5,1.03,18.26,0.13,13.19,12.55,12.96,83.55,8,39
5080,5100,smallround,43.02,0.6,1.48,17.53,0.63,12.34,12.92,12.75,82.92,10,40
5100,5120,smallround,44.6,2.9,1.03,18.33,0.19,12.96,12.79,12.83,84.97,10,36
5120,5140,smallround,43.86,0.67,1.77,17.96,0.8,12.4,12.75,12.73,80.06,12,30
5140,5160,smallround,47.55,4.4,1,18.48,0.03,13.3,12.43,12.98,84.21,5,32
5160,5180,smallround,44.45,1.36,0.96,18.04,0.33,12.85,12.85,12.99,81.85,11,27
5180,5200,smallround,41.61,2,1.08,17.7,0.68,12.48,12.96,12.8,82.04,8,25
5200,5220,smallround,51.77,0,1.77,19.71,0.55,12.42,13.11,12.54,77.42,5,22
5220,5240,smallround,58.59,1.67,2,19.72,0.29,12.71,12.85,12.42,83.95,6,17
5240,5260,smallround,64.39,2.63,2,20,0.56,12.82,12.44,12.55,85.21,8,9
5260,5280,smallround,69.66,1.83,2.33,20,0,13.39,12.72,12.64,79.07,6,3
5280,5300,smallround,0,2.33,0,0,0,0,12.79,0,83.11,3,0
5300,5320,smallround,0,0,0,0,0,0,0,0,0,0,0
5320,5340,smallround,0,0,0,0,0,0,0,0,0,0,0
5340,5360,smallround,0,0,0,0,0,0,0,0,0,0,0
5360,5380,smallround,0,0,0,0,0,0,0,0,0,0,0
5380,5400,smallround,0,0,0,0,0,0,0,0,0,0,0
5400,5420,smallround,0,0,0,0,0,0,0,0,0,0,0
5420,5440,smallround,0,0,0,0,0,0,0,0,0,0,0
5440,5460,smallround,0,0,0,0,0,0,0,0,0,0,0
5460,5480,smallround,0,0,0,0,0,0,0,0,0,0,0
5480,5500,smallround,0,0,0,0,0,0,0,0,0,0,0
5500,5504,smallround,0,0,0,0,0,0,0,0,0,0,0
2750,2769.9420289855,#DIV/0!,39.9739492754,1.9437318841,1.3102536232,16.621557971,0.4638768116,11.8082246377,11.7052536232,11.9149637681,76.6178623188,8.152173913,33.8188405797
