"interval_begin","interval_end","interval_id","interval_meanDurationWithin","interval_meanHaltsPerVehicle","interval_meanHaltsPerVehicleWithin","interval_meanIntervalDurationWithin","interval_meanIntervalHaltsPerVehicleWithin","interval_meanIntervalSpeedWithin","interval_meanSpeed","interval_meanSpeedWithin","interval_meanTravelTime","interval_vehicleSum","interval_vehicleSumWithin"
0,20,"round",0,0,0,0,0,0,0,0,0,0,0
20,40,"round",0,0,0,0,0,0,0,0,0,0,0
40,60,"round",0,0,0,0,0,0,0,0,0,0,0
60,80,"round",0,0,0,0,0,0,0,0,0,0,0
80,100,"round",0,0,0,0,0,0,0,0,0,0,0
100,120,"round",0,0,0,0,0,0,0,0,0,0,0
120,140,"round",5.99,0,0,5.99,0,13.59,0,13.59,0,0,4
140,160,"round",16.66,0,0,14,0,13.44,0,13.43,0,0,9
160,180,"round",28.28,0,0,16.74,0,13.1,0,13.31,0,0,13
180,200,"round",40.16,0,0,17.18,0,13.21,0,13.29,0,0,16
200,220,"round",36.61,0,0,16.38,0,13.48,13.28,13.39,76.2,3,22
220,240,"round",32.68,0,0,16.6,0,13.18,13.16,13.33,78.9,6,24
240,260,"round",30.86,0,0.15,16.3,0.15,13.02,13.3,13.22,82.97,4,34
260,280,"round",36.77,0,0.58,17.29,0.47,12.82,13.22,13.04,72.57,3,45
280,300,"round",40.13,0.22,1.17,18.27,0.65,12.11,13.08,12.65,82.7,9,46
300,320,"round",47.97,1.5,2.2,19.08,1.27,12.17,13.01,12.4,80.58,8,45
320,340,"round",45.09,2.55,2.19,16.85,0.71,12.51,12.67,12.46,80.92,11,48
340,360,"round",38.23,1.33,2.39,16.73,0.65,12.76,12.69,12.67,83.38,15,49
360,380,"round",39.53,5,2.22,18.38,0.96,12.24,12.24,12.51,89,11,49
380,400,"round",43.66,6.89,2.8,18.64,1.86,11.12,12.1,12.04,84.45,9,50
400,420,"round",46.98,0.22,3.94,17.21,1.34,11.83,12.99,11.97,77.72,9,53
420,440,"round",45.84,2.83,3.63,17.53,0.5,12.85,12.51,12.33,84.01,12,56
440,460,"round",47.38,6,2.88,18.44,0.5,12.67,12.08,12.43,89.27,14,50
460,480,"round",41.62,5.73,2.51,17.45,1.33,11.96,12.09,12.44,88.19,15,49
480,500,"round",45.85,0.63,3.04,17.68,0.77,12.64,12.99,12.46,80.51,8,52
500,520,"round",48.76,4.55,2.82,18.38,0.66,12.73,12.5,12.5,86.11,11,50
520,540,"round",42.59,4.53,2.53,17.55,1.04,12.23,12.29,12.52,88.94,15,49
540,560,"round",44.32,3.64,2.6,17.85,0.81,12.41,12.53,12.49,86.49,11,47
560,580,"round",42.75,3.64,2.82,16.86,1.14,11.97,12.43,12.34,82.33,11,49
580,600,"round",39.83,3.38,2.42,17.57,0.54,12.58,12.51,12.47,85.63,13,50
600,620,"round",41.54,5.82,2.6,17.9,1.46,11.92,11.94,12.28,83.73,11,50
620,640,"round",45.12,3.57,2.8,17.76,0.93,12.18,12.51,12.32,85.54,7,56
640,660,"round",47.61,3.3,2.9,18,0.76,12.48,12.46,12.35,87.38,10,58
660,680,"round",45.93,4.24,2.19,18.6,0.35,12.63,12.17,12.52,85.39,17,52
680,700,"round",43.48,2.67,2.63,17.49,1.12,11.98,12.45,12.36,83.37,15,49
700,720,"round",43.52,3.91,2.92,17.29,1.2,12.15,12.52,12.29,85.12,11,50
720,740,"round",46.89,3.89,2.84,18.32,0.67,12.33,12.39,12.34,85.29,9,51
740,760,"round",46.85,4.42,3.48,17.79,1.64,11.79,12.33,12.12,85.82,12,50
760,780,"round",45.23,5.45,2.81,18.05,0.62,12.44,12.07,12.35,91.91,11,52
780,800,"round",45.02,3.54,2.66,17.91,0.66,12.53,12.25,12.43,85.34,13,50
800,820,"round",40.29,5.5,2.06,17.3,0.96,12.28,12.09,12.58,86.76,14,51
820,840,"round",44.6,1.92,2.55,19.06,0.81,12.13,12.67,12.37,81.32,12,47
840,860,"round",42.46,3.67,3.04,16.71,1.45,11.91,12.51,12.25,85.48,9,55
860,880,"round",46.73,4.27,3.09,18.49,0.87,12.36,12.25,12.35,84.12,11,54
880,900,"round",42.38,3.86,3,16.69,0.95,12.17,12.31,12.35,87.9,14,55
900,920,"round",45.93,5.91,3,18.52,1.15,12.18,12.06,12.35,85.73,11,54
920,940,"round",47.7,4.55,2.89,18.35,0.85,12.16,12.36,12.26,85.58,11,55
940,960,"round",46.9,2.86,3.02,17.99,0.73,12.3,12.41,12.27,86.85,14,52
960,980,"round",47.61,5.62,2.2,18.05,0.49,12.64,12.14,12.48,86.61,13,49
980,1000,"round",45.5,4.07,1.78,18.31,0.64,12.52,12.27,12.56,88.23,14,45
1000,1020,"round",42.97,2.73,1.65,17.7,0.6,12.58,12.45,12.63,83.77,11,48
1020,1040,"round",38.84,1.67,1.89,17.15,0.77,12.51,12.76,12.62,82.86,12,53
1040,1060,"round",44.9,2.64,2.67,18.59,1.19,11.95,12.57,12.3,80.49,11,48
1060,1080,"round",43.52,2.33,3.04,16.98,1.13,12.07,12.56,12.32,83.45,9,56
1080,1100,"round",42,4.5,2.02,17.28,0.07,13.06,12.29,12.64,88.33,14,55
1100,1120,"round",43.58,4.07,1.63,18.5,0.57,12.34,12.36,12.63,83.92,14,51
1120,1140,"round",42.32,3.57,1.85,17.43,1.17,12.11,12.49,12.48,85.22,14,48
1140,1160,"round",48.6,1.75,2.16,18.52,0.63,12.8,12.71,12.57,79.29,8,49
1160,1180,"round",45.42,1.67,2.53,17.87,0.73,12.39,12.62,12.49,84.52,15,45
1180,1200,"round",42.97,4.58,2.45,17.72,1.11,12.19,12.33,12.5,88.76,12,44
1200,1220,"round",43.16,1.67,2.63,18.17,0.73,12.51,12.76,12.48,83.56,9,49
1220,1240,"round",39.95,3.08,2.51,16.71,0.77,12.51,12.55,12.54,81.28,12,53
1240,1260,"round",43.83,6.67,1.53,18.6,0.2,12.81,11.93,12.72,87.22,9,55
1260,1280,"round",47.61,2.43,2.08,18.57,1.04,11.86,12.75,12.31,81.85,14,48
1280,1300,"round",42.92,2.83,2.09,17.55,0.87,12.42,12.43,12.53,87.01,12,54
1300,1320,"round",44.34,2.07,2.16,18.26,0.51,12.53,12.75,12.47,81.25,14,51
1320,1340,"round",44.76,4.27,2,17.83,0.76,12.46,12.18,12.57,89.82,11,51
1340,1360,"round",45.9,3.91,1.42,18.13,0.29,12.9,12.32,12.75,83.84,11,52
1360,1380,"round",43.62,1.13,2.66,17.77,1.47,11.76,12.82,12.31,81.72,16,47
1380,1400,"round",46.62,1.78,2.96,18.53,0.73,12.16,12.57,12.24,84.89,9,49
1400,1420,"round",49.16,3.6,2.85,18.49,0.58,12.5,12.52,12.27,87.03,10,48
1420,1440,"round",43.81,4.86,2,17.42,0.56,12.71,12.18,12.58,86.35,14,48
1440,1460,"round",40.57,3.46,1.8,17.37,0.76,12.39,12.37,12.56,84.65,13,49
1460,1480,"round",43.94,3.11,1.82,18.33,0.62,12.45,12.55,12.51,85.2,9,50
1480,1500,"round",44.61,3,2.23,17.75,1.08,11.89,12.5,12.31,83.04,10,53
1500,1520,"round",42.9,2.31,2.45,17.46,0.85,12.46,12.52,12.4,84.63,13,55
1520,1540,"round",45.44,2.42,3.19,18.02,1.19,11.96,12.49,12.2,83.43,12,53
1540,1560,"round",43.01,5.08,3.07,17.72,1.17,12.15,12.17,12.29,90.3,13,54
1560,1580,"round",45.36,4.54,3.67,18.04,1.57,11.6,12.15,12.02,81.87,13,51
1580,1600,"round",44.68,4.17,4.31,17.9,1.63,11.6,12.32,11.88,87.95,12,51
1600,1620,"round",52.1,5.63,4.42,18.67,0.92,11.98,11.87,11.91,88.3,8,50
1620,1640,"round",46.27,4.36,4.22,17.55,1.08,12.21,12.16,12.14,90.2,14,51
1640,1660,"round",43.66,9.5,2.56,17.36,0.62,12.55,11.61,12.41,91.21,12,52
1660,1680,"round",39.74,4.07,2.47,17.92,1.06,12.27,12.24,12.51,86.66,15,51
1680,1700,"round",45.88,6.38,3.1,18.55,1.65,11.6,11.92,12.17,85.15,8,52
1700,1720,"round",43.52,2,3.68,17.13,1.23,11.95,12.66,12.11,84.04,12,56
1720,1740,"round",47.14,5.42,3.11,18.31,0.45,12.68,12.14,12.31,86,12,53
1740,1760,"round",46.15,4.77,2.53,17.87,0.58,12.44,12.25,12.41,85.8,13,53
1760,1780,"round",43.42,5.86,2.22,18,1.2,12.13,11.94,12.41,90.83,14,51
1780,1800,"round",45.25,2.75,3.24,17.86,1.61,11.63,12.48,12.14,82.25,12,49
1800,1820,"round",47.23,1.36,4.44,18.18,1.44,11.73,12.79,11.86,82.38,11,48
1820,1840,"round",44.95,4.5,4.51,16.83,1.34,12.04,12.28,12.02,85.77,10,53
1840,1860,"round",41.4,8.92,3.42,17.23,1.09,12.05,11.55,12.23,94.05,13,53
1860,1880,"round",45.79,3.67,4.18,18.5,1.49,11.76,12.14,11.99,85.87,9,55
1880,1900,"round",47.42,5.58,4.56,18.3,1.6,11.58,12.19,11.85,85.11,12,55
1900,1920,"round",48.24,7,5.38,17.9,2.23,11.14,11.79,11.62,91.54,12,53
1920,1940,"round",46.08,6.33,4.49,17.9,0.82,12.42,11.94,12.13,88.81,12,57
1940,1960,"round",49.43,9.22,3.34,18.14,0.41,12.69,11.5,12.35,94.84,9,59
1960,1980,"round",46.25,5.11,2.64,18.19,0.64,12.4,12.05,12.46,87.19,19,50
1980,2000,"round",44.99,5.43,2.4,18.56,1.21,12.12,12.38,12.42,84.94,14,47
2000,2020,"round",43.78,1.91,3.18,17.61,1.34,11.96,12.52,12.3,83.92,11,50
2020,2040,"round",44.79,3.82,3.39,17.81,1,11.95,12.38,12.2,87.55,11,49
2040,2060,"round",45.29,3,3.96,17.67,1.3,12.11,12.66,12.14,84.74,11,50
2060,2080,"round",45.87,8,2.75,17.88,0.48,12.42,11.69,12.35,89.58,10,52
2080,2100,"round",43.6,4.79,2.48,17.98,0.96,12.34,12.13,12.46,88.36,14,50
2100,2120,"round",45.74,4.45,2.84,18.45,1.31,11.74,12.17,12.2,84.65,11,49
2120,2140,"round",43.22,2.17,3.78,16.99,1.57,11.94,12.65,12.13,83.36,12,51
2140,2160,"round",44.73,7.22,2.55,18.31,0.27,12.77,11.85,12.52,90.45,9,56
2160,2180,"round",42.42,3.86,2.25,17.39,0.68,12.49,12.26,12.52,85.34,14,57
2180,2200,"round",49.57,3.83,2.22,19.52,0.58,12.69,12.29,12.62,87.34,12,50
2200,2220,"round",46.25,2.87,2.13,17.15,0.68,12.39,12.78,12.48,80.34,15,47
2220,2240,"round",44.78,2.33,1.89,17.88,0.36,13.05,12.73,12.76,84.86,12,47
2240,2260,"round",42.93,3.38,1.24,18.19,0.24,12.76,12.45,12.82,84.08,13,45
2260,2280,"round",40.92,3,1.77,17.58,1.23,12.05,12.63,12.57,88.27,10,48
2280,2300,"round",42.82,1.8,1.98,17.92,0.67,12.71,12.86,12.66,79.42,10,51
2300,2320,"round",41.43,1.53,2.21,18.02,0.58,12.36,12.64,12.58,80.76,15,48
2320,2340,"round",44.22,5.78,1.64,18.05,0.56,12.57,12.27,12.66,89.08,9,50
2340,2360,"round",42.87,1.09,1.89,16.81,0.62,12.64,12.89,12.65,78.35,11,55
2360,2380,"round",41.41,4.07,1.54,18,0.67,12.47,12.39,12.66,86.69,14,54
2380,2400,"round",42.81,2,2.32,17.92,1.23,11.95,12.69,12.33,85.06,11,56
2400,2420,"round",46.14,3.25,2.76,18.54,1.07,11.95,12.41,12.18,83.89,12,54
2420,2440,"round",49.06,2.33,3.58,18.04,1.25,11.96,12.57,12.05,81.77,12,52
2440,2460,"round",48.61,4.92,3.73,17.76,1.24,12.11,12.08,12.11,89.45,12,51
2460,2480,"round",44.95,3.21,3.67,17.5,0.82,12.5,12.34,12.26,85.09,14,51
2480,2500,"round",44.88,6.55,3,17.89,0.7,12.38,11.96,12.4,91.9,11,50
2500,2520,"round",42.36,6.82,2.3,17.22,0.89,12.34,11.91,12.49,91.37,11,53
2520,2540,"round",42.13,3.71,2.49,17.68,1.12,12.32,12.4,12.47,80.9,14,51
2540,2560,"round",46.27,2.27,3,18.63,0.88,11.78,12.69,12.11,80.82,11,48
2560,2580,"round",43.17,5.3,2.8,17.09,1.11,12.26,12.05,12.33,91.25,10,54
2580,2600,"round",42.13,5.54,1.71,17.54,0.27,12.92,12.04,12.71,86.92,13,55
2600,2620,"round",45.14,0.17,2.55,17.98,0.81,12.48,12.92,12.52,80.48,12,53
2620,2640,"round",44.16,5.93,1.49,18.26,0.51,12.49,12,12.67,88.75,15,47
2640,2660,"round",41.72,0.85,2.02,17.13,0.79,12.54,13.04,12.6,79.86,13,48
2660,2680,"round",44.93,2.89,1.74,17.89,0.32,12.56,12.4,12.61,84.7,9,50
2680,2700,"round",41.89,2.71,2.23,17.55,1.19,12.11,12.53,12.43,85.23,14,47
2700,2720,"round",45.15,5,2.27,17.96,0.92,12.3,12.53,12.43,89.45,7,52
2720,2740,"round",45.13,1.57,2.88,18.16,0.92,12.4,12.61,12.42,80.32,14,49
2740,2760,"round",42.6,3.33,2.94,17.84,1,12.15,12.41,12.32,85.31,12,52
2760,2780,"round",42.8,4.67,2.65,17.18,0.79,12.19,12.45,12.34,83.54,12,52
2780,2800,"round",43.69,4.3,2.73,17.56,1,12.44,12.17,12.46,89.14,10,55
2800,2820,"round",44.84,4,2.29,17.69,0.44,12.41,12.47,12.44,85.08,12,55
2820,2840,"round",45.3,3.54,2.51,18.38,1,11.99,12.34,12.26,87.71,13,53
2840,2860,"round",45.28,4.36,2.4,18.33,0.96,12.31,12.21,12.33,84.35,14,50
2860,2880,"round",45.6,1.83,3.08,17.87,1.12,11.91,12.65,12.16,83.33,12,50
2880,2900,"round",43.26,4.31,2.76,17.63,0.8,12.42,12.19,12.33,86.8,13,50
2900,2920,"round",47.35,3.5,2.9,18.27,0.8,12.49,12.47,12.36,87.06,10,49
2920,2940,"round",45.59,5.5,2.24,18.22,0.69,12.39,11.99,12.46,89.5,12,49
2940,2960,"round",41.92,2.93,2.1,17.85,0.69,12.5,12.45,12.51,83.87,14,49
2960,2980,"round",43.86,3.3,1.86,17.94,0.46,12.57,12.44,12.53,83.23,10,50
2980,3000,"round",42.76,3.33,2.02,17.42,0.98,12.34,12.4,12.58,83.89,12,51
3000,3020,"round",41.62,2.83,1.67,17.67,0.39,12.75,12.48,12.73,85.59,12,54
3020,3040,"round",46.66,0.6,2.17,18.35,0.58,12.44,13.05,12.48,80.43,10,53
3040,3060,"round",43.18,3.94,1.9,17.72,0.84,12.39,12.4,12.6,84.92,16,49
3060,3080,"round",43.72,2.3,1.88,17.22,0.54,12.76,12.55,12.7,82.59,10,52
3080,3100,"round",46.17,0.5,2.69,18.29,0.82,12.38,12.95,12.48,83.44,12,49
3100,3120,"round",45.14,4.92,2.35,17.83,0.87,12.22,12.23,12.43,85.81,13,46
3120,3140,"round",44.28,2.73,2.51,18.03,0.85,12.41,12.61,12.39,84.75,11,47
3140,3160,"round",41.36,3.36,1.94,17,0.38,12.63,12.58,12.55,81.9,11,52
3160,3180,"round",41.02,3.42,2.94,17.69,1.79,11.6,12.41,12.2,86.23,12,52
3180,3200,"round",42.67,4.2,2.82,17.58,0.8,12.17,12.28,12.26,84.61,10,55
3200,3220,"round",46.99,0.88,3.58,17.75,1.12,12.23,12.81,12.2,83.41,8,60
3220,3240,"round",46.74,6.75,2.53,18.17,0.51,12.58,11.86,12.42,90.59,16,53
3240,3260,"round",45.13,3.07,2.84,17.75,1.08,11.91,12.48,12.28,81.61,15,50
3260,3280,"round",44.25,5.31,2.46,18.59,0.94,12.45,12.2,12.37,90.11,13,48
3280,3300,"round",45.87,3.44,2.65,17.93,0.98,12.19,12.25,12.32,84.06,9,52
3300,3320,"round",44.19,3.69,2.45,17.98,0.69,12.34,12.33,12.42,87.92,13,51
3320,3340,"round",45.47,2.64,2.67,17.9,0.76,12.52,12.56,12.42,81.46,14,46
3340,3360,"round",46.66,3.89,2.04,17.97,0.24,12.89,12.27,12.69,85.58,9,49
3360,3380,"round",41.05,3.93,1.31,17.62,0.46,12.58,12.39,12.75,85.75,15,48
3380,3400,"round",42.43,2.7,2.32,18.02,1.6,11.88,12.63,12.44,81.91,10,50
3400,3420,"round",45.03,1.6,3.5,18.03,1.5,11.75,12.81,12.11,84.61,10,50
3420,3440,"round",48.05,0.25,3.91,18.14,0.82,12.39,12.85,12.22,81.58,8,56
3440,3460,"round",42.88,6.13,3.16,17.27,1,12.39,12.12,12.41,86.56,16,56
3460,3480,"round",47.62,5.82,3.17,18.99,1,12.28,12.09,12.32,91.15,11,52
3480,3500,"round",46.89,5.15,2.88,18.01,0.96,12.1,12.11,12.31,84.62,13,51
3500,3520,"round",44.94,3.64,2.43,17.59,0.47,12.64,12.53,12.44,83.53,14,49
3520,3540,"round",42.01,3.85,2.1,17.65,0.72,12.43,12.36,12.58,85.51,13,50
3540,3560,"round",42.6,4.18,2.34,17.65,1.16,12.18,12.19,12.44,88.97,11,50
3560,3580,"round",43.84,3.11,2.24,17.46,0.59,12.62,12.4,12.53,86.16,9,54
3580,3600,"round",45.56,3.5,2.2,18.6,0.73,12.46,12.45,12.52,83.98,14,49
3600,3620,"round",44.04,3.21,2.43,18.81,1.09,11.9,12.45,12.31,84.02,14,47
3620,3640,"round",44.65,3.7,3.04,17.57,1.47,12.12,12.53,12.27,83.88,10,49
3640,3660,"round",42.8,3.7,2.41,17.61,0.41,12.53,12.34,12.46,86.51,10,56
3660,3680,"round",44.94,2.77,2.6,18.12,0.74,12.38,12.46,12.4,83.69,13,53
3680,3700,"round",44.75,4.53,2.48,18.92,1.02,12.51,12.23,12.56,87.53,15,48
3700,3720,"round",48.76,4.78,2.65,18.36,1.1,12.05,12.4,12.32,79.98,9,49
3720,3740,"round",43.99,2,3.33,17.48,1.25,12.17,12.75,12.27,83.78,15,48
3740,3760,"round",44.86,4.58,2.93,18.41,0.6,12.5,12.22,12.36,87.62,12,45
3760,3780,"round",41.82,4.4,2.22,17.21,0.46,12.69,12.23,12.66,87.3,10,50
3780,3800,"round",40.61,4.5,1.83,17.53,0.73,12.48,12.37,12.62,84.62,12,52
3800,3820,"round",42.95,3.42,2.08,18.64,1.02,12.01,12.46,12.44,84.94,12,51
3820,3840,"round",46.69,2.73,3.27,18.79,1.71,11.4,12.62,11.98,82.47,11,49
3840,3860,"round",49.02,2.44,4.35,17.8,1.69,11.96,12.71,12.03,82.79,9,52
3860,3880,"round",45.05,4.46,3.52,17.7,0.52,12.86,12.38,12.45,87.89,13,56
3880,3900,"round",43.14,6.19,2.46,18.11,0.5,12.57,11.9,12.6,87.86,16,50
3900,3920,"round",44.23,4.1,1.96,17.77,0.42,12.67,12.6,12.63,84.16,10,53
3920,3940,"round",45.07,4.62,1.5,17.81,0.62,12.56,12.52,12.65,83.44,13,50
3940,3960,"round",44.85,1.92,1.62,17.7,0.58,12.53,12.83,12.62,84.19,12,50
3960,3980,"round",45.04,1.23,2.11,18.27,0.7,12.52,12.71,12.53,84.9,13,46
3980,4000,"round",42.74,3.7,1.29,17.05,0.12,12.85,12.37,12.79,84.26,10,51
4000,4020,"round",40.48,3,0.63,17.96,0.14,12.97,12.48,12.94,85.6,14,49
4020,4040,"round",41.23,1.73,1.4,17.26,1.16,11.96,12.75,12.55,78.21,11,50
4040,4060,"round",42.98,0.7,1.75,17.83,0.54,12.5,12.98,12.53,82.08,10,52
4060,4080,"round",44.4,0.45,2.21,17.54,0.58,12.6,12.82,12.49,81.9,11,53
4080,4100,"round",41.62,3.8,2.37,17.94,1.21,12.11,12.33,12.45,85.96,15,52
4100,4120,"round",42.56,2.23,2.66,17.97,0.78,12.22,12.55,12.39,83.32,13,50
4120,4140,"round",50.02,4.25,3.27,19.06,1.24,11.94,12.37,12.2,85.28,8,49
4140,4160,"round",48.37,2.54,3.33,18.14,0.73,12.39,12.55,12.27,83.42,13,49
4160,4180,"round",46.58,4.69,2.68,17.99,0.51,12.59,12.32,12.43,87.36,13,47
4180,4200,"round",40.92,5.07,1.91,17.73,0.72,12.48,12.15,12.58,90.16,14,46
4200,4220,"round",41.22,3.73,1.85,17.71,0.85,12.25,12.33,12.49,82.44,11,47
4220,4240,"round",41.65,2.33,2.06,17.77,0.81,12.3,12.68,12.46,84.21,9,53
4240,4260,"round",43.78,2.92,2.86,18.46,1.44,11.66,12.45,12.11,81.8,13,50
4260,4280,"round",49.44,1.38,3.69,17.88,1.1,11.74,12.79,11.85,81.85,8,51
4280,4300,"round",45.01,4.77,2.89,17.4,0.56,12.6,12.2,12.28,87.83,13,54
4300,4320,"round",43.32,5.36,1.77,18.12,0.21,12.79,11.89,12.6,90.1,14,52
4320,4340,"round",42.4,3.23,2,18.05,1.02,12.21,12.24,12.54,88.37,13,51
4340,4360,"round",44.88,4.2,1.83,18.21,0.7,12.41,12.53,12.51,82.41,10,53
4360,4380,"round",43.99,1,3.4,17.93,1.76,11.46,12.8,12.07,79.94,15,50
4380,4400,"round",46.93,4.11,3.85,17.96,1.29,11.94,12.29,12.01,88.69,9,52
4400,4420,"round",48.58,4.45,3.4,18.21,0.5,12.61,12.13,12.28,86.82,11,52
4420,4440,"round",44.32,5.4,2.46,17.67,0.54,12.66,12.07,12.53,88.12,15,50
4440,4460,"round",38.73,4.87,1.88,16.85,0.86,12.33,12.23,12.63,87.58,15,49
4460,4480,"round",43.43,3,1.96,18.85,0.67,12.42,12.59,12.51,82.46,10,48
4480,4500,"round",43.93,2.5,2.49,17.19,1.14,11.96,12.68,12.26,80.63,10,51
4500,4520,"round",42.65,3.09,2.41,17.43,0.75,12.28,12.49,12.4,84.68,11,56
4520,4540,"round",44.91,3.08,3.18,17.99,1.31,12.1,12.34,12.19,86.54,13,51
4540,4560,"round",46.86,2.8,3.41,18.04,0.93,12.3,12.65,12.3,82.44,10,54
4560,4580,"round",48.8,6.31,3.04,18.66,0.96,12.16,11.82,12.26,89.03,13,49
4580,4600,"round",44.39,2.71,2.98,17.37,0.71,12.3,12.59,12.29,84.85,14,49
4600,4620,"round",45.34,5.64,2.17,18.25,0.42,12.77,12.1,12.53,90,11,48
4620,4640,"round",41.14,4.21,1.85,17.28,0.89,12.36,12.41,12.57,85.62,14,47
4640,4660,"round",41.89,3.89,1.63,17.86,0.61,12.51,12.27,12.68,85.87,9,51
4660,4680,"round",42.6,0.5,2.16,17.12,0.65,12.52,12.89,12.55,80.52,12,51
4680,4700,"round",42.26,4.33,2.75,17.66,1.63,11.95,12.42,12.41,82.37,12,52
4700,4720,"round",41.04,2.91,3.39,17.22,1.41,11.9,12.59,12.23,86.18,11,56
4720,4740,"round",47.9,3.8,3.57,19.03,0.7,12.15,12.32,12.15,87.77,10,53
4740,4760,"round",44.25,6.29,3.04,17.4,1.2,12.05,11.98,12.22,85.99,14,55
4760,4780,"round",47.85,4.55,2.96,18.06,0.8,12.48,12.16,12.36,84.5,11,54
4780,4800,"round",45.47,4.47,2.86,18.01,1,12.27,12.28,12.4,87.94,15,50
4800,4820,"round",45.11,5.33,2.65,18.09,1.04,12.12,12.04,12.41,88.89,12,49
4820,4840,"round",43.6,1.42,3,17.24,0.78,12.37,12.89,12.35,80.84,12,51
4840,4860,"round",45.95,4.82,3.43,18.51,1.39,12.02,12.23,12.23,87.89,11,49
4860,4880,"round",43.35,6,3.84,17.95,2,11.44,12.02,12.03,87.5,13,49
4880,4900,"round",46.04,1.56,4.83,18.14,1.48,11.6,12.77,11.86,82.33,9,52
4900,4920,"round",46.93,6.42,5.08,17.88,1.6,11.79,11.94,11.88,88.99,12,50
4920,4940,"round",45.34,7.27,4,16.94,0.72,12.49,11.9,12.2,87.09,11,53
4940,4960,"round",42.81,7.5,2.2,17.31,0.02,13.14,11.92,12.72,91.14,12,56
4960,4980,"round",40.83,5.13,1.55,18.25,0.75,12.5,12.2,12.74,88.07,16,51
4980,5000,"round",44.39,2.82,2.57,18.13,1.59,11.71,12.72,12.3,81.86,11,49
5000,5020,"round",45.98,1.3,3.08,18.12,0.94,12.24,12.98,12.25,78.87,10,53
5020,5040,"round",46.11,2.83,3.4,17.5,0.92,12.37,12.48,12.25,87.46,12,52
5040,5060,"round",45.28,5.69,2.66,18.07,0.6,12.6,12.01,12.49,89.96,13,50
5060,5080,"round",43.82,5.67,1.61,17.73,0.33,12.89,12.07,12.8,84.3,12,51
5080,5100,"round",43,2.29,1.41,18.42,0.39,12.68,12.74,12.79,82.09,14,49
5100,5120,"round",40.3,4,1,16.89,0.54,12.6,12.36,12.76,86.74,11,54
5120,5140,"round",45.65,1,2.06,18.34,1.19,12.17,12.95,12.46,80.35,12,48
5140,5160,"round",47.07,1,2.93,18.39,1.04,12.12,12.91,12.29,81.64,12,46
5160,5180,"round",52.68,2.27,3.13,19.02,0.38,12.65,12.64,12.32,84.48,11,40
5180,5200,"round",47.25,5.07,2.41,18.22,0.88,12.17,12.24,12.38,86.86,15,32
5200,5220,"round",51.53,3.9,2.32,19.81,0.8,12.37,12.34,12.33,82.99,10,25
5220,5240,"round",53.9,2,3.6,18.66,1.5,11.78,12.74,11.97,83.75,8,20
5240,5260,"round",64.89,5.5,3.31,20,0.19,12.97,11.88,12.2,92.97,4,16
5260,5280,"round",70.18,2.44,4.43,20,0,13.33,12.45,12.34,84.29,9,7
5280,5300,"round",72.56,5.6,1.5,20,0,13.48,12.26,12.96,84.62,5,2
5300,5320,"round",0,1.5,0,0,0,0,12.96,0,82.39,2,0
5320,5340,"round",0,0,0,0,0,0,0,0,0,0,0
5340,5360,"round",0,0,0,0,0,0,0,0,0,0,0
5360,5380,"round",0,0,0,0,0,0,0,0,0,0,0
5380,5400,"round",0,0,0,0,0,0,0,0,0,0,0
5400,5420,"round",0,0,0,0,0,0,0,0,0,0,0
5420,5440,"round",0,0,0,0,0,0,0,0,0,0,0
5440,5460,"round",0,0,0,0,0,0,0,0,0,0,0
5460,5480,"round",0,0,0,0,0,0,0,0,0,0,0
5480,5500,"round",0,0,0,0,0,0,0,0,0,0,0
5500,5510,"round",0,0,0,0,0,0,0,0,0,0,0
2750,2769.963768116,"#DIV/0!",41.6118115942,3.3992391304,2.4058695652,16.7382246377,0.8028623188,11.5731521739,11.511557971,11.6568115942,78.979384058,10.8079710145,46.134057971
