interval_begin,interval_end,interval_id,interval_meanDurationWithin,interval_meanHaltsPerVehicle,interval_meanHaltsPerVehicleWithin,interval_meanIntervalDurationWithin,interval_meanIntervalHaltsPerVehicleWithin,interval_meanIntervalSpeedWithin,interval_meanSpeed,interval_meanSpeedWithin,interval_meanTravelTime,interval_vehicleSum,interval_vehicleSumWithin
0,20,network,9.75,0,0,9.75,0,8.91,0,8.91,0,0,15
20,40,network,19.28,0,0,15.06,0,10.68,0,10.19,0,0,35
40,60,network,28.62,0,0,16.55,0,11.68,0,10.99,0,0,56
60,80,network,39.71,0,0,18.04,0,12.38,0,11.76,0,0,74
80,100,network,48.49,0,0.1,17.88,0.1,12.1,0,11.71,0,0,96
100,120,network,58.55,0,0.29,18.42,0.21,12.29,0,11.9,0,0,116
120,140,network,68.46,0,0.34,18.52,0.09,12.41,0,11.97,0,0,136
140,160,network,78.01,0,0.46,18.81,0.16,12.44,13.13,12.07,142.89,1,155
160,180,network,88.06,0,0.59,18.96,0.19,12.51,0,12.19,0,0,175
180,200,network,99.51,0,0.73,19.24,0.19,12.68,0,12.36,0,0,192
200,220,network,108.64,0,0.94,19.23,0.27,12.57,13.12,12.36,167.12,1,212
220,240,network,117.09,0,1.02,19.14,0.16,12.66,13.04,12.35,225.7,1,233
240,260,network,127.1,0,1.22,19.34,0.28,12.61,13.13,12.41,189.89,2,250
260,280,network,136.12,0,1.49,19.27,0.35,12.58,12.98,12.38,179,2,269
280,300,network,144.97,2.8,1.89,19.34,0.52,12.44,12.95,12.37,221.08,5,283
300,320,network,154.2,0,2.25,19.45,0.46,12.54,13.14,12.4,255.04,3,299
320,340,network,162.16,1,2.55,19.43,0.44,12.51,13.02,12.37,246.49,3,318
340,360,network,169.68,0.33,2.74,19.43,0.28,12.65,13.09,12.38,261.18,9,328
360,380,network,176.94,0.33,3.1,19.53,0.47,12.57,13.08,12.44,311.12,6,342
380,400,network,184.28,0,3.45,19.45,0.46,12.41,13.14,12.38,257.11,8,355
400,420,network,190.99,1.5,3.81,19.49,0.51,12.44,13.07,12.39,320.7,8,367
420,440,network,194.79,2.92,4.33,19.46,0.7,12.32,13,12.33,343.3,13,375
440,460,network,202.8,3.29,4.71,19.58,0.57,12.44,13.02,12.36,340.52,7,386
460,480,network,205.25,4.94,4.91,19.48,0.46,12.5,12.84,12.3,343.28,18,389
480,500,network,205.71,5.29,5.01,19.52,0.36,12.65,12.88,12.33,379.13,21,387
500,520,network,206.26,4,5.14,19.54,0.35,12.62,12.88,12.31,397.58,17,391
520,540,network,208.3,8.83,5.24,19.58,0.51,12.51,12.71,12.35,389.86,18,391
540,560,network,207.19,5.68,5.42,19.54,0.48,12.53,12.87,12.33,385.05,22,390
560,580,network,207.61,6.35,5.71,19.52,0.61,12.42,12.82,12.3,381.35,20,390
580,600,network,208.37,6,5.84,19.53,0.45,12.56,12.84,12.31,372,19,392
600,620,network,215,6.11,6.16,19.61,0.59,12.49,12.91,12.31,382.34,9,401
620,640,network,211.29,7.28,6.23,19.54,0.48,12.45,12.79,12.26,404.31,25,398
640,660,network,209.51,8.78,6.37,19.58,0.6,12.39,12.73,12.25,411.13,23,394
660,680,network,211.11,11.82,6.35,19.52,0.55,12.48,12.59,12.25,378.55,17,398
680,700,network,211.51,10,6.45,19.58,0.57,12.53,12.72,12.27,411.03,19,398
700,720,network,211.37,8.89,6.48,19.55,0.47,12.45,12.74,12.26,413.44,18,401
720,740,network,214.11,9.37,6.63,19.54,0.59,12.49,12.58,12.24,364.69,19,401
740,760,network,212,7.58,6.58,19.49,0.36,12.57,12.8,12.22,392.97,24,398
760,780,network,209.26,9.68,6.5,19.58,0.44,12.6,12.74,12.24,409.71,25,392
780,800,network,208.53,12.16,6.39,19.56,0.49,12.51,12.58,12.23,420.09,19,393
800,820,network,208.75,6.68,6.71,19.51,0.68,12.31,12.83,12.2,386.28,19,395
820,840,network,209.48,8.84,6.95,19.58,0.65,12.34,12.75,12.21,410.6,19,394
840,860,network,209.47,9.65,7.1,19.53,0.67,12.34,12.6,12.17,372.86,20,396
860,880,network,213.45,12,7.14,19.61,0.54,12.51,12.63,12.23,394.95,13,402
880,900,network,213.57,12.14,7.03,19.51,0.51,12.44,12.55,12.18,392.56,21,401
900,920,network,211.22,9.95,7.19,19.54,0.69,12.41,12.68,12.2,416.7,22,400
920,940,network,212.92,7.45,7.25,19.53,0.44,12.56,12.72,12.22,363.29,20,400
940,960,network,212.78,11.73,7.03,19.55,0.38,12.58,12.64,12.22,385.2,22,398
960,980,network,214.94,11.14,7.05,19.55,0.52,12.56,12.66,12.25,420.88,14,404
980,1000,network,215.9,12,7,19.59,0.5,12.53,12.55,12.26,416.94,18,405
1000,1020,network,215.53,10.08,7.06,19.59,0.58,12.57,12.6,12.29,380.06,25,399
1020,1040,network,211.98,12,6.82,19.52,0.43,12.57,12.62,12.26,427.2,22,399
1040,1060,network,208.8,11.28,6.54,19.58,0.33,12.66,12.65,12.29,416.65,25,393
1060,1080,network,210.36,10.31,6.43,19.51,0.39,12.61,12.63,12.29,390.59,16,398
1080,1100,network,207.86,8.71,6.64,19.58,0.68,12.35,12.79,12.27,382.94,28,389
1100,1120,network,206.48,7.79,6.87,19.45,0.66,12.36,12.81,12.18,407.89,19,392
1120,1140,network,211.4,8.21,7.07,19.59,0.57,12.45,12.74,12.24,365.46,14,396
1140,1160,network,215.45,8.6,7.32,19.61,0.64,12.46,12.77,12.24,370.53,15,400
1160,1180,network,214.54,10.39,7.46,19.56,0.68,12.38,12.66,12.21,418.58,18,404
1180,1200,network,211.74,9.75,7.63,19.62,0.68,12.36,12.69,12.22,400.23,28,394
1200,1220,network,214.45,11.93,7.52,19.53,0.47,12.52,12.65,12.19,360.95,15,401
1220,1240,network,215.5,9.56,7.48,19.53,0.41,12.6,12.76,12.22,422.57,16,405
1240,1260,network,213.42,13.43,7.23,19.52,0.45,12.52,12.51,12.22,426.04,21,405
1260,1280,network,215.64,12.7,7,19.51,0.38,12.58,12.56,12.23,368.97,20,404
1280,1300,network,213.02,11.63,6.78,19.52,0.43,12.58,12.69,12.23,399.36,27,396
1300,1320,network,212.1,9.7,6.71,19.58,0.42,12.56,12.73,12.25,413.91,20,396
1320,1340,network,210.43,13.9,6.27,19.55,0.27,12.66,12.57,12.27,427,20,396
1340,1360,network,211.46,8.26,6.24,19.56,0.38,12.59,12.7,12.29,385.63,19,397
1360,1380,network,210.11,10.22,6.15,19.51,0.46,12.49,12.69,12.26,392.67,23,394
1380,1400,network,210.46,9.94,6.29,19.47,0.64,12.32,12.65,12.23,395.68,17,399
1400,1420,network,216.22,11.5,6.62,19.63,0.74,12.38,12.6,12.26,385.59,12,404
1420,1440,network,214.26,8.54,6.73,19.52,0.59,12.32,12.66,12.2,386.06,24,402
1440,1460,network,211.79,8.83,6.93,19.53,0.67,12.42,12.7,12.22,409.16,24,398
1460,1480,network,211.08,13.4,6.62,19.48,0.38,12.68,12.55,12.24,401.26,20,399
1480,1500,network,211.17,8.65,6.6,19.56,0.4,12.6,12.75,12.28,406.77,20,398
1500,1520,network,214.32,8,6.59,19.59,0.34,12.64,12.77,12.31,405.94,14,403
1520,1540,network,215.91,9.65,6.55,19.63,0.43,12.61,12.61,12.34,381.12,20,402
1540,1560,network,214.81,8.82,6.46,19.57,0.38,12.65,12.73,12.32,396.91,22,401
1560,1580,network,210.94,12.79,6.05,19.51,0.3,12.64,12.59,12.28,424.57,24,398
1580,1600,network,209.52,14.17,5.66,19.61,0.36,12.7,12.52,12.34,414.68,23,393
1600,1620,network,207.68,8.18,5.65,19.49,0.45,12.49,12.75,12.31,388.39,22,393
1620,1640,network,206.05,7.22,5.72,19.53,0.44,12.57,12.8,12.31,403.84,23,389
1640,1660,network,209.17,7.06,6.05,19.56,0.67,12.37,12.76,12.3,361.78,16,393
1660,1680,network,211.59,5.93,6.35,19.54,0.62,12.43,12.86,12.25,378.91,15,399
1680,1700,network,214.81,11.59,6.36,19.54,0.53,12.48,12.64,12.25,369.59,17,401
1700,1720,network,210.04,8.92,6.48,19.54,0.63,12.42,12.76,12.25,420.87,26,396
1720,1740,network,210.55,7.27,6.67,19.56,0.55,12.53,12.79,12.25,378.26,22,393
1740,1760,network,212.7,13.13,6.74,19.59,0.64,12.46,12.59,12.28,401.77,15,398
1760,1780,network,212.38,7.14,6.96,19.54,0.6,12.4,12.79,12.25,386.36,21,398
1780,1800,network,213.87,9.35,7.07,19.65,0.53,12.5,12.68,12.28,424,17,399
1800,1820,network,214,9,7.05,19.49,0.46,12.58,12.7,12.23,385.23,19,402
1820,1840,network,211.04,8.38,6.91,19.5,0.3,12.72,12.73,12.25,400.48,26,396
1840,1860,network,207.58,12.18,6.6,19.6,0.32,12.68,12.65,12.32,450.11,22,393
1860,1880,network,212.33,9.57,6.73,19.59,0.55,12.46,12.57,12.33,356.22,14,398
1880,1900,network,211.52,9.04,6.81,19.55,0.57,12.46,12.74,12.29,378.19,23,396
1900,1920,network,210.34,12.37,6.88,19.49,0.7,12.32,12.66,12.22,417.78,19,398
1920,1940,network,209.23,11.08,6.69,19.54,0.41,12.49,12.64,12.22,382.58,24,394
1940,1960,network,215.4,9.62,6.73,19.67,0.42,12.64,12.7,12.29,360.34,13,398
1960,1980,network,211.88,7.45,6.98,19.5,0.68,12.35,12.76,12.2,417.18,22,399
1980,2000,network,210.75,8.32,7.15,19.54,0.59,12.39,12.76,12.18,399.91,22,397
2000,2020,network,212.04,12.29,7.06,19.49,0.51,12.42,12.61,12.19,388.68,17,401
2020,2040,network,212.29,10.68,7.02,19.53,0.46,12.53,12.7,12.21,416.06,19,401
2040,2060,network,213.29,12.59,6.99,19.56,0.55,12.46,12.57,12.24,413.91,17,404
2060,2080,network,213.51,11.52,6.77,19.52,0.4,12.56,12.58,12.22,373.84,23,401
2080,2100,network,214.12,8.77,6.74,19.55,0.4,12.64,12.71,12.26,382.12,22,398
2100,2120,network,211.15,11.61,6.68,19.57,0.57,12.54,12.67,12.25,424.61,23,395
2120,2140,network,209.9,11.86,6.62,19.57,0.55,12.48,12.6,12.24,410.42,21,394
2140,2160,network,211.42,10,6.58,19.57,0.44,12.6,12.73,12.28,392.54,17,397
2160,2180,network,209.56,9.71,6.67,19.48,0.6,12.39,12.73,12.22,413.56,21,397
2180,2200,network,207.15,12.19,6.61,19.53,0.65,12.39,12.61,12.23,386.49,26,391
2200,2220,network,210.75,5.79,6.96,19.55,0.65,12.44,12.89,12.23,372.05,14,397
2220,2240,network,212.6,7.53,7.21,19.5,0.61,12.33,12.81,12.18,379.42,19,397
2240,2260,network,213.75,7.6,7.59,19.6,0.75,12.39,12.76,12.19,434.05,15,402
2260,2280,network,210.43,9.61,7.51,19.49,0.47,12.49,12.67,12.16,383.58,28,395
2280,2300,network,213.03,13.93,7.26,19.56,0.36,12.61,12.54,12.22,392.41,15,400
2300,2320,network,213.89,12,7.33,19.51,0.63,12.39,12.64,12.19,414.29,16,405
2320,2340,network,215.91,11.11,7.41,19.55,0.61,12.39,12.66,12.21,382.79,19,405
2340,2360,network,215.53,8.88,7.5,19.56,0.53,12.52,12.69,12.21,388.46,24,400
2360,2380,network,212.27,13.59,7.12,19.52,0.35,12.61,12.59,12.2,432.69,22,399
2380,2400,network,209.95,13.18,6.8,19.58,0.35,12.67,12.58,12.25,432.44,22,396
2400,2420,network,206.86,11.38,6.76,19.5,0.6,12.48,12.58,12.25,404.24,24,393
2420,2440,network,209.88,7.06,6.99,19.56,0.57,12.4,12.81,12.24,367.23,17,395
2440,2460,network,210.41,8.42,7.33,19.58,0.76,12.32,12.67,12.21,395.28,19,396
2460,2480,network,210.53,9.9,7.4,19.54,0.6,12.46,12.71,12.21,375.82,21,396
2480,2500,network,215.47,11.47,7.43,19.68,0.49,12.58,12.66,12.25,388.52,15,397
2500,2520,network,211.23,8.43,7.42,19.58,0.48,12.51,12.72,12.23,421.28,23,397
2520,2540,network,213.56,9.33,7.62,19.61,0.64,12.34,12.68,12.22,377.4,18,398
2540,2560,network,213.9,13.94,7.58,19.53,0.66,12.38,12.56,12.2,388.91,18,402
2560,2580,network,214.1,8,7.66,19.55,0.48,12.5,12.79,12.21,397.51,20,402
2580,2600,network,214.05,12.05,7.67,19.56,0.6,12.42,12.63,12.19,414.38,19,403
2600,2620,network,213.73,12.65,7.47,19.57,0.43,12.57,12.54,12.21,400.87,23,398
2620,2640,network,214.94,9.11,7.46,19.58,0.44,12.59,12.71,12.22,383.71,19,399
2640,2660,network,212.74,11.76,7.26,19.54,0.44,12.53,12.62,12.23,412.93,21,400
2660,2680,network,211.21,14.48,6.92,19.57,0.43,12.63,12.51,12.27,409.55,23,396
2680,2700,network,214.01,9.73,6.91,19.58,0.44,12.53,12.75,12.28,387.51,15,401
2700,2720,network,211.24,14.46,6.65,19.54,0.55,12.49,12.53,12.25,414.59,24,397
2720,2740,network,210.34,10.85,6.58,19.49,0.51,12.48,12.57,12.22,392.19,20,399
2740,2760,network,213.71,9.82,6.74,19.6,0.58,12.47,12.66,12.28,379.05,17,400
2760,2780,network,213.09,8.1,6.86,19.51,0.55,12.45,12.79,12.21,392.34,21,400
2780,2800,network,212.22,7.14,7.16,19.55,0.66,12.42,12.77,12.22,398.97,22,398
2800,2820,network,212.57,15.53,6.92,19.51,0.53,12.59,12.53,12.24,400.91,19,399
2820,2840,network,213.06,11.78,6.9,19.56,0.54,12.54,12.65,12.27,411.53,18,401
2840,2860,network,211.76,11.19,6.96,19.54,0.63,12.44,12.64,12.26,415.15,21,400
2860,2880,network,213.79,9.16,7,19.63,0.46,12.55,12.7,12.27,390.17,19,399
2880,2900,network,213.81,8.72,7.04,19.65,0.49,12.54,12.73,12.27,369.92,25,393
2900,2920,network,209.66,8.18,6.92,19.51,0.36,12.6,12.78,12.21,425.37,22,394
2920,2940,network,208.37,12.91,6.74,19.61,0.48,12.63,12.6,12.26,418.42,22,390
2940,2960,network,210.5,6.93,6.79,19.51,0.43,12.59,12.75,12.25,383.23,14,398
2960,2980,network,209.65,8.63,7.03,19.52,0.67,12.37,12.75,12.25,385.24,24,393
2980,3000,network,207.93,9.24,7.09,19.54,0.55,12.42,12.7,12.22,414.51,21,392
3000,3020,network,209.8,6.06,7.34,19.53,0.57,12.49,12.81,12.2,360.2,18,395
3020,3040,network,215.44,5.92,7.63,19.58,0.58,12.45,12.88,12.2,357.17,13,400
3040,3060,network,211.95,7.57,7.88,19.55,0.67,12.38,12.77,12.19,418.66,23,399
3060,3080,network,210.91,11.63,7.73,19.5,0.47,12.46,12.63,12.19,383.99,24,395
3080,3100,network,213.83,18.15,7.62,19.59,0.6,12.4,12.43,12.2,427.75,13,401
3100,3120,network,213.7,10.32,7.56,19.54,0.46,12.52,12.7,12.2,404.69,19,403
3120,3140,network,214.6,12,7.45,19.56,0.47,12.5,12.58,12.21,397.04,19,404
3140,3160,network,213.49,12.78,7.14,19.51,0.37,12.59,12.55,12.21,397.74,23,401
3160,3180,network,213.95,7.32,7.12,19.56,0.31,12.74,12.8,12.26,391.28,22,397
3180,3200,network,210.04,13.45,6.74,19.57,0.35,12.66,12.6,12.27,441.59,22,396
3200,3220,network,208.76,12.09,6.58,19.52,0.49,12.5,12.65,12.25,391.24,23,393
3220,3240,network,210.94,6.76,6.7,19.54,0.47,12.51,12.83,12.26,375.79,17,396
3240,3260,network,209.39,13.71,6.62,19.55,0.63,12.37,12.61,12.24,415.44,21,395
3260,3280,network,210.78,12.29,6.49,19.49,0.47,12.49,12.57,12.22,373.62,17,400
3280,3300,network,214.38,9.18,6.67,19.57,0.59,12.47,12.72,12.23,372.53,17,401
3300,3320,network,212.97,8.36,6.74,19.48,0.53,12.38,12.72,12.19,390.49,22,401
3320,3340,network,212.71,12.06,6.78,19.54,0.59,12.43,12.58,12.21,453.99,17,403
3340,3360,network,212.16,9.91,6.73,19.53,0.46,12.58,12.65,12.25,383.92,23,400
3360,3380,network,213.42,13.11,6.55,19.56,0.45,12.62,12.63,12.26,394.25,18,402
3380,3400,network,214.32,15,6.49,19.57,0.59,12.46,12.53,12.29,428.84,16,406
3400,3420,network,214.74,9.86,6.5,19.5,0.51,12.46,12.62,12.22,378.14,22,404
3420,3440,network,211.63,9.28,6.45,19.53,0.47,12.59,12.66,12.23,392.17,29,394
3440,3460,network,208.59,8.38,6.46,19.57,0.44,12.6,12.78,12.26,441.07,21,393
3460,3480,network,211.03,9.88,6.29,19.62,0.29,12.75,12.64,12.29,383.13,17,395
3480,3500,network,210.87,9.71,6.32,19.6,0.53,12.47,12.68,12.3,390.92,21,394
3500,3520,network,211.51,8.68,6.41,19.59,0.52,12.54,12.71,12.3,391.74,19,395
3520,3540,network,209.24,11.33,6.31,19.53,0.51,12.44,12.62,12.25,408.91,21,396
3540,3560,network,210.42,7.6,6.49,19.59,0.55,12.55,12.77,12.27,382.55,20,395
3560,3580,network,213.98,6.79,6.61,19.53,0.46,12.51,12.83,12.24,374.68,14,401
3580,3600,network,208.72,6.57,6.82,19.52,0.56,12.46,12.79,12.22,411.46,28,394
3600,3620,network,211.32,7.94,7.02,19.49,0.59,12.41,12.78,12.2,375.8,16,398
3620,3640,network,213.29,13.25,6.82,19.57,0.4,12.57,12.64,12.25,396.18,16,402
3640,3660,network,213.91,8.11,6.91,19.54,0.48,12.57,12.71,12.27,396.98,19,403
3660,3680,network,213.27,11.05,6.71,19.59,0.34,12.68,12.62,12.3,414.03,21,401
3680,3700,network,214.33,7.14,6.87,19.55,0.52,12.51,12.79,12.28,370.62,21,400
3700,3720,network,210.77,13.64,6.49,19.51,0.4,12.59,12.6,12.26,416.68,25,395
3720,3740,network,209.29,8.57,6.47,19.58,0.42,12.64,12.72,12.3,414.14,21,394
3740,3760,network,211.99,9.47,6.53,19.54,0.52,12.5,12.76,12.29,365.69,17,397
3760,3780,network,209.94,10.7,6.35,19.55,0.39,12.5,12.68,12.27,407.35,23,394
3780,3800,network,207.88,8.61,6.38,19.5,0.5,12.51,12.75,12.25,394.05,23,392
3800,3820,network,210.03,9.94,6.43,19.48,0.54,12.43,12.7,12.21,371.78,16,397
3820,3840,network,215.64,8.62,6.58,19.56,0.5,12.53,12.81,12.26,359.67,13,402
3840,3860,network,213.72,9.95,6.61,19.55,0.56,12.42,12.69,12.25,421.7,21,402
3860,3880,network,211.63,9.17,6.59,19.52,0.45,12.52,12.68,12.25,410.6,23,399
3880,3900,network,210.54,12.32,6.44,19.5,0.52,12.45,12.55,12.24,390.66,22,398
3900,3920,network,210.7,8.58,6.65,19.49,0.63,12.4,12.79,12.2,405.27,19,399
3920,3940,network,213.01,12.21,6.63,19.52,0.51,12.44,12.57,12.25,416.64,14,405
3940,3960,network,215.53,9.6,6.62,19.56,0.43,12.63,12.67,12.28,374.25,20,403
3960,3980,network,213.7,11.44,6.45,19.57,0.44,12.56,12.65,12.26,401.23,25,397
3980,4000,network,209.09,10.04,6.13,19.47,0.28,12.61,12.7,12.23,416.53,24,396
4000,4020,network,208.25,10.64,6.01,19.54,0.41,12.66,12.62,12.28,408.77,22,392
4020,4040,network,210.37,7.07,6.26,19.58,0.6,12.46,12.8,12.3,401.65,15,397
4040,4060,network,209.45,9.45,6.28,19.52,0.51,12.5,12.68,12.27,394.67,22,395
4060,4080,network,209.41,10.14,6.32,19.53,0.58,12.47,12.61,12.27,376.57,21,395
4080,4100,network,213.28,9.93,6.43,19.63,0.53,12.46,12.68,12.29,386.62,15,398
4100,4120,network,213.78,7.21,6.7,19.49,0.66,12.35,12.79,12.23,377.67,19,401
4120,4140,network,211.79,9.59,6.87,19.58,0.66,12.35,12.69,12.22,429.15,22,398
4140,4160,network,209.6,13.65,6.82,19.46,0.72,12.33,12.53,12.17,392.39,23,397
4160,4180,network,214.08,7.85,6.93,19.54,0.46,12.52,12.78,12.2,379.19,13,403
4180,4200,network,214.65,12.53,6.88,19.56,0.56,12.39,12.59,12.22,401.46,19,404
4200,4220,network,215.21,8.96,7.04,19.68,0.57,12.55,12.65,12.28,394.51,23,398
4220,4240,network,212.37,6.38,7.13,19.59,0.43,12.57,12.8,12.23,390.45,26,393
4240,4260,network,211.03,8.39,6.98,19.49,0.3,12.64,12.74,12.2,421.63,18,397
4260,4280,network,211.13,14.61,6.59,19.58,0.29,12.68,12.5,12.27,428.57,18,398
4280,4300,network,209.8,11.52,6.53,19.52,0.55,12.51,12.62,12.27,404.01,21,398
4300,4320,network,209.55,8.17,6.52,19.54,0.41,12.57,12.76,12.27,377.37,24,393
4320,4340,network,208,10.95,6.56,19.56,0.62,12.42,12.71,12.24,403.62,22,391
4340,4360,network,209.97,7.73,6.81,19.51,0.66,12.36,12.77,12.19,376.59,15,398
4360,4380,network,215.7,6.08,7.2,19.53,0.67,12.32,12.8,12.19,355.84,13,403
4380,4400,network,211.82,9.11,7.38,19.59,0.67,12.31,12.74,12.15,408.2,27,396
4400,4420,network,211.56,10.16,7.31,19.52,0.45,12.49,12.67,12.17,401.9,19,398
4420,4440,network,214.41,15.33,7.06,19.59,0.4,12.61,12.46,12.23,401.29,15,402
4440,4460,network,216.2,8.94,7.16,19.55,0.54,12.56,12.74,12.23,383.25,17,406
4460,4480,network,213.64,14.09,6.91,19.55,0.51,12.55,12.49,12.22,426.68,23,403
4480,4500,network,215.68,12.12,6.92,19.54,0.57,12.42,12.52,12.23,387.51,17,406
4500,4520,network,210.28,9.34,6.69,19.48,0.32,12.61,12.7,12.22,397.36,32,394
4520,4540,network,208.06,11.05,6.56,19.62,0.42,12.62,12.68,12.29,433.49,22,390
4540,4560,network,208.98,6.88,6.65,19.58,0.46,12.6,12.8,12.27,390.04,17,394
4560,4580,network,210.91,8.11,6.81,19.6,0.55,12.47,12.76,12.28,376.42,19,394
4580,4600,network,210.52,9,6.99,19.53,0.64,12.36,12.71,12.24,403.37,19,396
4600,4620,network,208.85,12.04,6.93,19.54,0.63,12.39,12.6,12.2,382.52,24,393
4620,4640,network,215.58,5.78,7.21,19.63,0.56,12.53,12.84,12.23,375.42,9,402
4640,4660,network,215.26,9.47,7.31,19.54,0.6,12.37,12.73,12.17,397.17,19,405
4660,4680,network,211.08,9.21,7.38,19.58,0.55,12.41,12.67,12.2,406.7,29,395
4680,4700,network,210.97,13.05,7.09,19.54,0.37,12.64,12.59,12.22,395.2,19,397
4700,4720,network,213.64,7.87,7.12,19.56,0.42,12.62,12.77,12.23,391.25,15,402
4720,4740,network,215.82,8.71,7.29,19.62,0.57,12.45,12.66,12.26,398.69,17,404
4740,4760,network,214.54,12.52,7.19,19.53,0.55,12.53,12.56,12.23,407.88,21,404
4760,4780,network,212.93,8,7.31,19.54,0.52,12.51,12.7,12.21,383.34,27,396
4780,4800,network,211.86,10.05,7.22,19.52,0.43,12.54,12.72,12.19,418.83,19,398
4800,4820,network,210.69,16.59,6.8,19.62,0.43,12.61,12.49,12.27,419.95,22,394
4820,4840,network,211.57,8.94,6.76,19.46,0.45,12.48,12.69,12.22,373.04,17,400
4840,4860,network,211.35,12.5,6.66,19.52,0.51,12.41,12.63,12.21,412.09,20,399
4860,4880,network,211.05,11.33,6.66,19.52,0.59,12.42,12.6,12.21,393.53,21,398
4880,4900,network,213.18,11.18,6.71,19.55,0.57,12.46,12.64,12.22,380.59,17,401
4900,4920,network,213.25,9.48,6.79,19.49,0.57,12.41,12.75,12.19,389.17,21,400
4920,4940,network,212.94,6.5,7.04,19.58,0.55,12.43,12.8,12.22,417.54,20,399
4940,4960,network,211.34,10.22,6.94,19.49,0.46,12.56,12.65,12.21,390.03,23,397
4960,4980,network,212.74,10.88,6.91,19.52,0.5,12.49,12.67,12.22,386.98,17,401
4980,5000,network,213.92,9.56,7.19,19.52,0.73,12.31,12.69,12.21,419.46,16,405
5000,5020,network,223.34,11.11,7.53,19.99,0.59,12.64,12.66,12.39,404.23,19,389
5020,5040,network,231.48,11.58,7.83,20,0.59,12.71,12.57,12.41,398.77,26,363
5040,5060,network,239.82,8.72,8.17,20,0.41,12.82,12.73,12.41,397.2,25,338
5060,5080,network,249.15,7.5,8.59,20,0.39,12.75,12.76,12.41,420.31,20,318
5080,5100,network,260.72,14.53,8.73,20,0.47,12.74,12.56,12.44,405.75,17,301
5100,5120,network,274.06,4.8,9.28,20,0.27,12.88,12.84,12.45,362.61,20,281
5120,5140,network,283.31,11.23,9.53,20,0.41,12.84,12.65,12.46,409.75,22,259
5140,5160,network,297.6,13.06,9.46,20,0.2,13.03,12.59,12.49,368.64,18,241
5160,5180,network,312.01,10.08,9.62,20,0.19,13.07,12.71,12.52,403.3,13,228
5180,5200,network,321.29,9,9.91,20,0.23,13.01,12.73,12.54,427.65,21,207
5200,5220,network,334.02,9.79,10.02,20,0.1,13.13,12.71,12.56,400.89,19,188
5220,5240,network,345.67,17.41,9.55,20,0.26,12.92,12.44,12.59,426.69,17,171
5240,5260,network,357.03,11.55,9.41,20,0.15,13.14,12.62,12.62,412,22,149
5260,5280,network,367.31,11.84,9.26,20,0.21,13.05,12.64,12.64,433.17,19,130
5280,5300,network,383.45,8.07,9.53,20,0.13,13.14,12.77,12.65,408.79,14,116
5300,5320,network,395.87,9.09,9.65,20,0.01,13.24,12.73,12.67,426.15,22,94
5320,5340,network,405.44,7.44,10.33,20,0.16,13.32,12.85,12.66,446.89,18,76
5340,5360,network,407.67,14.41,9.19,20,0.03,13.26,12.61,12.71,476.3,17,59
5360,5380,network,419.3,10.62,9.33,20,0.54,12.76,12.78,12.7,448.15,13,46
5380,5400,network,436.74,7.4,10.45,20,0.19,12.92,12.82,12.66,434.84,15,31
5400,5420,network,459.38,9.86,10.63,20,0,13.46,12.75,12.68,436.08,7,24
5420,5440,network,478.26,18.33,9.52,20,0,13.47,12.57,12.73,476.72,3,21
5440,5460,network,491.17,6.9,11.91,20,0,13.51,12.87,12.65,494.47,10,11
5460,5480,network,503.93,11.88,12,20,0,13.43,12.67,12.65,500.27,8,3
5480,5493,network,0,12,0,0,0,0,12.66,0,509.67,3,0
2740,2759.9745454546,#DIV/0!,215.1472363636,9.2363636364,6.5694545455,19.4209090909,0.4662909091,12.4790909091,12.2893818182,12.2022545455,379.0165818182,18.1818181818,361.5890909091
