interval_begin,interval_end,interval_id,interval_meanDurationWithin,interval_meanHaltsPerVehicle,interval_meanHaltsPerVehicleWithin,interval_meanIntervalDurationWithin,interval_meanIntervalHaltsPerVehicleWithin,interval_meanIntervalSpeedWithin,interval_meanSpeed,interval_meanSpeedWithin,interval_meanTravelTime,interval_vehicleSum,interval_vehicleSumWithin
0,20,round,0,0,0,0,0,0,0,0,0,0,0
20,40,round,0,0,0,0,0,0,0,0,0,0,0
40,60,round,0,0,0,0,0,0,0,0,0,0,0
60,80,round,0,0,0,0,0,0,0,0,0,0,0
80,100,round,0,0,0,0,0,0,0,0,0,0,0
100,120,round,0,0,0,0,0,0,0,0,0,0,0
120,140,round,9.14,0,0,9.14,0,13.43,0,13.43,0,0,11
140,160,round,17.52,0,0,13.65,0,13.31,0,13.38,0,0,26
160,180,round,29.66,0,0.14,17.01,0.14,13.04,0,13.24,0,0,36
180,200,round,39.22,0,1.49,17.7,1.38,12.34,12.99,12.89,69.84,1,47
200,220,round,41.25,0,1.93,17.62,0.65,12.61,13.24,12.79,74.47,8,55
220,240,round,39.12,0,2.52,17.17,0.94,12.33,13.23,12.59,81.48,11,67
240,260,round,38.54,5.15,2.74,17.26,1.39,11.88,12.46,12.35,86.34,13,76
260,280,round,40.22,3.3,3.02,17.28,1.16,11.78,12.64,12.19,84.92,10,94
280,300,round,41.24,5.16,3.8,17.86,1.96,11.34,12.23,11.85,85.01,19,101
300,320,round,45.83,5.67,5.8,18.22,3.06,10.26,12.1,11.27,87.51,15,109
320,340,round,48.4,5.17,7.23,17.97,2.59,10.5,11.96,10.94,88.89,18,116
340,360,round,51.87,5.32,8.61,18.52,2.3,10.57,11.91,10.75,84.98,25,112
360,380,round,51.47,15.42,9.65,18.37,4.25,9.29,10.52,10.29,100.64,24,110
380,400,round,58.39,12.08,10.93,18.71,3.03,10.2,10.97,10.23,97.65,12,116
400,420,round,58.25,12.31,13.18,18.6,4.4,8.98,10.63,9.79,102.44,26,108
420,440,round,58.19,19.73,13.47,18.42,3.86,9.69,9.82,9.88,110.73,22,103
440,460,round,58.6,10.42,13.42,17.93,2.41,10.66,11.19,10.2,92.86,19,108
460,480,round,51.74,25.64,10.33,18.11,2.85,10.57,9.13,10.7,117,25,108
480,500,round,52.16,19.42,10.49,18.35,3.76,10.19,9.97,10.61,105.98,19,111
500,520,round,51.93,16,10.31,18.16,2.98,9.94,10.5,10.51,103.06,21,113
520,540,round,51.32,16.18,11.36,17.85,4.26,9.4,10.49,10.26,101.66,22,114
540,560,round,57.43,11.71,13.19,18.75,3.66,9.64,11.12,9.96,90.54,17,115
560,580,round,57.56,18.57,14.24,18.06,4.44,9.28,10.41,9.8,106.1,21,115
580,600,round,60.05,22.7,15.63,18.68,4.96,8.9,9.69,9.67,110.12,20,111
600,620,round,62.08,14.44,17.08,18.47,4.14,9.38,10.63,9.61,102.2,18,114
620,640,round,60.39,17.59,17.06,17.84,3.73,9.5,10.5,9.6,104.71,22,117
640,660,round,56.65,27.05,15.71,18.02,4.19,9.42,9.33,9.77,116.5,21,124
660,680,round,57.98,25.56,16.06,18.19,4.49,9.3,9.71,9.73,118.52,16,133
680,700,round,57.35,28.27,14.8,18.54,3.67,9.4,9.28,9.79,119.61,22,136
700,720,round,59.83,16.25,16.34,18.36,4.23,8.89,10.46,9.45,101.12,24,134
720,740,round,60.65,28.22,16.59,18.68,5.01,8.92,9.43,9.41,115.97,23,133
740,760,round,62.86,18.41,16.28,18.35,3.03,9.65,10.6,9.51,101.74,22,136
760,780,round,63.33,22.77,18.09,18.58,5.52,8.71,9.67,9.26,115.11,26,129
780,800,round,65.65,25.27,18.51,18.62,4.4,9.03,9.58,9.22,112.36,22,126
800,820,round,64.32,19.58,20.3,18.48,5.4,8.6,9.89,9.13,114.29,24,125
820,840,round,61.89,33.36,19.35,18.31,5.15,8.76,8.89,9.29,124.18,22,127
840,860,round,64.71,20.11,20.09,18.57,4.13,9.02,10.16,9.19,107.15,19,130
860,880,round,65.18,28.73,21.04,18.69,5.69,8.28,9.48,8.93,119.26,22,129
880,900,round,66.29,36.45,21.13,18.66,5.5,8.42,8.77,8.82,128.48,20,127
900,920,round,66.68,27.28,21.41,18.18,4.92,8.75,9.58,8.99,117.57,18,133
920,940,round,63.94,34.57,21.53,18.39,6.09,8.44,8.56,9.07,131.16,23,133
940,960,round,71.17,22.06,23.48,19.18,4.34,8.63,9.94,8.73,108.58,17,130
960,980,round,66.86,29.64,22.66,18.06,5.02,8.46,9.1,8.78,122.82,25,131
980,1000,round,65.92,33.67,21.84,18.35,4.96,8.89,9.08,8.96,120.71,24,128
1000,1020,round,67.51,36.47,21.35,18.81,4.86,8.59,9.08,8.88,124.82,17,132
1020,1040,round,63.17,38.58,20.77,18.29,6.33,8.03,8.35,8.83,136.69,24,131
1040,1060,round,66.78,26.25,22.27,18.57,5.35,8.55,9.52,8.83,117.07,16,136
1060,1080,round,67.8,31.13,23.69,18.92,6,7.98,9.03,8.59,124.38,24,129
1080,1100,round,68.81,30.22,24.28,18.34,5.53,8.59,9.1,8.81,119.44,18,134
1100,1120,round,67.84,30.36,23.34,18.29,4.45,8.97,9.71,8.97,116.56,25,132
1120,1140,round,67.54,28.96,24.72,18.46,6.15,8.18,9.21,8.82,122.22,23,130
1140,1160,round,69.41,33.56,25.07,18.71,5.53,8.45,9.06,8.8,125,16,137
1160,1180,round,65.78,36.08,24.28,18.27,5.94,8.17,8.9,8.85,127.49,24,140
1180,1200,round,65.96,30.95,23.71,18.35,4.62,8.8,9.12,8.93,122.61,21,144
1200,1220,round,71.87,35,25.73,18.88,6.01,7.98,9.55,8.43,120.6,17,143
1220,1240,round,70.9,46,25.59,18.77,6.92,7.4,8.11,8.26,137.51,26,133
1240,1260,round,73.46,31.56,27.73,18.5,6.57,7.85,9.3,8.21,123.48,18,134
1260,1280,round,70.89,34.64,27.36,18.18,5.8,8.3,8.98,8.5,127.2,22,137
1280,1300,round,71.14,37.58,28.31,18.59,6.42,7.95,8.59,8.43,129.77,24,130
1300,1320,round,75.96,34.62,30.4,19.09,6.65,7.8,9.21,8.31,125.68,13,136
1320,1340,round,76.08,40.68,32.6,19.02,7.87,7.29,8.18,8.2,138.51,22,131
1340,1360,round,79.27,29.94,33.01,18.66,4.52,8.66,9.08,8.34,121.97,18,131
1360,1380,round,80.08,22,33.44,18.5,3.78,9.44,9.93,8.5,112.27,24,128
1380,1400,round,70.82,58.64,25.84,18.34,4.39,9.65,7.87,9.24,144.81,28,123
1400,1420,round,62.04,55.72,19.84,18.22,4.97,8.81,8.08,9.43,147.47,25,120
1420,1440,round,62.1,28.32,20.28,18.79,5.26,8.68,9.52,9.27,117.83,22,117
1440,1460,round,63.04,25,20.75,18.09,5.02,8.77,9.94,9.17,114.02,15,127
1460,1480,round,63.68,32.24,21.1,18.58,5.56,8.64,9.37,9.15,119.9,21,126
1480,1500,round,63.83,39,21.08,18.39,5.96,8.53,8.74,9.25,128.84,17,132
1500,1520,round,67.55,20.79,23.2,18.55,5.11,8.58,10.06,9.06,109.22,19,132
1520,1540,round,71.12,18.18,26.38,18.81,5.58,8.54,10.11,8.82,108.47,22,128
1540,1560,round,70.1,28.13,27.26,18.25,6.1,8.37,9.77,8.75,114.38,23,129
1560,1580,round,70.33,35.25,27.3,18.52,5.34,8.51,9.01,8.7,128.41,20,128
1580,1600,round,68.49,42.9,26.71,18.44,6.29,8.1,8.46,8.69,136.54,21,127
1600,1620,round,69.16,42.47,25.66,18.43,5.27,8.73,8.6,8.88,131.26,17,131
1620,1640,round,68.23,37.09,24.68,18.39,5.1,8.75,9.26,8.93,125.21,22,130
1640,1660,round,67.21,31.86,23.44,18.22,4.35,9.16,9.23,9.09,121.8,21,133
1660,1680,round,63.8,43.35,19.49,18.57,3.54,9.55,8.43,9.43,136.23,23,133
1680,1700,round,65.77,30.11,20.71,18.88,5.88,8.26,9.54,8.91,115.23,27,120
1700,1720,round,66.94,36.5,19.36,19.01,4.25,9.01,8.95,9.05,124.99,18,121
1720,1740,round,63.78,29.32,19.41,18.6,5.66,8.67,8.96,9.19,121.73,25,117
1740,1760,round,61.27,27.05,19.59,17.97,5.51,8.69,9.41,9.29,115.23,21,121
1760,1780,round,65.2,22.07,21.95,18.59,5.51,8.57,10.06,9.08,116.08,15,124
1780,1800,round,65.55,28.14,23.85,18.98,6.47,8.01,9.15,8.88,120.55,22,121
1800,1820,round,69.3,20.89,25.78,18.71,5.2,8.41,10.03,8.75,108.27,18,122
1820,1840,round,69.39,30.7,25.59,18.46,5.02,8.82,9.47,8.9,118.87,20,123
1840,1860,round,68.22,36.39,24.12,18.3,4.7,8.91,9.22,8.96,122.36,23,119
1860,1880,round,69.82,30.88,23.98,18.73,4.92,9.23,9.62,9.09,118.61,17,123
1880,1900,round,63.49,43.63,20.31,18.24,4.71,8.94,8.31,9.28,136.08,24,122
1900,1920,round,61.56,30.09,20.26,18.35,5.5,8.66,9.14,9.27,119.65,22,123
1920,1940,round,64.21,32.33,20.23,18.72,4.57,8.61,9.31,9.06,122.63,18,122
1940,1960,round,66.4,26.79,21.33,18.61,5.14,8.21,9.64,8.82,116.69,19,121
1960,1980,round,65.73,36.85,19.47,18.37,4.1,9.02,8.7,9.06,127.76,20,120
1980,2000,round,67.73,18.44,20.31,18.39,4.28,9.21,10.43,9.12,101.67,18,125
2000,2020,round,60.96,39.46,17.11,18.52,4.85,9.01,8.11,9.35,135.87,28,117
2020,2040,round,66.75,15.43,18.12,18.74,3.36,9.52,10.59,9.33,102.52,14,121
2040,2060,round,60.46,30.63,16.66,18.41,4.79,8.99,8.74,9.54,128.44,27,115
2060,2080,round,60.54,24.4,16.23,18.44,4.13,9.64,9.76,9.74,110.01,20,118
2080,2100,round,60.87,17.75,17.1,18.23,4.21,9.36,10.42,9.66,105.55,20,121
2100,2120,round,60.65,27.25,17.9,18.52,5.41,8.87,9.3,9.6,119.63,20,122
2120,2140,round,60.68,19.9,18.87,18.12,4.85,8.98,10.27,9.5,106.43,21,126
2140,2160,round,64.42,20.42,19.86,18.41,3.95,9.09,10.28,9.26,107.9,19,125
2160,2180,round,61.07,36.43,19.13,18.07,5.81,8.78,8.79,9.39,128.02,21,129
2180,2200,round,64.38,29.42,19.09,18.68,4.18,9.35,9.5,9.38,115.16,19,128
2200,2220,round,60.37,26.32,16.58,18.17,2.95,9.85,9.31,9.75,116.56,25,131
2220,2240,round,59.34,26.67,16.55,18.43,4.84,9.27,9.45,9.63,114.55,27,124
2240,2260,round,61.36,28.79,15.11,18.46,3.17,9.99,9.53,9.84,112.44,19,126
2260,2280,round,60.06,24.04,16.06,18.61,5.31,8.84,9.64,9.63,115.22,26,119
2280,2300,round,60.73,24.45,16.28,18.47,4.43,9.17,9.62,9.63,112.45,20,120
2300,2320,round,64.87,12.62,19.08,19.02,4.39,9.21,10.84,9.41,104.71,21,115
2320,2340,round,62.96,25.7,19.12,18.13,4.94,9.11,9.57,9.5,114.18,23,113
2340,2360,round,64.12,18.33,19.87,18.56,4.01,9.63,10.2,9.6,103.03,21,112
2360,2380,round,65.22,23.3,20.5,18.47,4.37,9.13,10.13,9.35,111.54,20,109
2380,2400,round,62.44,36.41,19.21,18.46,5.29,8.73,9.02,9.34,127.92,22,103
2400,2420,round,59.76,31.79,16.95,17.95,3.84,9.78,9.42,9.84,118.53,14,117
2420,2440,round,57.13,25.7,15.77,18.25,3.67,9.65,9.39,9.86,118.83,23,115
2440,2460,round,59.9,18.53,15.88,18.6,3.28,9.8,10.19,9.75,103.43,19,116
2460,2480,round,59.09,34.05,14.47,18.51,4.46,9.4,9.18,9.85,120.34,20,116
2480,2500,round,58.12,25.65,14.35,18.59,4.55,9.44,9.52,9.96,116.53,23,111
2500,2520,round,60.08,7.96,17.48,18.24,4.54,9.08,11.38,9.64,91.47,23,109
2520,2540,round,59.51,21.32,17.33,18.27,3.94,9.79,9.89,9.84,111.67,19,112
2540,2560,round,64.82,11.79,18.48,18.64,3.43,9.7,11.04,9.67,94.89,14,118
2560,2580,round,58.29,36.84,14.82,18.05,3.86,9.68,8.88,9.89,130.56,25,115
2580,2600,round,57.79,26,13.62,18.49,3.58,10.12,9.92,10.12,112.12,20,118
2600,2620,round,54.73,24.32,13.19,18.27,4.58,9.14,9.48,10.01,111.17,25,116
2620,2640,round,55.54,17.81,15.22,18.39,5.26,8.83,10.1,9.75,106.71,21,116
2640,2660,round,58.31,16.33,16.66,18.19,4.59,9.05,10.55,9.62,102.24,15,126
2660,2680,round,59.5,23.65,17.56,18.13,4.86,9.08,9.77,9.51,111.55,20,128
2680,2700,round,58.69,26.85,17.91,17.9,5.33,8.81,9.63,9.53,113.33,20,136
2700,2720,round,59.12,25.18,18.6,18.38,4.86,9.01,9.41,9.51,118.63,22,137
2720,2740,round,62.46,21.3,19.56,18.61,4.41,8.91,9.96,9.29,106.23,20,140
2740,2760,round,64.18,30.76,20.53,18.72,5.71,8.1,9.14,8.99,116.04,25,133
2760,2780,round,63.94,32.41,21.44,18.57,6.5,8.25,8.97,9.07,119.65,22,135
2780,2800,round,68.77,20.74,22.46,18.77,3.94,9.04,9.83,9.01,107.86,19,135
2800,2820,round,67.08,29.84,22.68,18.43,5.49,8.68,9.18,9.02,120.5,25,133
2820,2840,round,69.89,27.41,22.81,18.58,4.25,8.92,9.62,8.87,109.52,22,130
2840,2860,round,64.27,42.24,20.57,18.45,5.54,8.41,8.39,8.95,137.98,25,127
2860,2880,round,63.68,34.1,20.29,18.55,5.44,8.57,8.79,9.07,124.32,20,130
2880,2900,round,65.65,26.23,23.17,19,6.81,7.65,9.35,8.69,117.68,22,126
2900,2920,round,69.39,18.94,26.3,18.51,6.18,7.94,9.82,8.48,110.42,16,130
2920,2940,round,71.51,31.48,27.79,18.7,6.07,8.16,9.22,8.45,120.62,21,127
2940,2960,round,71.44,37.17,27.09,18.35,5.42,8.33,9.18,8.55,124.92,18,132
2960,2980,round,71.82,32.06,26.74,18.45,5.01,8.65,9.47,8.6,121.41,18,138
2980,3000,round,68.59,54.26,24.31,18.91,6.08,8.35,7.54,8.77,150.94,23,134
3000,3020,round,68.84,37.33,24.86,18.74,6.27,8.05,8.51,8.71,129.85,21,133
3020,3040,round,69.87,28.14,26.41,18.56,6.05,8.2,9.41,8.67,117.84,22,132
3040,3060,round,70.14,26.1,26.68,18.45,4.89,8.85,9.45,8.89,116.69,20,136
3060,3080,round,68.2,36.24,26.24,18.46,5.92,8.49,9.1,9,124.38,25,134
3080,3100,round,66.88,39.78,24.62,18.38,5.07,8.67,9.14,9.02,127.28,23,133
3100,3120,round,70.22,17.68,26.09,18.47,4.64,8.76,10.57,8.9,103.15,19,137
3120,3140,round,69.07,37.39,26.09,18.46,6.28,8.31,9.23,8.81,126.9,23,137
3140,3160,round,68.38,37.68,25.26,18.35,5.22,8.44,9.01,8.89,128.1,22,137
3160,3180,round,71.8,25.45,28.06,19,6.09,7.93,9.41,8.55,118.08,22,132
3180,3200,round,78.09,22.19,31.55,18.97,5.85,7.97,10.33,8.17,107.12,21,126
3200,3220,round,77.26,49.84,32.36,18.82,8.14,7.34,8.39,8.1,142.6,19,125
3220,3240,round,76.21,39.67,31.38,18.55,5.76,8.18,9.31,8.27,128.21,18,130
3240,3260,round,75.01,28.83,32.17,18.42,5.48,8.5,9.31,8.42,123.3,23,128
3260,3280,round,71.81,53.94,30.3,18.43,6.99,7.96,8.25,8.66,143.44,18,135
3280,3300,round,72.93,38.79,29.8,18.72,5.33,8.33,9.02,8.65,129.17,19,137
3300,3320,round,72.26,23.11,30.55,18.03,5.93,8.31,10.46,8.68,111.52,19,148
3320,3340,round,70.61,47.77,29.52,18.54,6.54,7.89,8.73,8.62,136.6,22,151
3340,3360,round,75.49,30.81,33.25,19.08,7.33,6.86,9.26,7.93,122.74,21,147
3360,3380,round,82.99,28.79,37,19.02,7.1,7.2,9.64,7.64,114.67,14,150
3380,3400,round,83.19,48.17,39.25,18.88,8.74,6.46,8.54,7.44,139.53,24,144
3400,3420,round,83.23,39.56,39.15,18.52,6.43,7.79,8.72,7.81,132.19,18,151
3420,3440,round,86.96,24,41.51,18.69,6.09,7.79,9.89,7.72,115.39,19,154
3440,3460,round,85.07,61.46,39.85,18.93,6.84,7.51,7.81,7.7,156.68,24,149
3460,3480,round,84.2,37.55,39.58,18.4,6.39,7.6,9.33,7.76,124.92,22,154
3480,3500,round,83.82,65.35,39.04,18.81,7.54,7.16,7.65,7.67,160.52,20,152
3500,3520,round,81.07,55.05,38.62,18.52,7.95,6.9,8.14,7.63,152.14,22,154
3520,3540,round,80.91,46.27,38.12,18.48,6.85,7.58,9.04,7.9,141.31,15,168
3540,3560,round,84.42,47.61,41.34,19.17,8.37,6.75,8.29,7.43,143.25,23,161
3560,3580,round,90.15,50.38,42.86,19.01,6.75,7.14,8.39,7.28,138.8,16,162
3580,3600,round,89.61,53.12,44.22,18.83,8.45,6.84,8.05,7.22,148.11,25,157
3600,3620,round,87.56,61.74,41.87,18.8,6.46,7.65,7.85,7.4,151.52,27,149
3620,3640,round,87.79,52.2,41.49,18.61,6.87,7.49,8.18,7.5,140.94,20,150
3640,3660,round,82.32,64.32,37.68,18.61,6.49,7.91,7.63,7.8,158.98,25,148
3660,3680,round,86.34,43,38.86,19.04,6.26,7.59,9.05,7.57,132.18,19,146
3680,3700,round,80.46,61.6,36.79,18.46,7.48,7.27,6.97,7.76,162.47,25,141
3700,3720,round,83.54,41.53,38.06,19.15,6.64,7.83,8.57,7.85,132.61,19,140
3720,3740,round,82.68,49.75,36.95,18.65,6.44,7.66,8.6,7.87,138.5,20,142
3740,3760,round,77.18,55.09,34.21,18.18,6.38,7.84,7.93,8.23,153.84,22,145
3760,3780,round,81.72,25.53,36.67,18.89,6.02,7.72,9.71,7.95,114.7,19,146
3780,3800,round,82.61,39,37.17,18.39,6.15,7.66,9.04,7.81,135.63,18,150
3800,3820,round,81.43,76.37,33.74,18.89,6.06,8.06,7.35,7.96,169.78,19,149
3820,3840,round,74.97,56.34,31.05,18.67,7.32,7.65,7.78,8.18,150.39,29,143
3840,3860,round,75.36,46.06,29.42,18.43,5.04,8.55,8.45,8.41,136.32,17,150
3860,3880,round,74.28,36.74,29.58,18.68,5.83,8.04,8.74,8.36,129.56,27,144
3880,3900,round,71.86,40.57,28.41,18.39,5.78,8.29,8.32,8.52,132.68,23,147
3900,3920,round,73.58,37.1,27.37,18.71,4.47,8.66,8.92,8.62,124.81,20,150
3920,3940,round,67.4,46.21,25.47,18.2,6.47,7.83,8.14,8.68,143.14,28,148
3940,3960,round,72.78,28.33,27.42,18.6,5.54,8.34,9.58,8.53,115.42,18,149
3960,3980,round,74.31,37.46,28.64,18.91,6.25,7.65,8.66,8.3,129.56,26,139
3980,4000,round,79.78,26.91,33.08,18.98,7.22,7.42,9.36,7.92,115.35,23,130
4000,4020,round,81.54,31,35.56,18.64,7.21,7.64,9.18,8.04,122.41,18,132
4020,4040,round,78.51,39.68,33.68,18.45,4.73,8.76,8.4,8.53,137.59,22,132
4040,4060,round,79.3,23.68,34.35,18.67,4.84,8.85,9.76,8.59,113.55,22,133
4060,4080,round,75.22,46.74,31.09,18.41,5.21,8.72,9.21,8.7,134.51,23,135
4080,4100,round,76.11,49.57,31.13,19.1,6.48,7.95,8.29,8.41,144.36,23,124
4100,4120,round,76.99,45.53,29.8,18.72,5.11,8.28,9.25,8.34,136.45,17,125
4120,4140,round,69.31,48.67,24.65,18.33,4.36,9.13,8.6,8.93,141.91,24,126
4140,4160,round,66.5,42.24,21.77,18.27,4.43,9.43,8.52,9.26,131.53,21,128
4160,4180,round,67.42,36.87,19.64,19.13,3.75,9.46,8.94,9.37,123.06,23,122
4180,4200,round,63.33,31.93,18.68,18.39,5.22,8.67,8.93,9.26,125.05,27,114
4200,4220,round,64.49,25.53,19.04,18.45,4.61,9.19,9.67,9.35,112.97,19,114
4220,4240,round,58.91,24.48,17.7,18.13,4.15,9.42,9.69,9.69,115.17,25,115
4240,4260,round,59.74,32.06,17.53,18.4,4.9,9.29,8.94,9.69,123.16,17,118
4260,4280,round,63.34,17.44,18.24,18.46,3.5,9.4,10.5,9.47,104.27,18,119
4280,4300,round,59.73,30.63,16.34,18.01,3.97,9.42,9.29,9.66,121.11,24,116
4300,4320,round,58.83,32.29,14.77,18.29,4.18,9.77,9.06,9.94,117.83,21,115
4320,4340,round,58.07,19.23,15.11,18.25,4.12,9.44,10.28,9.92,105.86,22,116
4340,4360,round,60.2,18.72,16.39,18.75,4.5,9.56,10,9.84,108.77,18,119
4360,4380,round,60.2,20.4,15.75,18.05,3.11,9.9,10.04,9.89,108.99,20,122
4380,4400,round,56.95,26.96,15.24,18.15,4.79,9.6,9.52,10,117.91,24,122
4400,4420,round,56.93,24.58,14.24,18.44,3.57,9.1,10.11,9.76,106.15,24,119
4420,4440,round,58.35,17.45,15.81,18.81,4.5,8.96,10.19,9.49,113.26,20,119
4440,4460,round,61.34,24.72,16.99,18.56,5.22,8.68,10.02,9.28,107.25,18,122
4460,4480,round,60.81,25.59,16.8,18.52,4.42,8.98,9.65,9.35,114.32,22,122
4480,4500,round,61.63,18.85,19.37,18.06,6.1,8.1,10.4,8.99,105.24,20,126
4500,4520,round,65.09,25.38,21.25,18.71,5.6,8.5,9.38,8.94,119.65,16,130
4520,4540,round,69.06,24.94,23.56,18.84,5.71,7.95,9.62,8.52,119.32,17,131
4540,4560,round,67.47,35.76,22.48,18.53,5.04,8.45,8.69,8.78,127.57,21,134
4560,4580,round,66.88,31,23.94,18.47,6.52,8.19,9.02,8.71,125.55,23,132
4580,4600,round,71.34,32.37,24.69,18.76,4.96,8.37,9.44,8.56,117.31,19,129
4600,4620,round,70.1,37.09,25.3,18.78,6.5,8.02,8.67,8.56,132.2,22,126
4620,4640,round,71.9,33.5,25.13,18.51,4.94,8.56,8.99,8.65,122.5,18,128
4640,4660,round,72.22,29.83,27.84,18.78,7.09,7.74,9.34,8.34,124.25,23,122
4660,4680,round,70,51.4,26.25,18.41,6.21,8.19,7.7,8.65,146.71,15,131
4680,4700,round,68.3,34.32,27.58,18.55,6.93,7.95,8.77,8.65,130.43,22,130
4700,4720,round,68.44,27.39,28.65,17.95,6.41,8.04,9.52,8.63,113.95,18,139
4720,4740,round,70.59,45.29,26.73,18.85,3.78,9.09,8.07,8.82,142.78,17,140
4740,4760,round,72.07,34.54,28.13,18.81,6.71,7.89,9.16,8.48,119.59,24,136
4760,4780,round,67.82,55.67,23.36,18.47,4.78,8.61,7.87,8.76,143.7,24,134
4780,4800,round,69.25,34.95,22.52,18.88,4.39,9.28,9.2,9,126.02,19,136
4800,4820,round,63.65,35.31,20.3,18.3,5.2,8.9,8.72,9.23,122.22,32,128
4820,4840,round,63.12,28.59,19.54,18.54,4.38,9.28,9.4,9.4,115.8,22,130
4840,4860,round,62.03,32.08,18.74,18.67,4.91,8.68,9.18,9.26,120.34,24,128
4860,4880,round,61.43,24.05,19.28,18.17,5.15,8.77,9.8,9.26,112.43,21,134
4880,4900,round,64.32,29.68,20.07,18.62,5,8.58,9.32,9.08,119.91,19,134
4900,4920,round,63.71,30.62,19.91,18.5,5.07,8.6,9.13,9.15,122.57,21,138
4920,4940,round,69.91,19.23,23.75,18.91,6.01,8.15,10.3,8.57,104.42,22,131
4940,4960,round,67.69,34.17,24.54,18.27,6.64,7.83,8.75,8.52,127.99,24,128
4960,4980,round,66.29,37.67,22.97,18.24,4.86,8.85,8.58,8.89,128.75,18,136
4980,5000,round,67.9,30.81,23.26,18.65,4.91,8.7,9,8.87,121.18,21,135
5000,5020,round,66.21,41.92,22.7,18.9,6.28,8,8.37,8.74,135.81,24,130
5020,5040,round,63.86,31.32,22.23,17.95,5.52,8.22,9.1,8.88,121.84,19,141
5040,5060,round,62.76,32.32,21.59,18.26,5.1,8.72,9.04,9.15,121.39,22,147
5060,5080,round,65.31,31.6,22.47,18.55,5.64,8.1,9.43,8.8,118.86,20,151
5080,5100,round,68.43,32.64,23.96,18.85,5.89,7.68,9.03,8.39,123.47,22,148
5100,5120,round,73.18,26.28,26.45,18.9,5.96,7.93,9.05,8.24,119.6,18,150
5120,5140,round,72.51,43.96,27.72,18.57,7.81,7.34,8.47,8.09,135.79,25,144
5140,5160,round,73.02,34.28,28.63,18.79,6.07,8.21,8.76,8.31,126.24,25,139
5160,5180,round,72.45,29.55,29.53,18.32,6.08,8.06,9.13,8.41,120.69,22,142
5180,5200,round,71.51,40.61,28.66,18.57,5.71,8.36,8.53,8.59,131.41,23,142
5200,5220,round,73.39,26.68,29.99,18.46,5.92,7.99,10.05,8.38,114.11,19,148
5220,5240,round,70.27,46.57,29.02,18.47,6.72,7.62,8.34,8.41,140.65,23,151
5240,5260,round,74.71,39.41,31.45,18.79,7.19,7.38,8.8,8.15,130.4,17,153
5260,5280,round,77.63,26.45,36.24,18.61,8.41,6.82,9.64,7.84,120.8,22,152
5280,5300,round,82.99,31.16,39.93,18.92,7.15,7.2,9.05,7.61,124.89,19,150
5300,5320,round,89.78,21.59,43.73,19.08,6.49,7.46,10.07,7.41,112.67,17,151
5320,5340,round,86.33,58.3,41.6,18.6,6.68,7.49,8.06,7.55,150.4,27,144
5340,5360,round,82.5,64.26,38.44,18.51,6.85,7.91,8.21,8,155.52,19,151
5360,5380,round,78.7,58.83,36.21,18.59,6.92,7.7,7.84,8.11,153.56,23,152
5380,5400,round,80.22,41.4,35.66,18.69,5.49,8.17,8.38,8.21,130.18,20,155
5400,5420,round,78.23,44.83,34.37,18.5,6.2,8.14,8.72,8.35,133.48,24,158
5420,5440,round,77.11,51.52,31.9,18.63,5,8.38,8.18,8.37,143.2,25,154
5440,5460,round,79.92,27.14,35.62,18.89,7.17,7.38,9.44,7.98,113.21,29,145
5460,5480,round,73.58,78.11,30.51,18.27,6.57,7.74,7.6,8.32,172.13,18,157
5480,5500,round,73.79,53,29.37,18.94,5.95,7.81,8.37,8.15,147.98,21,157
5500,5520,round,76.43,31.54,32.54,18.75,7.35,7.01,9.24,7.77,124.35,24,153
5520,5540,round,80.47,45.44,33.83,18.96,6.64,7.61,8.1,7.84,135.67,18,153
5540,5560,round,80.11,49.75,34.34,18.62,7.43,7.17,8.35,7.76,142.84,24,148
5560,5580,round,78.54,39.28,34.33,18.47,6.44,7.92,8.8,8.01,130.83,25,147
5580,5600,round,81.15,33.74,35.7,18.79,6.33,8.02,9.3,8.03,122.3,19,150
5600,5620,round,75.56,57.65,32.93,18.44,6.69,7.71,7.43,8.18,154.13,26,147
5620,5640,round,79.04,32.28,33.92,18.64,5.72,8.32,9.27,8.27,117.57,18,151
5640,5660,round,77.73,41.07,34.49,18.77,6.81,7.5,8.65,8.01,134.4,27,145
5660,5680,round,76.23,51.86,34.21,18.59,7.6,7.09,8.47,7.9,142.42,21,147
5680,5700,round,78.16,55.17,33.78,18.66,6.14,7.68,7.98,7.88,149.44,18,146
5700,5720,round,78.65,32.38,35.21,18.44,7.05,7.57,9.5,7.91,119.31,21,151
5720,5740,round,75.31,60.68,32.35,18.49,6.33,7.79,7.52,8.13,155.13,22,153
5740,5760,round,79.55,33.76,34.52,18.91,6.64,7.58,9.15,7.92,124.99,17,157
5760,5780,round,77.32,55.64,32.41,18.64,6.03,7.79,7.73,8.02,152.26,22,159
5780,5800,round,78.82,42.63,32.94,18.84,6.29,7.82,8.38,8.02,134.55,24,155
5800,5820,round,76.51,44.81,32.44,18.62,6.85,7.63,8.63,8.05,136.16,26,154
5820,5840,round,74.37,45.65,30.71,18.39,5.9,7.92,8.67,8.19,134.61,23,159
5840,5860,round,76.02,42.71,31.71,18.77,6.64,7.58,8.18,8.04,139.08,21,159
5860,5880,round,76.16,45.54,31.5,18.83,6.51,7.64,8.49,8,136.03,24,158
5880,5900,round,77.35,43.5,31.81,18.84,6.37,7.6,8.34,7.93,135.63,22,158
5900,5920,round,76.97,40.27,31.79,18.82,6.12,7.67,8.5,7.88,132.64,26,155
5920,5940,round,81.08,40.82,35.08,19.17,7.86,6.81,8.62,7.37,135.58,22,148
5940,5960,round,79.41,63.32,32.18,18.9,5.98,7.63,7.66,7.6,156.93,22,145
5960,5980,round,79.63,38.65,33.03,18.51,6.73,7.49,8.67,7.71,130.71,20,148
5980,6000,round,78.22,53,31.32,18.86,5.85,7.95,7.63,7.96,149.01,24,142
6000,6020,round,81.71,36.06,33.49,19.05,6.67,7.89,8.56,7.97,134.98,17,143
6020,6040,round,76.66,45.65,30.66,18.49,5.3,8.35,8.19,8.33,141.01,26,142
6040,6060,round,73.52,33.72,29.78,18.17,5.22,8.44,9.04,8.47,128.01,25,143
6060,6080,round,74.07,41.16,29.78,18.84,6.04,8.05,8.84,8.35,128.96,25,136
6080,6100,round,74.13,50,27.86,18.78,5.04,8.21,7.98,8.37,144.9,18,138
6100,6120,round,74.02,32.74,28.8,18.66,6.23,8.12,9.16,8.36,124.95,23,137
6120,6140,round,75.83,45.65,28.44,18.66,5.8,7.93,8.75,8.29,131.86,17,140
6140,6160,round,71.39,50.67,26.14,18.43,5.81,8.12,7.86,8.45,150.21,24,136
6160,6180,round,75.74,24.55,27.3,18.87,4.6,8.77,9.82,8.46,110.9,20,135
6180,6200,round,70.97,36,26.43,18.5,5.92,8.08,8.59,8.58,131.08,26,134
6200,6220,round,71.16,51.13,24.65,18.56,4.97,8.75,7.94,8.78,150.01,15,141
6220,6240,round,70,32.56,26.09,18.66,6.66,7.96,9.02,8.62,127.59,25,137
6240,6260,round,71.15,39.52,25.07,18.83,4.6,8.86,8.56,8.82,132.68,21,134
6260,6280,round,70.36,26.96,26.07,18.29,5.72,8.39,9.57,8.84,114.51,25,132
6280,6300,round,68.4,33.16,25.87,18.52,5.78,8.63,9.21,8.97,121.93,25,130
6300,6320,round,69.85,24.44,26.95,18.53,5.46,8.43,9.89,8.84,115.14,18,136
6320,6340,round,69.85,36.78,26.19,18.76,4.99,8.68,8.97,8.84,127.75,23,133
6340,6360,round,74.14,24,29.37,18.99,6.61,7.76,10.18,8.43,110.96,19,133
6360,6380,round,70.77,49.78,26.63,18.52,5.39,8.23,8.15,8.59,141.82,23,130
6380,6400,round,73.71,21.41,29.49,18.55,5.94,8.2,10.1,8.44,108.48,22,127
6400,6420,round,69.56,54.06,26.26,18.5,5.88,8.62,8.15,8.93,145.43,18,136
6420,6440,round,69.95,37.95,24.05,18.57,3.55,9.43,8.91,9.07,128.55,19,139
6440,6460,round,70.07,25.31,25.55,18.45,5.51,8.54,9.43,8.86,116.56,26,134
6460,6480,round,65.78,46.2,22.15,18.41,4.96,8.84,8.35,9.12,135.22,25,132
6480,6500,round,63.98,32.33,21.58,18.1,5.2,8.63,9.19,9.19,123.3,21,137
6500,6520,round,63.46,29.14,20.46,18.19,3.91,9.28,9.36,9.29,119.07,22,140
6520,6540,round,66.87,27.8,21.99,18.94,5.44,8.32,9.4,8.93,114.02,25,131
6540,6560,round,66.99,40.37,20.68,18.7,4.78,8.61,8.87,9.01,131.18,19,133
6560,6580,round,66.02,29.86,20.9,18.62,5.28,8.63,9.04,9.04,126.14,22,134
6580,6600,round,69.01,22.09,22.22,18.71,4.72,9.12,10.12,9.05,105.55,23,131
6600,6620,round,66.67,31.93,23.07,18.78,6.28,8.15,8.82,8.93,128.08,27,122
6620,6640,round,64.78,28.45,22.27,17.88,4.86,9.08,9.65,9.28,112.96,20,129
6640,6660,round,68.64,19.62,25.75,18.74,6.22,8.44,10.55,8.94,106.92,21,126
6660,6680,round,64.95,36.18,26.16,18.35,7.17,7.89,8.87,8.93,130.17,22,129
6680,6700,round,69.35,32.33,27.37,18.77,5.65,8.4,9.17,8.83,120.48,15,133
6700,6720,round,72.63,18.67,28.82,18.49,4.7,8.58,10.38,8.68,108.72,18,137
6720,6740,round,72.16,37.63,26.94,18.66,4.38,8.96,9.53,8.72,120.43,27,130
6740,6760,round,68.89,50.35,23.02,18.55,4.56,8.84,8.29,8.94,139.66,23,127
6760,6780,round,66.91,33.96,22.27,18.37,5.27,8.7,9.02,8.95,124.1,23,126
6780,6800,round,65.03,40.52,20.37,18.7,4.85,8.88,8.57,9.08,132.59,21,126
6800,6820,round,67.86,30.11,21.15,18.88,4.93,8.6,9.21,8.87,121.71,19,123
6820,6840,round,62.69,29.52,19.73,18.24,4.7,8.99,8.97,9.23,122.43,25,124
6840,6860,round,62.13,28.37,19.71,18.3,5.27,8.91,9.68,9.32,113.78,19,132
6860,6880,round,61.64,36.74,19.63,18.41,5.63,8.65,8.68,9.32,131.67,19,136
6880,6900,round,64.14,20.75,21.51,18.61,5.18,8.48,9.88,9.16,112.54,20,138
6900,6920,round,65.62,19.38,23.43,18.47,5.51,8.55,10.08,9.05,110.08,21,143
6920,6940,round,69.44,30.55,25.17,18.83,5.91,8.47,9.59,8.83,115.93,22,139
6940,6960,round,70.86,29.88,27.7,18.77,7.24,7.58,9.46,8.47,116.3,24,136
6960,6980,round,68.39,37.05,27.65,18.4,6.56,7.86,9.04,8.53,128.14,22,140
6980,7000,round,71.27,38.13,28,18.69,5.51,8.39,8.68,8.53,130.66,16,145
7000,7020,round,74.35,28.48,30.39,18.51,6.41,7.82,9.65,8.2,113.04,23,142
7020,7040,round,70.61,57.73,27.43,18.34,6.13,8.11,7.75,8.43,149.35,22,143
7040,7060,round,71.37,38.95,27.31,18.42,5.67,8.28,8.5,8.55,130.17,19,147
7060,7080,round,70.18,42.32,26.27,18.64,5.59,8.16,8.44,8.48,134.11,25,143
7080,7100,round,70.08,37.19,24.95,18.24,4.71,8.64,8.69,8.71,124.81,21,147
7100,7120,round,68.99,39.92,24.4,18.51,5.73,8.48,8.68,8.74,130.89,25,143
7120,7140,round,68.56,36.48,25.33,18.57,6.65,7.85,8.75,8.58,128.02,25,138
7140,7160,round,71.83,24.18,27.3,18.7,5.73,8.07,9.59,8.47,116.71,17,143
7160,7180,round,70.36,38,26.96,18.37,5.8,8.14,8.81,8.48,131.07,22,145
7180,7200,round,73.91,37.2,28.28,19.05,6.15,8.18,8.78,8.44,126.21,20,143
7200,7220,round,72.49,40.59,27.36,18.51,5.63,8.03,8.82,8.4,132.85,22,145
7220,7240,round,72.34,38.16,28.42,18.52,6.9,7.89,8.84,8.3,128.13,25,140
7240,7260,round,72.52,43.87,27.8,18.89,5.8,8.05,8.18,8.36,134.35,23,135
7260,7280,round,71.5,36.05,29.36,18.39,7.44,7.48,8.56,8.37,128.81,22,135
7280,7300,round,75.42,38.78,29.87,18.81,5.32,8.42,8.75,8.42,129.27,18,133
7300,7320,round,77.7,23.76,31.73,18.79,5.41,8.58,9.53,8.44,116.41,21,132
7320,7340,round,69.65,47.08,27.07,17.94,4.96,8.97,8.38,8.94,137.87,26,134
7340,7360,round,68.46,41.04,24.96,18.58,4.63,8.94,9.01,8.99,128.91,23,132
7360,7380,round,64.4,48.37,22.76,18.09,5.91,8.37,8.16,9.07,139.59,19,141
7380,7400,round,64.81,37.85,22.77,18.52,5.74,8.39,8.82,9.02,128.82,20,144
7400,7420,round,66.73,25.71,24.01,18.6,5.38,8.37,9.52,8.86,117.31,21,147
7420,7440,round,67.19,34.41,24.75,18.45,6.27,8.15,9.07,8.77,122.56,22,150
7440,7460,round,63.97,34.24,24.99,18.05,6.86,7.54,9.2,8.65,119.98,29,150
7460,7480,round,69.99,28.13,27.75,18.81,6.28,7.61,9.31,8.36,119.4,15,155
7480,7500,round,72.14,34.4,30.08,18.46,7.36,7.33,9.02,8.1,125.68,20,159
7500,7520,round,75.45,34.13,31.4,18.74,5.99,7.76,9.12,8.02,117.23,24,156
7520,7540,round,80.73,36.24,34.19,19.31,6.78,7.03,8.82,7.64,126.91,21,151
7540,7560,round,79.11,45.81,33.26,18.79,6.51,7.72,8.49,7.85,138.32,21,157
7560,7580,round,79.67,50.81,33.4,18.94,6.94,7.59,8.35,7.81,145.36,21,157
7580,7600,round,76.39,55.48,30.96,18.86,6.24,7.79,7.66,7.98,149.63,25,156
7600,7620,round,78.09,36.63,32.5,18.65,6.67,7.5,8.8,7.83,126.41,24,153
7620,7640,round,80.55,47.92,34.01,19.16,7.28,7.4,7.98,7.67,140.15,24,143
7640,7660,round,83.92,38.78,36.32,19.1,6.9,7.06,8.91,7.35,127.61,23,135
7660,7680,round,79.82,56.5,34.86,18.56,7.34,7.24,7.36,7.66,154.61,22,133
7680,7700,round,78.68,45.81,34.1,18.66,6.47,7.86,8.56,7.95,135.73,21,133
7700,7720,round,82.78,45.21,33.89,18.88,4.99,8.41,8.08,8.06,140.39,14,135
7720,7740,round,77.39,44.28,31.59,18.39,5.9,8.22,8.68,8.28,136.28,25,135
7740,7760,round,73.55,56.65,27.96,18.47,5.36,8.51,7.76,8.54,150.92,23,131
7760,7780,round,73.97,36.22,27.16,18.61,4.86,8.94,8.85,8.78,126.92,18,135
7780,7800,round,68.05,38,25.61,18.36,5.9,8.6,8.56,9,132.42,27,134
7800,7820,round,70.34,35.35,25.3,18.62,4.78,8.97,9.03,9.05,124.79,17,138
7820,7840,round,65.78,38.59,24.13,18.38,5.99,8.24,9.16,8.92,130.91,27,135
7840,7860,round,64.82,37.91,22.12,18.34,4.43,8.69,8.84,8.97,124.52,22,137
7860,7880,round,66.15,26.33,23.77,18.46,5.95,8.26,9.57,8.79,116.99,21,139
7880,7900,round,68.76,46.35,23.33,18.89,5.73,8.25,8.46,8.63,132.83,20,135
7900,7920,round,70.16,30.78,24.63,18.7,5.85,7.76,9.33,8.4,120.7,23,130
7920,7940,round,68.55,36.9,24.73,18.36,6.34,8.26,8.82,8.68,129.01,20,134
7940,7960,round,70.11,22.75,25.85,18.43,5.28,8.57,10.19,8.7,108,20,139
7960,7980,round,68.16,39.52,25.35,18.33,5.89,8.37,8.46,8.79,135.08,21,142
7980,8000,round,71.42,34.68,26.75,19.2,6.05,8.08,8.83,8.52,124.89,22,137
8000,8020,round,70.78,27.32,28.18,18.54,6.45,7.8,9.4,8.49,118.21,22,141
8020,8040,round,70.41,47.37,27.72,18.71,6.37,8.1,8.14,8.62,142.57,19,144
8040,8060,round,73.55,23.87,29.12,18.68,5.05,8.22,9.51,8.57,108.44,23,143
8060,8080,round,76.86,20.29,31.77,18.52,5.63,8.2,10.11,8.33,111.8,21,143
8080,8100,round,77.38,50.62,30.62,18.75,5.94,8.23,9.08,8.31,137.4,21,141
8100,8120,round,70.22,47.82,26.1,18.47,4.51,8.81,8.1,8.74,144.54,28,138
8120,8140,round,73.47,20.7,27.87,18.56,5.26,8.52,10.17,8.6,105.89,20,141
8140,8160,round,71.32,44.46,27.18,18.76,6.48,8.01,8.37,8.52,136.98,26,134
8160,8180,round,72.6,38.63,27.05,18.65,5.6,8.12,9.1,8.54,129.32,16,141
8180,8200,round,71.84,37.38,28.14,18.76,6.77,7.56,8.86,8.31,130.73,26,133
8200,8220,round,76.26,27,29.78,18.84,5.78,8.1,9.6,8.3,112.61,16,138
8220,8240,round,74.29,36.87,31.04,18.67,7.41,7.66,8.79,8.3,132.94,23,138
8240,8260,round,73.55,56.88,28.57,18.5,5.3,8.31,8.25,8.45,150.74,16,145
8260,8280,round,73.45,28.52,30.13,18.76,5.98,8.18,9.28,8.41,124.21,25,142
8280,8300,round,73.59,40.91,29.86,18.66,6.06,8.18,8.53,8.48,129.98,22,142
8300,8320,round,71.36,36.88,29.3,18.24,6,8.1,9.38,8.45,124.11,24,144
8320,8340,round,71.34,35.95,30.49,18.63,6.93,7.72,8.84,8.43,129.07,21,147
8340,8360,round,75.8,31.59,32.19,18.78,6.07,7.66,9.47,8.08,121.71,17,151
8360,8380,round,77.01,45.42,33.59,18.61,7.46,7.12,8.92,7.76,139.96,19,153
8380,8400,round,78.08,69.47,32.16,18.76,6.63,7.42,7.45,7.78,161.19,17,155
8400,8420,round,77.6,45.88,33.36,18.84,7.6,7.18,8.05,7.73,142.81,25,149
8420,8440,round,78.04,47.24,32.53,18.6,6.01,8,8.2,7.94,135,21,150
8440,8460,round,77.73,37.64,33.09,18.87,6.47,7.73,8.52,8.02,129.45,25,148
8460,8480,round,77.13,49.43,32.72,18.62,7.16,7.52,8.17,8.06,136.57,21,151
8480,8500,round,75.9,40.95,32.23,18.45,6.01,8.13,8.32,8.22,136.24,22,154
8500,8520,round,77.46,40.26,33.87,18.78,7.13,7.42,8.84,7.97,131.57,23,151
8520,8540,round,78.33,41.7,35.01,18.61,7.12,7.27,8.85,7.76,130.45,23,149
8540,8560,round,79.79,47.59,35.34,18.71,6.72,7.58,8.56,7.85,141.11,17,154
8560,8580,round,75.15,61.88,33.31,18.74,7.84,7.09,7.63,7.98,154.79,25,153
8580,8600,round,80.57,31.28,37.04,18.6,7.6,6.98,9.34,7.59,118.61,18,154
8600,8620,round,85.01,31.7,40.65,18.93,7.52,7.04,9.31,7.44,121.65,20,153
8620,8640,round,84.96,52.35,42.34,18.79,8.68,6.47,8.27,7.16,146.75,23,149
8640,8660,round,90.75,59.36,43.11,19.26,6.34,7.29,7.9,7.1,152.67,14,149
8660,8680,round,88,52.32,43.31,18.48,8.4,6.67,8.32,7.12,145.25,22,151
8680,8700,round,86.66,75.42,39.87,18.76,6.05,7.61,7.25,7.42,169.22,19,151
8700,8720,round,84.54,57.09,39.57,18.95,7.76,7.27,7.64,7.54,156.26,23,148
8720,8740,round,84.16,59.94,38.49,18.55,7.05,7.62,7.75,7.7,151.17,18,152
8740,8760,round,80.49,53.58,37.24,18.59,6.81,7.5,7.73,7.87,153.32,24,150
8760,8780,round,78.45,44.52,36.72,18.5,6.7,7.71,8.27,8.01,138.7,23,152
8780,8800,round,83.27,38.09,38.25,18.85,5.77,7.78,9.16,7.73,124.05,22,146
8800,8820,round,80.13,56,36.47,18.59,7.04,7.35,8.23,7.82,146.26,23,146
8820,8840,round,77.03,66.3,33.78,18.59,7.12,7.74,7.56,8.17,156.57,20,150
8840,8860,round,77.53,46.15,33.2,18.8,6.11,7.82,8.76,8.19,138.15,20,153
8860,8880,round,77.69,41.91,34.43,18.77,7.44,7.2,8.77,7.96,135.67,22,154
8880,8900,round,77.92,39.53,34.04,18.33,6.12,7.82,9.15,8.04,127.93,19,163
8900,8920,round,77.87,47.52,33.77,18.97,6.35,7.83,8.12,8.08,143.01,25,159
8920,8940,round,77.09,51.16,33.54,18.7,7.14,7.27,8.01,7.95,143.4,25,155
8940,8960,round,79.72,40.9,34.71,18.78,6.82,7.37,9.02,7.8,130.08,20,157
8960,8980,round,81.74,45.5,35.96,18.71,7.04,7.35,8.72,7.68,139.96,20,157
8980,9000,round,75.56,59.59,33.98,18.53,8.11,7.11,7.63,7.88,155.65,27,156
9000,9020,round,79.35,40.22,34.35,18.56,5.56,7.82,8.52,7.84,126.84,18,159
9020,9040,round,78.05,50.73,33.78,18.73,6.8,7.54,7.77,7.92,148.81,22,161
9040,9060,round,80.01,50.84,34.85,18.95,7.61,7.28,7.76,7.72,139.6,25,153
9060,9080,round,79.19,47.65,35.49,18.41,7.44,7.02,8.41,7.64,140.51,23,151
9080,9100,round,80.93,50.74,35.77,18.97,6.47,7.7,7.86,7.8,148.36,19,150
9100,9120,round,81.15,31.12,37.03,18.53,6.44,7.66,9.01,7.74,117.18,26,149
9120,9140,round,79.36,60.33,35.31,18.73,6.98,7.37,7.54,7.79,150.79,21,150
9140,9160,round,73.71,69.23,31.64,18.7,7.13,7.27,7.09,7.95,164.78,22,154
9160,9180,round,79.18,40.06,34.41,19.03,7.1,6.87,8.71,7.53,131.85,18,152
9180,9200,round,82.67,46.67,37.41,19.29,8.5,6.45,8.27,7.2,139.37,21,147
9200,9220,round,84.5,48.05,38.32,18.81,7.23,7.13,8.69,7.25,137.57,20,146
9220,9240,round,83.69,54.32,39.53,18.76,8.98,6.8,8.06,7.42,146.47,22,144
9240,9260,round,84.73,47.42,39.16,18.8,6.34,7.38,8.38,7.52,136.78,19,146
9260,9280,round,85.49,33.58,39.83,18.72,6.2,7.82,9.23,7.64,127.52,19,151
9280,9300,round,84.15,71,37.88,18.69,7.18,7.41,7.1,7.67,165.23,19,152
9300,9320,round,82.48,55.04,37.68,18.78,7.54,7.36,7.81,7.71,152.63,23,149
9320,9340,round,83.4,54.15,36.93,18.89,5.89,7.83,7.93,7.74,153.84,20,146
9340,9360,round,80.09,50.81,34.32,18.34,5.68,8.27,8.36,8.08,145.28,21,151
9360,9380,round,76.06,48.18,31.76,18.36,5.68,8.38,8.42,8.27,137.91,28,147
9380,9400,round,71.13,60.17,27.24,18.52,5.2,8.52,7.5,8.55,153.8,23,149
9400,9420,round,67.8,47.32,25.15,18.28,5.8,8.28,8.29,8.63,139.58,22,156
9420,9440,round,67.03,52.39,23.21,18.81,5.56,7.98,7.64,8.58,145.45,23,154
9440,9460,round,71.54,26.7,25.72,18.92,5.85,7.9,9.69,8.24,115.37,23,149
9460,9480,round,74.09,29.73,27.38,18.62,6.05,7.95,9.36,8.25,119.13,22,149
9480,9500,round,73.73,37.24,28.43,18.82,6.7,7.5,8.92,8.07,128.84,29,138
9500,9520,round,75.37,27,29.58,18.35,5.96,8.11,9.32,8.3,120.26,15,149
9520,9540,round,78.21,34.62,30.99,18.89,5.78,7.98,8.93,8.16,128.71,21,146
9540,9560,round,78.75,41.04,31.26,18.89,6.05,7.93,8.52,8.13,135.98,23,142
9560,9580,round,78.66,40.69,31.02,18.98,5.6,8.06,8.57,8.08,134.36,26,133
9580,9600,round,76.78,47.39,30.29,18.81,6.75,7.8,8.37,8.08,139.12,23,129
9600,9620,round,79.1,45.62,29.93,19.2,5.56,8.13,8.08,8,137,21,121
9620,9640,round,76.41,39.82,28.84,18.47,5.37,8.24,8.42,8.19,136.41,22,117
9640,9660,round,69.26,45.32,24.23,18.36,4.42,9.28,8.02,8.96,137.59,22,120
9660,9680,round,67.83,45.88,21.55,18.62,4.29,9.22,8.41,9.21,140.4,16,126
9680,9700,round,61.89,40,18.34,18.35,4.32,9.51,8.3,9.63,139.36,23,128
9700,9720,round,62.58,21.96,18.29,18.18,4.01,9.55,10.18,9.63,104.92,23,129
9720,9740,round,58.64,30.38,16.72,18.23,4.36,9.31,9.33,9.81,121.93,24,132
9740,9760,round,59.35,25.52,17.7,18.68,5.34,8.64,9.53,9.5,114.44,23,131
9760,9780,round,63.35,21.48,20.79,18.72,6.2,7.84,9.83,8.91,106.81,21,128
9780,9800,round,64.22,24.25,22.27,18.55,5.79,8.18,9.83,8.88,112.77,20,132
9800,9820,round,65.92,27.12,22.98,18.68,5.4,8.64,9.58,8.95,117.27,17,141
9820,9840,round,71.43,26.95,26.6,19.01,6.7,7.61,9.76,8.29,115.21,22,133
9840,9860,round,67.92,44,23.63,18.31,4.78,8.57,8.63,8.75,133.3,20,141
9860,9880,round,68.14,30.5,24.57,18.49,5.96,8.47,9.16,8.83,121.13,22,143
9880,9900,round,69.87,38.21,24.93,18.97,5.85,8.09,8.63,8.59,128.42,24,136
9900,9920,round,72.45,25.24,28.33,18.74,6.94,7.31,9.69,8.15,112,25,129
9920,9940,round,71.71,50.47,26.08,18.28,4.93,8.84,7.76,8.62,146.08,15,137
9940,9960,round,71.7,25.27,27.67,18.45,5.91,8.5,9.63,8.64,112.55,26,134
9960,9980,round,73.71,50.28,26.8,19.05,5.24,8.64,8.01,8.56,147.9,18,130
9980,10000,round,69.09,40.75,24.47,18.5,5.05,8.55,8.32,8.81,136.13,24,129
10000,10020,round,65.37,40.96,22.04,18.43,5.05,8.97,8.49,9.17,131.23,24,128
10020,10040,round,66.1,27.17,21.05,18.68,3.62,9.58,9.29,9.29,112.36,23,126
10040,10060,round,64.1,32.55,19.32,18.29,4.08,9.33,9.08,9.41,122.13,22,127
10060,10080,round,58.61,37,16.31,18.14,4.58,9.2,8.81,9.67,125.45,27,124
10080,10100,round,60.08,24.19,17.05,18.49,4.83,8.82,9.98,9.39,111.41,21,124
10100,10120,round,62.05,24.63,18,18.6,4.73,8.65,9.63,9.17,118.33,19,124
10120,10140,round,59.85,31.26,17.35,18.14,5.03,9.09,8.87,9.44,123.41,19,133
10140,10160,round,63.09,25.23,17.4,18.91,3.82,9.19,9.8,9.3,111.64,22,129
10160,10180,round,62.37,29.63,17.6,18.43,5.23,8.5,8.93,9.14,121.88,24,124
10180,10200,round,63.9,24.5,17.7,18.68,4.24,9.24,9.52,9.33,110.1,22,122
10200,10220,round,63.61,22.67,18.47,18.62,4.89,8.97,9.5,9.35,110.27,24,119
10220,10240,round,62.6,30.35,17.32,18.32,4.07,9.4,8.94,9.58,123.49,20,120
10240,10260,round,62.59,14.59,18.22,18.23,3.93,9.65,10.65,9.61,102.1,22,123
10260,10280,round,59.39,30.72,17.24,18.21,4.87,9.28,9.33,9.69,121.71,25,119
10280,10300,round,61.23,27.53,17.15,18.67,4.16,9.13,9.43,9.53,118.88,17,122
10300,10320,round,61.46,22.35,17.91,18.43,4.53,8.8,9.89,9.29,112.92,23,118
10320,10340,round,60.47,24.62,18.88,18.27,5.69,8.67,9.69,9.29,110.9,21,121
10340,10360,round,61.07,38.13,18.37,18.53,5.19,8.91,8.76,9.45,127.05,15,130
10360,10380,round,63.66,22.24,21.14,18.6,6.13,8.14,9.85,9.04,112.45,21,128
10380,10400,round,65.52,23.86,22.08,18.6,4.85,8.61,9.73,9.04,111.77,21,128
10400,10420,round,67.96,13.79,24.86,18.29,5.58,8.41,10.52,8.88,101.92,19,133
10420,10440,round,70.62,32.35,25.57,18.65,5.12,8.51,9.45,8.69,122.12,20,130
10440,10460,round,66.63,42.67,24.44,18.35,6.59,8.14,8.79,8.77,134.05,21,136
10460,10480,round,66.95,45.12,24.49,18.69,6.49,8.3,8.07,8.88,140.6,17,142
10480,10500,round,67.36,31.52,26.24,19.01,6.31,7.68,8.67,8.65,126.52,25,135
10500,10520,round,71.89,17,30.86,18.39,6.96,7.54,10.47,8.16,107.26,20,134
10520,10540,round,76.96,32.76,32.3,18.72,5.8,8.22,9.39,8.23,112.95,17,135
10540,10560,round,71.27,57.04,27.78,18.43,5.46,8.63,7.86,8.65,146.97,24,134
10560,10580,round,71.96,34.48,27.07,18.52,5.02,8.85,9.05,8.81,118.01,21,136
10580,10600,round,66.92,37.25,25.7,18.27,5.93,8.36,8.86,8.87,130.94,24,141
10600,10620,round,68.29,49.5,25.2,18.76,5.96,8.25,8.21,8.86,141.68,18,142
10620,10640,round,68.88,32.68,26.32,18.69,6.18,7.98,9.27,8.66,125.05,22,142
10640,10660,round,73.83,23.04,29.76,18.87,6.17,8.03,9.94,8.3,108.92,23,136
10660,10680,round,72.18,42.25,29.09,18.55,6.46,7.91,8.85,8.44,128.03,24,134
10680,10700,round,70.51,40.14,27.24,18.51,4.94,8.59,8.87,8.69,132.39,21,137
10700,10720,round,71.17,37.25,26.32,18.93,4.98,8.57,8.99,8.66,123.09,24,133
10720,10740,round,69.7,45.32,24.3,18.44,5.33,8.32,8.29,8.63,133.62,22,132
10740,10760,round,66.81,42.05,22.54,18.16,5.39,8.55,8.82,8.87,132.49,20,138
10760,10780,round,66.02,43.95,21.4,18.5,5.34,8.75,8.08,9.05,140.06,20,139
10780,10800,round,68.28,27.09,24.1,18.8,6.56,7.94,9.42,8.65,119.29,23,134
10800,10820,round,69.89,32.95,25.79,18.77,6.46,8.02,8.88,8.53,126.04,20,133
10820,10840,round,72.84,25.5,27.83,18.44,5.54,8.22,9.41,8.41,116.21,20,131
10840,10860,round,72.37,43.36,27.23,18.69,5.87,8.38,8.43,8.51,135.37,22,126
10860,10880,round,72.75,27.73,26.85,18.4,4.28,9.08,9.52,8.72,114.27,22,125
10880,10900,round,67.1,49.52,22.24,18.53,4.59,9.02,7.94,9.11,140.35,25,120
10900,10920,round,65.92,35.79,20.04,18.76,4.17,9.4,9.07,9.24,123.24,24,114
10920,10940,round,68.95,24.56,20.73,18.91,4.42,9.11,9.59,9.12,113.66,16,116
10940,10960,round,63.61,37.2,17.45,18.42,3.92,9.29,8.55,9.41,131.18,25,109
10960,10980,round,61.58,26.3,17.11,18.26,4.6,9.61,9.52,9.7,117.04,20,110
10980,11000,round,59.48,27.38,14.7,18.15,2.93,10.17,9.57,9.99,112.44,21,111
11000,11020,round,59.14,22.05,14.48,18.71,3.66,9.76,9.78,9.98,115.07,22,106
11020,11040,round,58.05,26.94,13.18,18.23,3.64,9.94,9.72,10.05,114.84,18,110
11040,11060,round,57.34,18.52,13.49,18.29,3.83,9.53,10.37,9.94,105.89,23,106
11060,11080,round,57.97,23.16,14.26,18.72,4.74,9.17,9.66,9.85,113.84,19,104
11080,11100,round,60.3,16.88,15.37,18.38,4.04,9.61,10.39,9.83,106.71,16,107
11100,11120,round,61.6,15.76,16.49,18.4,3.86,9.91,10.54,9.89,101.82,21,104
11120,11140,round,55.88,25.13,14.38,17.89,3.55,9.81,9.53,10.15,115.13,23,105
11140,11160,round,58.4,19.44,15.25,18.49,4.15,10.08,10.28,10.18,107.1,16,108
11160,11180,round,55.66,22.48,14.53,18.14,3.95,9.49,9.99,10.15,110.67,21,111
11180,11200,round,54.32,21.7,14.24,18.01,3.99,9.48,10.09,10.14,110.43,20,115
11200,11220,round,55.99,15.85,15.08,18.05,3.88,9.83,10.6,10.08,99.2,20,118
11220,11240,round,56.55,27,14.84,18.21,4.45,9.39,9.75,10.04,111.17,17,127
11240,11260,round,54.06,27.21,13.65,18.29,4.1,9.26,9.52,9.99,116.93,24,129
11260,11280,round,58.75,12.7,15.68,18.58,4.09,9.25,10.85,9.65,96.32,20,130
11280,11300,round,61.51,24.16,16.2,18.28,4.32,9.29,9.9,9.57,108.12,19,133
11300,11320,round,59.86,27.28,16.25,18.81,5.17,8.81,9.37,9.51,117.35,29,123
11320,11340,round,62.41,18.43,18.46,18.48,5.25,8.78,10.01,9.31,104.47,21,122
11340,11360,round,63.92,16.72,19.58,18.28,4.34,9.22,10.3,9.34,105.34,18,128
11360,11380,round,61.26,32.04,17.81,18.6,4.24,9.57,9.04,9.66,121.79,24,128
11380,11400,round,61.92,28.7,17.21,18.75,4.25,9.24,9.38,9.58,115.14,23,125
11400,11420,round,63.37,22.8,19.24,18.89,5.73,8.47,9.84,9.33,110.9,25,117
11420,11440,round,63.29,21.3,22.01,18.27,6.56,8.11,10.16,9.1,108.33,23,114
11440,11460,round,66.63,17.29,22.98,18.45,4.4,9.31,10.38,9.33,105.01,14,122
11460,11480,round,69.35,22.87,25.22,18.82,5.24,8.78,10.24,9.03,112.68,23,114
11480,11500,round,67.36,32.39,24.1,18.19,5.16,8.79,9.61,9.14,118.8,18,121
11500,11520,round,63.05,31.35,21.85,18.13,4.15,9.41,9.59,9.4,120.83,23,124
11520,11540,round,64.92,43.31,21.31,18.88,5.43,8.83,8.35,9.31,133.07,16,127
11540,11560,round,64.9,29.63,20.1,18.64,3.74,9.05,9.56,9.27,117.09,24,122
11560,11580,round,67.61,20.52,21.44,18.94,4.6,8.85,10.08,9.13,108.41,21,120
11580,11600,round,61.5,38.54,18.63,18.06,5.24,9.01,9.21,9.41,124.36,24,123
11600,11620,round,64.55,28.2,19.51,18.76,4.91,9.18,9.28,9.48,120.6,15,128
11620,11640,round,61.84,23.56,21.22,18.13,5.97,8.41,9.45,9.24,116.66,27,122
11640,11660,round,64.05,19.65,22.85,18.29,5.51,8.97,10.4,9.34,102.53,17,130
11660,11680,round,62.03,35.83,21.37,18.35,4.73,8.74,9.11,9.34,124.99,23,129
11680,11700,round,64.61,18.78,22.47,18.3,4.68,9.06,10.46,9.23,103.75,18,136
11700,11720,round,69.03,29.74,23.06,18.88,4.61,8.88,10.04,9.08,113.37,19,135
11720,11740,round,62.13,39.74,20.39,17.86,5.39,8.59,8.86,9.21,130.22,27,136
11740,11760,round,66.9,23.21,20.83,18.66,3.81,9.53,10.05,9.26,106.84,19,137
11760,11780,round,65.61,26.81,21.07,18.51,5.05,8.51,9.45,9.04,115.68,27,133
11780,11800,round,61.58,47.3,19.15,18.41,6.17,8.1,7.88,8.98,140.91,23,132
11800,11820,round,62.06,27.26,19.54,18.33,5.08,8.59,9.17,9.02,117.54,19,139
11820,11840,round,62.87,27.67,20.63,18.5,5.7,8.47,9.06,9.05,119.04,21,143
11840,11860,round,63.5,31.68,21.42,18.63,5.88,8.09,8.95,8.91,122.39,22,145
11860,11880,round,64.08,27.1,22.22,18.3,5.63,8.38,9.53,8.9,115.35,21,153
11880,11900,round,66.36,27.59,22.77,18.47,4.99,8.54,9.42,8.87,111,22,157
11900,11920,round,66.83,36.75,24.2,18.77,7.05,7.65,8.66,8.63,126.69,24,157
11920,11940,round,71.38,30.57,27.48,19.17,7.11,7.21,9.25,8.13,120.2,23,152
11940,11960,round,78.65,23.9,33.99,19.11,8.83,6.46,10.02,7.51,113.52,20,147
11960,11980,round,80.91,37.77,35.86,18.72,6.93,7.43,8.68,7.64,127.69,22,144
11980,12000,round,85.76,31.4,38.31,18.92,6.14,7.68,9.47,7.57,119.98,20,141
12000,12020,round,84.61,49.25,38.59,18.83,7.33,7.4,8.06,7.58,142.33,24,135
12020,12040,round,81.22,47.43,37.34,18.38,6.83,7.75,8.17,7.88,137.99,23,135
12040,12060,round,81.58,55.44,35.6,18.82,5.43,8.32,7.89,8.09,150.27,18,134
12060,12080,round,78.1,48.3,34.51,18.32,6.79,7.96,7.99,8.24,141.38,23,132
12080,12100,round,73.76,45.7,31.61,18.08,5.6,8.59,8.96,8.71,134.33,20,140
12100,12120,round,71.02,45.47,28.88,18.33,4.98,8.79,8.6,8.85,137.53,19,149
12120,12140,round,70.2,43.4,27.05,18.67,5.01,8.44,8.61,8.75,131.87,25,146
12140,12160,round,70.97,48.95,26.13,18.75,5.98,8.02,8.75,8.44,136.64,21,145
12160,12180,round,70.95,37.87,26.17,18.43,5.91,8.01,8.97,8.39,126.2,23,144
12180,12200,round,71.9,36.5,27.25,18.8,6.37,7.76,8.71,8.35,128.27,22,142
12200,12220,round,72.79,42.15,29.09,18.64,7.62,7.16,8.78,8.08,136.51,20,141
12220,12240,round,73.59,31.31,29.41,18.43,5.88,8.19,9.49,8.43,122.36,16,153
12240,12260,round,77.19,28.79,33.44,18.73,7.53,7.36,9.54,8.01,119.36,24,147
12260,12280,round,81.5,33.11,36.55,18.76,7.19,7.27,9.21,7.69,123.19,19,146
12280,12300,round,82.02,37,38.32,18.47,6.73,7.57,8.85,7.65,132.19,23,142
12300,12320,round,78.58,63.65,35.37,18.6,6.63,7.77,7.52,8.04,158.15,20,145
12320,12340,round,75.37,50.24,33.3,18.21,6.32,8.11,8.36,8.34,140.96,21,151
12340,12360,round,78.26,37.96,34.47,18.95,6.2,7.81,9.2,8.16,125.11,23,147
12360,12380,round,77.99,38.29,34.52,18.44,6.28,7.73,8.9,8.15,128.95,21,151
12380,12400,round,78.65,47.42,34.19,18.65,6.56,7.8,8.88,8.1,135.02,19,156
12400,12420,round,75.06,49.4,32.3,18.43,6.35,7.89,8.53,8.17,141.84,25,158
12420,12440,round,74.22,56.45,31.42,18.59,6.99,7.46,8.06,8.01,148.27,22,158
12440,12460,round,76.42,48.9,32.34,19.02,7.1,7.19,8.38,7.77,142.12,20,158
12460,12480,round,76.1,50,33.03,18.51,7.67,6.83,7.91,7.7,145.96,19,164
12480,12500,round,79.03,45.38,34.97,18.99,7.58,6.75,8.41,7.43,137.33,21,163
12500,12520,round,83.54,39.22,37.88,19,7.61,6.88,8.76,7.19,131.6,18,165
12520,12540,round,85.17,50.7,40.47,19.18,8.77,6.21,7.72,6.91,143.05,27,154
12540,12560,round,85.89,60.88,40.31,18.86,7.62,6.74,7.65,7.07,155.61,17,159
12560,12580,round,86.45,50.78,41.18,18.69,7.88,6.78,8.34,7.11,144.62,18,165
12580,12600,round,82.75,68.14,38.67,18.6,7.15,7.13,6.81,7.41,168.51,22,168
12600,12620,round,84.98,44.29,39.86,18.6,7.41,7.11,8.65,7.37,135.26,17,177
12620,12640,round,83.08,73.9,38.11,18.79,7.36,6.99,6.58,7.37,175.1,21,179
12640,12660,round,88.48,40.84,41.63,19.2,7.31,6.77,8.45,6.91,135.87,25,169
12660,12680,round,86.5,59.64,40.99,18.53,7.8,6.7,7.8,7.02,152.5,25,167
12680,12700,round,81.5,76.48,38.69,18.42,8.4,6.82,6.44,7.4,178.46,21,173
12700,12720,round,86.11,50.5,39.97,19.03,6.72,7.18,7.99,7.32,145.12,18,174
12720,12740,round,86.27,53.96,41.25,18.83,8.23,6.68,7.71,7.22,153.69,23,173
12740,12760,round,87.53,62,41.01,18.91,7.39,7.07,7.78,7.27,151.38,24,168
12760,12780,round,88.33,50.04,42.44,18.78,7.97,6.94,8.1,7.26,143.83,24,165
12780,12800,round,93.89,42.56,46.87,19.33,8.31,6.5,8.7,6.84,132.71,25,154
12800,12820,round,90.03,60.18,47.12,18.46,9.1,6.47,7.24,7.07,161.24,22,155
12820,12840,round,92.99,53.65,48.06,18.92,7.08,7.29,7.3,7.25,149.36,17,156
12840,12860,round,92.8,41.45,47.82,18.84,6.14,7.74,8.48,7.48,135.86,22,158
12860,12880,round,93.89,59.45,47.03,18.91,6.2,7.52,7.89,7.36,154.07,22,153
12880,12900,round,90.98,68.87,43.96,19.09,6.8,7.49,8.14,7.41,161.59,23,151
12900,12920,round,81.33,75.15,37.18,18.59,6.45,7.61,7.49,7.76,169.67,27,150
12920,12940,round,81.58,72.88,36.24,18.9,7.51,7.58,7.08,7.8,170.01,17,151
12940,12960,round,75.73,61,32.54,18.38,6.57,7.7,7.74,8.13,153.87,22,159
12960,12980,round,73.97,44.52,31.71,18.44,5.93,8.23,7.91,8.27,144.36,23,161
12980,13000,round,77.49,37.64,31.79,18.83,5.06,8.39,8.77,8.2,122.64,22,160
13000,13020,round,71.12,58.86,28.11,18.53,6.59,7.77,7.64,8.35,151.47,29,157
13020,13040,round,70.56,43.52,27.96,18.64,6.64,7.55,8.69,8.2,131.83,25,156
13040,13060,round,73.04,35.81,30.32,18.63,7.32,7.1,8.99,7.96,124.97,21,157
13060,13080,round,75.6,45.44,31.64,18.84,7.01,7.44,8.08,7.94,144.05,18,160
13080,13100,round,79.22,31.73,34.24,18.7,6.96,7.34,9.57,7.81,117.94,22,160
13100,13120,round,81.69,48.55,36.1,18.89,7.65,7.21,8.25,7.67,142.69,22,155
13120,13140,round,84.18,29.17,38.64,18.59,6.85,7.48,9.78,7.62,116.14,24,154
13140,13160,round,82.58,50.42,39.29,18.83,7.9,7.24,7.74,7.7,148.13,24,151
13160,13180,round,85.89,45.68,39.87,18.83,6.1,7.56,8.19,7.62,136.84,19,150
13180,13200,round,83.98,51.16,38.01,18.82,5.81,8.01,8.19,7.92,143.07,25,146
13200,13220,round,78.78,45.54,35.56,18.29,6.08,7.99,8.57,8.12,134.18,28,145
13220,13240,round,80.82,45.88,34.37,18.59,5.09,8.43,8.62,8.21,134.55,16,151
13240,13260,round,75.79,57.37,31.86,18.92,6.75,7.54,7.96,8.1,155.06,27,145
13260,13280,round,77.27,56.5,30.59,19.05,6.01,7.8,8.09,8,147.24,20,142
13280,13300,round,77.04,45.24,29.51,18.73,5.61,8.13,8.68,8.19,136.45,21,142
13300,13320,round,73.99,43.89,28.78,18.82,6.68,8.05,8.21,8.43,136.9,27,136
13320,13340,round,78.95,24.59,33.42,18.81,7.48,7.23,9.81,7.93,109.93,22,130
13340,13360,round,76.94,36.43,34.33,18.32,7,7.63,8.84,8.06,132.72,21,131
13360,13380,round,80.6,26.76,35.02,18.29,4.62,8.52,9.36,8.19,115.84,17,133
13380,13400,round,82.04,40,35.29,18.76,5.71,8.11,8.74,8.13,131.67,21,129
13400,13420,round,80.14,60.86,32.85,18.99,6.23,8.02,7.86,8.09,155.07,21,123
13420,13440,round,73.98,51.82,28.61,18.5,5.22,8.26,8.39,8.44,145.26,22,124
13440,13460,round,70.93,42.05,26.99,18.41,5.5,8.46,8.64,8.66,136.72,21,124
13460,13480,round,78.32,31.29,28.24,19.19,4.39,8.71,9.55,8.45,121.84,14,122
13480,13500,round,73.78,46.16,25.51,18.64,5.41,8.39,8.68,8.51,138.89,25,114
13500,13520,round,71.89,31.73,24.32,18.68,4.41,9.48,8.85,8.99,123.82,22,111
13520,13540,round,75.3,35.68,23.24,19.27,3.42,10.05,8.98,9.12,127.27,19,102
13540,13560,round,64.13,37.39,18.71,18.02,4.64,9.49,8.77,9.63,128.6,28,94
13560,13580,round,57.82,25.65,16.18,17.78,3.33,10.45,9.64,10.26,117.12,20,97
13580,13600,round,55.96,22.68,13.08,18.32,1.47,11.33,9.75,10.74,109.73,19,98
13600,13620,round,54.81,24.33,10.75,17.98,2.46,10.89,10.05,10.85,107.48,21,93
13620,13640,round,47.75,24.17,7.43,17.69,2.77,10.62,9.96,11.15,108.75,24,90
13640,13660,round,50.16,11.28,7.91,18.37,2.61,10.74,11.19,11.04,94.88,18,88
13660,13680,round,53.45,8.36,8.27,18.04,1.91,11.12,11.34,11.03,93.47,14,91
13680,13700,round,49.52,11.43,7.14,17.85,1.7,11.5,11.12,11.33,93.85,23,90
13700,13720,round,47.39,12.84,6.41,18.09,2.28,10.79,10.84,11.27,96.84,25,78
13720,13740,round,50.32,6.8,7.39,18.09,2.35,10.58,11.68,11.02,86,15,79
13740,13760,round,50.83,11.6,7.83,18,2.77,10.74,11.16,11.05,96.05,15,81
13760,13780,round,52.17,12.92,7.93,18.36,2.51,11.15,10.94,11.33,102.65,13,86
13780,13800,round,52.87,5.8,9.34,18.5,2.44,11.11,11.67,11.23,92.02,20,82
13800,13820,round,52.97,6.06,9.29,18.15,1.46,11.37,11.8,11.29,85.74,18,84
13820,13840,round,52.56,18.72,6.96,18.56,1.43,11.77,10.81,11.52,105.57,18,80
13840,13860,round,49.52,15.05,4.8,18.25,1.59,11.72,11.03,11.79,97.86,21,75
13860,13880,round,48.6,3.83,5.33,18.09,1.45,11.78,12.11,11.77,86.07,18,75
13880,13900,round,46.61,8.68,5.55,17.83,2.24,11.13,11.59,11.59,93.73,19,71
13900,13920,round,47.68,6.36,5.56,17.64,1.56,11.74,11.89,11.76,90.44,11,81
13920,13940,round,43.92,8.21,5.36,17.67,1.91,11.45,11.68,11.75,93.59,19,85
13940,13960,round,46.31,10.23,5.71,18.03,2.2,10.66,11.27,11.37,97.52,13,92
13960,13980,round,47.13,9.11,6.98,18.19,3.18,10.48,11.61,11.11,93.41,18,95
13980,14000,round,52.78,10.27,8.66,18.66,3.24,9.77,11.25,10.62,93.75,15,94
14000,14020,round,53.74,7.53,10.95,18.38,4.02,10.12,11.53,10.49,95.6,17,99
14020,14040,round,58.48,11.71,11.78,18.67,2.66,10.38,11.19,10.4,95.63,17,97
14040,14060,round,55.04,14.58,11.13,18.23,2.51,10.38,10.68,10.43,103.67,24,92
14060,14080,round,52.61,19.86,9.66,18.13,2.99,10.49,10.19,10.62,101.64,21,91
14080,14100,round,49.12,17.33,9.21,17.95,3.36,10.01,10.12,10.71,106.69,18,97
14100,14120,round,53.67,11.36,10.1,18.63,2.61,10.07,10.54,10.49,104.87,14,98
14120,14140,round,58.8,10.81,11.68,18.85,3.26,9.96,11.29,10.22,94.18,16,97
14140,14160,round,57.19,16.09,11.8,18.24,3.51,10.03,10.59,10.2,100.77,23,92
14160,14180,round,56.4,18,11.64,18.06,3.34,10.21,10.51,10.37,106.4,17,94
14180,14200,round,57.11,18.67,11.88,18.51,3.46,10.32,9.72,10.47,111.74,18,90
14200,14220,round,56.11,14.61,10.53,18.06,1.67,11.3,10.39,10.89,102.25,18,91
14220,14240,round,47.87,16.68,7.36,17.32,1.42,11.73,10.51,11.49,101.74,25,91
14240,14260,round,45.81,15.23,5.41,18.31,1.56,11.49,10.67,11.7,99.5,22,87
14260,14280,round,46.21,13.13,4.67,18.02,1.86,11.38,11.01,11.7,95.33,16,93
14280,14300,round,44.73,6.43,4.56,17.26,1.47,11.84,11.78,11.81,85.64,21,97
14300,14320,round,44.18,6.2,4.72,17.61,1.6,11.61,11.79,11.84,85.69,25,92
14320,14340,round,41.56,6.86,5.14,17.34,2.19,10.87,11.72,11.61,90.08,22,96
14340,14360,round,46.2,6,6.03,17.82,2.11,10.98,12.02,11.31,85.29,13,106
14360,14380,round,52.58,9.14,7.6,19.05,2.89,9.99,11.36,10.7,90.23,21,95
14380,14400,round,52.46,8.67,8.35,17.75,2.69,10.11,11.68,10.6,92.05,18,100
14400,14420,round,50.75,13.85,7.6,17.88,2.23,11.04,10.34,11.02,101.5,20,104
14420,14440,round,58.05,6.47,9.43,19.25,2.41,10.57,11.58,10.56,90.89,19,95
14440,14460,round,52.98,13.92,9.28,18.14,3.17,10.24,10.41,10.64,105.33,24,92
14460,14480,round,53.4,15.7,8.38,18.62,2.17,11.12,10.32,10.95,102.32,20,87
14480,14500,round,53.91,10.2,8.38,18.27,2.13,11.28,11.27,11.08,91.38,20,84
14500,14520,round,52.08,10.13,7.99,17.78,1.79,11.48,11.22,11.28,92.3,23,76
14520,14540,round,48.86,14.47,6.28,17.95,1.53,11.38,10.75,11.54,102.42,17,76
14540,14560,round,47.22,9.17,5.8,17.78,1.64,11.48,11.38,11.56,92.47,18,75
14560,14580,round,48.72,4.5,6.42,17.75,1.88,11.64,12.24,11.6,88.02,12,84
14580,14600,round,47.69,13.72,5.37,18.32,1.8,11.34,10.99,11.57,99.47,18,82
14600,14620,round,48.61,8.24,6.61,18.05,2.86,10.6,11.43,11.32,93.69,17,80
14620,14640,round,49.14,7.76,6.69,17.96,1.79,11.37,11.73,11.41,90.12,17,81
14640,14660,round,51.56,3.33,8.08,18.12,2.05,11.23,12.25,11.23,81.62,18,80
14660,14680,round,51.66,18.38,6.48,18.61,1.91,11.37,10.21,11.41,107.8,16,77
14680,14700,round,46.83,8.56,6.55,17.23,2.4,11.08,11.32,11.4,92.23,18,83
14700,14720,round,43.54,11.25,5.36,17.65,1.56,11.47,11.16,11.63,94.41,20,84
14720,14740,round,46.16,8.36,6.1,18.02,2.32,10.96,11.49,11.4,92.76,14,88
14740,14760,round,47.92,11.4,5.29,17.99,1.39,11.58,11.1,11.61,93.17,15,94
14760,14780,round,49.2,7,5.53,18.33,1.65,11.48,11.55,11.59,90.28,20,92
14780,14800,round,49.09,7.64,5.75,18.39,1.92,11.22,11.57,11.47,86.95,25,83
14800,14820,round,48.71,6.14,7.16,17.84,2.71,10.65,11.94,11.14,87.35,22,77
14820,14840,round,47.83,10.87,5.95,17.68,1.28,11.63,11.23,11.55,92.56,15,83
14840,14860,round,47.53,7.26,5.99,17.97,1.59,11.78,11.57,11.62,91.37,19,81
14860,14880,round,47.3,11.71,4.77,18,1.33,11.64,11.18,11.75,92.86,17,83
14880,14900,round,48.56,7.55,5.76,18.89,2.57,10.82,11.53,11.38,90.43,22,72
14900,14920,round,47.44,8.07,7.05,17.55,3.23,10.18,11.7,11.09,89.2,15,77
14920,14940,round,47.22,6.64,8.14,17.74,2.79,10.81,11.79,11.13,92.59,14,84
14940,14960,round,52.18,9.67,8.86,18.58,2.41,10.73,11.43,10.96,94.38,12,88
14960,14980,round,55.59,12.23,9.63,18.19,2.73,10.6,11.01,10.79,102.13,13,90
14980,15000,round,54.16,11.81,9.07,18.01,2.03,11.33,11.17,11.11,96.1,21,88
15000,15020,round,49.86,13.35,6.8,18.07,1.02,11.93,10.83,11.53,98.57,23,85
15020,15040,round,51.79,9.84,7.81,18.98,2.86,10.67,11.16,11.21,94.64,19,79
15040,15060,round,50.09,15.59,7.31,18.26,2.91,10.35,10.99,11.03,98.99,17,80
15060,15080,round,47.36,6.27,7.47,17.33,2.08,11.23,11.78,11.28,92.79,15,91
15080,15100,round,44.91,12.29,6.89,17.92,2.35,11.18,11.05,11.44,96.95,21,93
15100,15120,round,49,10.75,7.71,17.85,2.74,10.7,11.4,11.21,91.82,12,103
15120,15140,round,49.1,10.71,8.81,18.18,3.16,10.2,11.11,10.96,96.68,24,95
15140,15160,round,53.46,10.19,11.3,18.35,4.28,9.52,11.47,10.52,91.88,16,96
15160,15180,round,55.26,6.94,13.27,18.19,3.82,9.8,11.8,10.34,89.21,16,103
15180,15200,round,55.29,15,14.02,18.18,3.86,9.62,10.99,10.16,97.82,20,105
15200,15220,round,59.43,14.94,15.99,18.21,4.36,9.36,11.01,9.75,100.47,16,106
15220,15240,round,58.7,22.45,15.77,18.48,3.88,9.44,9.85,9.78,110.5,22,101
15240,15260,round,55.45,29.22,13.66,17.88,3.69,9.78,9.48,10.16,116.75,18,107
15260,15280,round,58.74,18.94,14.59,18.82,4.04,9.99,10.39,10.17,104.26,17,108
15280,15300,round,63.21,17.38,17.84,19.11,5.48,8.89,10.26,9.71,105.27,21,98
15300,15320,round,60.98,20.3,16.15,18.31,2.46,10.25,10.11,10.09,108.49,20,98
15320,15340,round,61.03,11.09,16.98,18.19,3,10.81,11.16,10.27,92.41,23,95
15340,15360,round,56.51,27.74,12.82,17.91,1.96,11.14,9.81,10.78,110.06,19,100
15360,15380,round,52.45,26.5,9.42,18.19,1.9,11.01,9.91,10.98,118.53,20,100
15380,15400,round,49.64,17.76,8.2,17.67,2.68,10.91,10.59,11.16,102.91,21,103
15400,15420,round,50.25,14.92,8.03,18.77,2.91,10.65,10.98,11.14,97.63,24,95
15420,15440,round,50.29,9.05,9.2,17.82,3.23,10.22,11.39,10.93,90.65,19,99
15440,15460,round,54.46,5.55,11.91,18.71,3.57,10.04,12.11,10.46,88.07,20,96
15460,15480,round,52.69,13.75,12.19,17.93,3.51,9.87,11.1,10.35,97.32,20,100
15480,15500,round,52.78,22.82,11.82,18.07,3.75,9.92,9.87,10.38,110.23,17,103
15500,15520,round,58.12,19.64,12.43,19.09,3.46,10.09,10.37,10.27,105.88,14,105
15520,15540,round,56.57,16.61,11.73,18.03,2.77,10.33,10.57,10.35,102.74,23,103
15540,15560,round,55.73,14.57,11.32,18.13,2.56,10.72,10.57,10.56,101.56,21,103
15560,15580,round,52.35,18.37,10.1,18.36,2.97,10.52,10.32,10.71,104.31,27,94
15580,15600,round,53.67,18.47,9.16,18.22,2.4,10.92,10.36,10.87,104.47,17,94
15600,15620,round,56.88,10.76,10.25,18.62,2.78,10.4,11.08,10.66,92.39,21,85
15620,15640,round,55.06,14.05,9.85,18.58,2.65,10.63,11.07,10.73,97.94,21,80
15640,15660,round,54.53,11.11,10.9,18.37,3.26,10.6,11.2,10.89,97.86,18,77
15660,15680,round,53.28,12.68,9.67,18.11,1.36,11.34,10.79,11.21,99.16,19,72
15680,15700,round,54.18,9.25,9.43,18.18,1.82,11.55,11.79,11.28,88.7,16,72
15700,15720,round,47.37,15.06,6.76,17.19,1.32,12.07,11.14,11.84,101.15,18,75
15720,15740,round,45.03,17.18,4.56,18.28,1.57,11.88,10.59,12.11,105.01,17,72
15740,15760,round,49.51,6.33,4.31,18.4,0.88,12.3,11.94,12.17,84,15,68
15760,15780,round,45.23,6,3.38,17.09,0.74,12.25,12.04,12.31,84.93,22,61
15780,15800,round,38.67,6.56,2.29,16.82,0.83,12.26,12.22,12.47,88.19,16,69
15800,15820,round,37.89,4.47,2.2,17.58,0.99,12.1,12.18,12.38,85.96,15,75
15820,15840,round,43.87,3.25,3.46,17.93,1.82,11.43,12.39,11.98,88.15,8,85
15840,15860,round,45.97,3.83,4.88,18,2.24,11.12,12.16,11.67,84.75,18,85
15860,15880,round,49.79,4,6.16,18.32,1.87,11.2,12.23,11.36,84.43,19,79
15880,15900,round,47.95,7.79,6.41,17.87,2.11,11.2,11.49,11.44,91.29,19,79
15900,15920,round,50.78,11.79,5.73,18.2,1.46,11.82,11.13,11.64,94.13,14,80
15920,15940,round,47.56,8.55,5.34,18.05,1.69,11.42,11.33,11.68,92.93,22,74
15940,15960,round,48.84,9.75,5.35,18.5,1.99,11.35,11.31,11.61,94.98,16,71
15960,15980,round,44.69,7.59,4.4,17.29,1.18,11.9,11.71,11.89,88.19,17,78
15980,16000,round,41.15,6.68,3.94,17.29,1.3,11.93,11.84,12.06,89.65,19,82
16000,16020,round,47.09,11,3.73,18.45,1.38,11.8,11.35,12.01,92.56,11,86
16020,16040,round,50.37,4.74,4.57,18.73,1.65,11.27,11.95,11.67,88.27,19,79
16040,16060,round,46.23,4.67,5.29,17.82,2.01,11.48,12.18,11.66,85.47,24,76
16060,16080,round,43.33,7.63,4.94,17.57,1.72,11.82,11.59,11.95,88.16,16,87
16080,16100,round,44.46,5.82,5.24,18.09,1.6,11.07,11.9,11.62,90.2,17,91
16100,16120,round,50.19,7.44,6.97,18.46,2.9,10.37,11.89,11.05,86.81,16,88
16120,16140,round,53.72,12.27,7.55,18.57,2.67,10.52,11.34,10.89,96.2,15,88
16140,16160,round,51.19,7.09,8.26,17.83,2.49,10.87,11.59,10.9,90.74,22,88
16160,16180,round,51.92,12.26,8.58,18.57,2.7,10.53,10.78,10.81,97.77,19,84
16180,16200,round,48.75,15.56,7.91,17.48,2.67,10.51,10.35,10.91,106,16,90
16200,16220,round,47.32,9.79,6.94,17.35,1.4,11.18,11.23,11.15,92.07,19,95
16220,16240,round,45.92,13,6.96,17.8,2.89,10.71,10.97,11.15,96.6,20,98
16240,16260,round,49.3,15.15,7.88,18,3.3,10.38,10.65,11,101.46,13,106
16260,16280,round,50.26,7.33,9.75,17.99,3.38,9.92,11.31,10.65,93.86,21,107
16280,16300,round,54.27,8.42,10.93,18.32,2.6,10.28,11.44,10.43,92.05,19,106
16300,16320,round,57.96,13.95,12.79,19.01,4.01,9.82,10.75,10.18,99.36,22,97
16320,16340,round,59.5,19.48,12.3,18.43,2.96,10.02,10.2,10.12,103.92,21,89
16340,16360,round,56.16,11.74,11.55,18.1,2.07,10.92,11,10.47,95.06,23,87
16360,16380,round,49.18,21.84,8.32,17.56,2.04,11.01,9.76,11.02,108.03,19,94
16380,16400,round,45.51,20.24,6.86,17.57,2.64,10.84,10,11.27,111.4,17,104
16400,16420,round,50.61,8.53,7.89,18.6,2.38,10.65,11.38,10.94,93.8,17,103
16420,16440,round,48.85,9.05,8.9,17.92,3.32,9.9,11.42,10.67,91.12,22,110
16440,16460,round,50.4,15.06,8.64,17.98,2.51,10.46,10.86,10.68,102.49,17,118
16460,16480,round,55.19,9.71,11.12,18.59,3.97,9.67,11.24,10.24,93.11,21,114
16480,16500,round,55.39,16.65,12.89,18.39,4.92,8.98,10.4,9.99,104.06,23,111
16500,16520,round,56.46,10.65,13.81,18.1,3.39,10.02,10.82,10.18,100.59,17,120
16520,16540,round,61.17,13.67,15.22,18.8,3.41,10.2,10.82,10.01,98.14,21,116
16540,16560,round,58.04,21.19,13.8,18.03,3.14,10.06,10.23,10.08,106.4,26,114
16560,16580,round,55.06,24.92,12.32,18.22,3.59,10.01,9.54,10.29,114.12,26,106
16580,16600,round,55.83,17.65,11.83,18.26,2.84,10.46,10.25,10.39,101.7,20,106
16600,16620,round,55.33,19.2,10.93,18.24,2.79,10.39,10.33,10.55,105.04,20,107
16620,16640,round,51.11,16.04,11.27,17.95,4.04,9.64,10.46,10.42,104.39,26,104
16640,16660,round,54.61,11.94,12.33,18.34,3.33,9.9,10.98,10.26,94.21,16,109
16660,16680,round,59.26,12.84,14.63,18.53,4.15,9.42,11.03,9.94,96.68,19,105
16680,16700,round,60.05,20,15.64,18.47,4.5,9.33,10.14,9.83,108.72,20,102
16700,16720,round,60.28,15.3,16.76,17.99,4.13,9.87,10.68,9.91,99.07,20,102
16720,16740,round,57.76,24.67,14.68,18.34,2.76,10.24,9.85,10.24,114,21,100
16740,16760,round,54.32,19.55,13.45,17.84,3.07,10.13,10.22,10.32,107.84,22,100
16760,16780,round,59.92,19.18,13.41,18.84,2.79,10.07,10.67,10.11,98.84,17,96
16780,16800,round,57.48,27.67,11.19,18.13,2.97,10.44,9.63,10.35,118.06,18,96
16800,16820,round,53.77,18.52,9.47,17.92,2.42,10.9,10.17,10.82,104.98,23,92
16820,16840,round,49.87,13.35,8.4,17.6,2.13,11.05,10.66,11.09,99.42,23,90
16840,16860,round,47.91,12.67,8.43,17.67,2.93,10.9,10.85,11.24,97.68,18,96
16860,16880,round,49.99,14.71,8.51,18.66,2.74,10.57,10.69,11.04,98.54,17,97
16880,16900,round,51.15,9.1,9.62,18.28,2.99,9.94,11.7,10.58,90.46,20,97
16900,16920,round,53.33,12.88,11.73,18.01,4.52,9.5,11.35,10.23,97.22,17,99
16920,16940,round,55.81,20.25,11.28,18.51,2.91,10.18,9.94,10.36,106.72,16,100
16940,16960,round,56.78,11.43,13.41,18.52,4.26,9.63,10.96,10.09,98.07,21,97
16960,16980,round,60.51,16.75,14.93,18.45,4.17,9.49,10.5,9.87,101.25,16,96
16980,17000,round,59.01,19.83,16.44,18.32,5.23,9.22,10.05,9.77,114.37,18,96
17000,17020,round,60.57,18.65,16.75,18.39,3.47,9.89,10.23,9.86,106.42,17,95
17020,17040,round,66.01,16.61,19.09,18.87,4.07,9.56,10.52,9.56,103.51,18,86
17040,17060,round,61.58,30.63,15.76,17.88,2.96,10.08,9.71,9.94,119.11,16,90
17060,17080,round,58.92,27.2,13.04,18.45,2.51,10.59,9.62,10.23,116.98,20,83
17080,17100,round,55.43,24.18,10.83,17.85,2.85,10.4,9.84,10.46,112.1,17,84
17100,17120,round,54.11,17.71,10.27,18.35,2.93,10.35,10.32,10.63,106.3,17,83
17120,17140,round,54.83,17.13,10.09,18.45,2.86,10.61,10.37,10.59,106.36,16,80
17140,17160,round,58.11,6.75,10.94,18.25,2.5,10.93,11.81,10.69,88.66,12,86
17160,17180,round,51.65,16.88,9.07,17.96,2.24,10.95,10.45,10.95,106.44,25,76
17180,17200,round,53.72,12.31,9.66,18.06,2.79,10.8,10.69,10.97,98.2,13,77
17200,17220,round,51.63,14.5,9.82,17.83,3.26,10.93,10.83,11.18,103.1,16,78
17220,17240,round,46.87,11.19,8.09,17.49,1.19,11.8,11.36,11.55,93.08,21,77
17240,17260,round,49.16,16.46,6.47,17.8,1.23,12.03,10.7,11.81,99.05,13,78
17260,17280,round,47.71,13,4.96,18.47,1.74,11.59,11.32,11.86,92.55,22,68
17280,17300,round,42.92,7.94,3.93,17.47,1.24,11.88,11.78,12.07,87.51,17,75
17300,17320,round,45.83,5.8,3.96,18.64,1.19,11.99,12.11,11.98,85.47,15,75
17320,17340,round,44.94,6.76,3.45,18.59,1.2,11.5,11.79,11.9,86.46,21,69
17340,17360,round,49.15,5.71,4.16,18.22,1.81,11.19,11.95,11.6,83.29,14,67
17360,17380,round,50.12,2.87,5.1,18.05,1.63,11.6,12.57,11.55,81.06,15,68
17380,17400,round,46.08,6.83,4,17.84,0.66,12.26,11.52,11.96,92.99,18,67
17400,17420,round,41.76,6.56,3.21,17.18,0.94,12.27,11.55,12.23,92.9,16,72
17420,17440,round,44.45,7.69,2.56,18.63,0.97,11.84,11.63,12.24,90.3,16,68
17440,17460,round,45.31,3.81,3.18,18.43,1.51,11.61,12.22,11.98,85.04,16,68
17460,17480,round,46.27,4.29,3.1,17.92,0.93,11.9,12.25,12,82.91,14,72
17480,17500,round,41.77,4.06,3.11,17.32,1.21,12.1,12.08,12.18,87.83,17,81
17500,17520,round,42.64,5.17,3.37,18.26,1.43,11.5,12.01,11.92,88.65,18,82
17520,17540,round,46.7,4.85,4.47,18.3,1.99,11.01,11.91,11.58,88.27,13,86
17540,17560,round,48.34,4.83,5.13,17.5,1.67,10.97,12.14,11.35,82.52,18,86
17560,17580,round,48.48,6.42,5.69,17.75,1.94,11.26,11.72,11.38,90.85,19,85
17580,17600,round,49.03,7.42,6.89,18.24,2.81,10.58,11.59,11.1,91.96,19,84
17600,17620,round,49.56,8,7.7,18.17,2.62,10.65,11.2,11.09,97.27,14,92
17620,17640,round,52.09,8.56,8.69,18.48,2.46,10.92,11.38,10.96,94.56,18,89
17640,17660,round,54.86,14.28,9.19,18.89,3.12,10.45,10.68,10.89,96.98,18,85
17660,17680,round,53.11,11.15,8.44,17.86,1.8,11.16,11.36,10.97,93.84,20,84
17680,17700,round,54.18,11.52,8.79,18.13,2.4,10.75,11.03,10.89,97.63,21,73
17700,17720,round,47.49,15.26,7.22,17.54,2.46,11.27,10.68,11.35,101.14,19,74
17720,17740,round,49.31,7.77,6.86,17.9,1.31,11.79,11.57,11.59,90.78,13,78
17740,17760,round,46.68,11.26,6.03,17.92,1.75,11.45,11.18,11.63,97.45,19,75
17760,17780,round,47.49,10.5,6.12,17.92,2.33,11.09,11.49,11.5,91.86,16,75
17780,17800,round,47.46,10.19,5.8,18.44,1.91,11.44,11.24,11.67,93.5,16,76
17800,17820,round,48.79,3.87,6.43,18.06,1.64,11.43,12.12,11.55,85.31,15,80
17820,17840,round,48.7,9.32,6.75,18.21,2.38,11.06,11.64,11.5,90.86,19,77
17840,17860,round,48.41,7.88,6.5,17.83,1.58,11.49,11.81,11.52,90.57,16,80
17860,17880,round,51.39,5.13,7.25,18.03,1.71,11.5,12.1,11.39,87.26,16,79
17880,17900,round,50.01,14.71,5.87,18.4,1.78,11.57,11.08,11.52,100,17,79
17900,17920,round,48.7,8.78,5.87,17.89,1.95,11.25,11.55,11.46,94.08,18,78
17920,17940,round,47.36,8.74,5.78,17.89,1.84,11.16,11.46,11.42,92.42,19,74
17940,17960,round,49.64,8.63,6.38,18.52,2.35,11.09,11.41,11.37,90.63,16,72
17960,17980,round,46.02,10.42,4.94,17.79,1.21,11.84,11.09,11.75,94.76,19,70
17980,18000,round,47.31,6.91,4.41,17.75,0.99,12.29,11.67,12.03,88.15,11,79
18000,18020,round,41.71,8.61,2.49,17.58,0.56,12.42,11.5,12.39,88.59,23,78
18020,18040,round,44.72,4.47,2.66,18.29,1.04,12.02,12.21,12.22,86.14,17,73
18040,18060,round,45.35,3.75,3.81,17.68,2.03,11.46,12.41,11.99,80.86,16,75
18060,18080,round,43.84,3.84,3.53,17.8,0.69,12.37,12.21,12.23,86.16,19,75
18080,18100,round,43.62,5.58,3.71,17.98,1.53,11.79,11.98,12.13,84.03,19,73
18100,18120,round,41.87,7.07,2.82,17.6,0.83,12.29,11.91,12.35,89.84,15,83
18120,18140,round,46.88,3.63,2.81,18.9,0.61,12.48,12.31,12.31,81.1,19,75
18140,18160,round,46.65,5,3.03,18.17,1.41,11.64,12.2,12.08,83.63,18,75
18160,18180,round,38.23,3.96,2.48,16.53,0.84,12.35,12.17,12.37,81.89,23,83
18180,18200,round,40.97,2.6,2.56,17.94,0.69,12.18,12.47,12.31,84.31,15,89
18200,18220,round,41.76,5.26,2.72,18.1,1.34,11.44,11.89,12.03,85.97,19,93
18220,18240,round,45.96,4.78,3.85,18.01,2.03,10.93,12.06,11.56,83.17,18,92
18240,18260,round,50.66,3.26,6.69,18.59,3.38,10.32,12.42,11.04,81.48,19,88
18260,18280,round,52.03,6.56,7.22,18.24,1.86,10.72,11.63,10.99,90.52,18,88
18280,18300,round,54.88,5.11,8.85,18.55,2.29,11.22,11.59,10.95,93.21,19,82
18300,18320,round,53.74,11.53,9.32,18.33,3.13,10.73,11.05,11.01,91.67,19,82
18320,18340,round,52.16,11.95,8.7,18.47,1.65,11.04,10.92,11.02,99.35,22,71
18340,18360,round,55.96,7.17,10.32,18.5,2.93,10.66,11.84,10.83,91.93,12,72
18360,18380,round,59.28,12.93,10.49,18.69,2.46,11.17,11.26,10.84,92.65,14,70
18380,18400,round,52.72,15.09,7.45,18.31,0.75,11.89,10.74,11.39,103.2,22,60
18400,18420,round,52.05,8.39,6.44,18.29,0.75,12.29,11.61,11.65,88.13,18,52
18420,18440,round,48.08,14.5,3.53,17.77,0.84,12.36,10.95,12.18,97.47,14,49
18440,18460,round,44.08,8.54,1.85,17.92,0.56,12.24,11.49,12.39,95.19,13,48
18460,18480,round,36.68,2.58,1.41,16.28,0.41,12.81,12.27,12.73,84.78,12,58
18480,18500,round,37.22,3.45,0.91,17.55,0.24,12.87,12.39,12.87,85.22,11,66
18500,18520,round,40.26,1.85,1.68,18.03,1.16,11.64,12.54,12.39,81.46,13,69
18520,18540,round,48.25,2.46,3.57,19.17,2.24,10.8,12.64,11.68,82.44,13,63
18540,18560,round,51.97,1.23,4.63,18.23,1.32,11.68,12.56,11.61,80.91,13,63
18560,18580,round,54.96,3.18,5.25,18.87,0.93,12.13,12.35,11.58,84.35,17,55
18580,18600,round,50.84,7.24,4.39,17.8,1,12.08,11.62,11.83,90.32,17,49
18600,18620,round,40.94,7.5,3.23,16.61,1.12,12.36,11.54,12.36,93.78,14,52
18620,18640,round,46.45,4.82,3.09,19.02,0.64,12.57,11.97,12.42,84.96,11,47
18640,18660,round,46.9,3.5,3.91,18.11,1.57,11.85,12.32,12.22,87.04,12,44
18660,18680,round,43.96,7.36,2.85,17.58,0.87,12.58,12.01,12.6,85.14,11,46
18680,18700,round,42.91,2.18,2.47,17.33,0.19,13.1,12.65,12.8,85.37,11,47
18700,18720,round,42.7,4.58,1.66,17.5,0.27,12.86,12.48,12.84,84.21,12,44
18720,18740,round,39.53,4.36,1.38,17.99,1.08,12.25,12.58,12.73,79.44,14,40
18740,18760,round,41.1,0.43,1.39,17.36,0.26,12.95,13.03,12.82,78.34,7,46
18760,18780,round,41.68,3.18,1.51,17.58,0.87,12.44,12.6,12.75,78.01,11,45
18780,18800,round,36.64,2,1.13,16.92,0.29,12.94,12.71,12.89,81.65,11,55
18800,18820,round,40.33,0,1.31,17.94,0.25,12.87,13.18,12.83,78.29,10,59
18820,18840,round,44.73,3.6,2.1,19.24,1.64,11.38,12.48,12.24,80.69,15,50
18840,18860,round,50.84,0.44,2.96,18.24,0.94,11.99,12.94,12.05,78.21,9,50
18860,18880,round,47.67,3.59,2.35,17.9,0.33,13.06,12.41,12.5,80.62,17,43
18880,18900,round,43.1,3.82,1.47,17.23,0.21,12.98,12.13,12.82,83.28,11,47
18900,18920,round,40.71,2.86,1.88,18.21,1.15,12.29,12.42,12.64,85.47,14,40
18920,18940,round,44.47,3,2.55,18.25,1.28,11.84,12.65,12.44,83.14,8,40
18940,18960,round,48.21,0.36,4.34,18.53,1.54,12.18,13.04,12.23,78.2,11,35
18960,18980,round,46.33,6.09,3.22,18.12,0.56,12.67,12.08,12.57,80.99,11,32
18980,19000,round,43.05,4.8,2.62,17.9,0.72,12.61,12.4,12.62,84.26,10,29
19000,19020,round,40.76,5.88,1.69,18.41,0.69,12.74,12.31,12.88,88.01,8,29
19020,19040,round,52.76,3.5,1.61,20,0.39,12.44,12.7,12.62,79.92,6,23
19040,19060,round,60.1,0,2.53,19.77,0.07,13.05,13.19,12.51,79.24,9,15
19060,19080,round,55.6,3.75,0.89,17.94,0,13.41,12.54,12.91,79.64,8,9
19080,19100,round,29.02,1.33,0,17.42,0,13.43,12.79,13.42,79.1,6,5
19100,19120,round,25.37,0,0,16.52,0,13.26,13.58,13.41,66.84,1,10
19120,19140,round,45.37,0,0,20,0,12.66,0,12.98,0,0,10
19140,19160,round,56.24,0,0,20,0,12.9,13.07,12.91,73.35,3,7
19160,19180,round,74.9,0,0,20,0,13.46,13.08,13.03,75.53,2,5
19180,19200,round,0,0,0,0,0,0,13.09,0,81.34,5,0
19200,19220,round,0,0,0,0,0,0,0,0,0,0,0
19220,19240,round,0,0,0,0,0,0,0,0,0,0,0
19240,19260,round,0,0,0,0,0,0,0,0,0,0,0
19260,19280,round,0,0,0,0,0,0,0,0,0,0,0
19280,19300,round,0,0,0,0,0,0,0,0,0,0,0
19300,19320,round,0,0,0,0,0,0,0,0,0,0,0
19320,19340,round,0,0,0,0,0,0,0,0,0,0,0
19340,19360,round,0,0,0,0,0,0,0,0,0,0,0
19360,19380,round,0,0,0,0,0,0,0,0,0,0,0
19380,19387,round,0,0,0,0,0,0,0,0,0,0,0
9690,9709.9865979382,#DIV/0!,63.2924226804,27.9880206186,20.4329793814,18.0987628866,4.5158762887,9.0224226804,9.5168041237,9.3021958763,114.6091752577,19.6958762887,117.2556701031
