interval_begin,interval_end,interval_id,interval_meanDurationWithin,interval_meanHaltsPerVehicle,interval_meanHaltsPerVehicleWithin,interval_meanIntervalDurationWithin,interval_meanIntervalHaltsPerVehicleWithin,interval_meanIntervalSpeedWithin,interval_meanSpeed,interval_meanSpeedWithin,interval_meanTravelTime,interval_vehicleSum,interval_vehicleSumWithin
0,20,X,0,0,0,0,0,0,0,0,0,0,0
20,40,X,0,0,0,0,0,0,0,0,0,0,0
40,60,X,0,0,0,0,0,0,0,0,0,0,0
60,80,X,0,0,0,0,0,0,0,0,0,0,0
80,100,X,0,0,0,0,0,0,0,0,0,0,0
100,120,X,2.16,0,0,2.16,0,12.65,0,12.65,0,0,1
120,140,X,18.72,0,0,18.18,0,13.67,0,13.65,0,0,4
140,160,X,20.51,0,0,13.02,0,13.41,0,13.49,0,0,10
160,180,X,35.04,0,0,17.95,0,13.48,0,13.54,0,0,12
180,200,X,32.62,0,0,17.15,0,13.24,13.36,13.37,74.49,4,12
200,220,X,32.45,0,0,15.62,0,13.47,13.45,13.43,73.06,1,20
220,240,X,29.84,0,0,17.25,0,13.33,13.4,13.44,74.28,5,25
240,260,X,31.53,0,0.17,16.16,0.17,13.18,13.29,13.32,75.26,3,36
260,280,X,35.94,0,1.6,17.16,1.47,12.18,13.19,12.95,75.26,5,43
280,300,X,38.46,0.11,3.89,17.51,2.41,11.54,13.31,12.43,74.55,9,46
300,320,X,43.25,2.5,5.68,17.64,2.58,11.34,12.8,12.15,78.22,6,53
320,340,X,49.09,4.89,9.02,18.55,4.17,10.52,12.43,11.76,81.13,9,53
340,360,X,50.28,6.15,13.47,18.35,5.67,9.35,12.39,11.13,81.88,13,51
360,380,X,57.63,1.33,16.91,18.37,4.56,10.08,13.07,10.95,76.43,6,55
380,400,X,54.45,10.85,16.98,17.16,3.38,10.74,12.04,11.07,86.38,13,58
400,420,X,56.24,21.91,15.44,18.26,2.39,11.26,11.09,11.22,98.29,11,57
420,440,X,54.86,30,12.11,18.81,2.87,11.13,10.33,11.45,106.72,13,53
440,460,X,50.46,23,10.49,17.47,3.96,10.42,10.54,11.57,101.26,14,49
460,480,X,53.82,1.64,14.38,18.34,4.04,10.34,12.82,11.21,77.9,11,48
480,500,X,54.19,9.73,15.08,18.11,2.94,11.11,11.92,11.22,86.09,11,48
500,520,X,48.62,32.9,11.29,17.98,3.69,10.56,10.13,11.53,110.3,10,52
520,540,X,52.73,17.5,11.63,18.56,3.22,10.83,11.41,11.42,93.62,10,49
540,560,X,52.44,12.27,11.61,17.2,2.73,10.99,11.71,11.37,88.97,11,49
560,580,X,46.42,25.69,5.63,17.97,0.73,12.56,10.45,12.21,102.74,13,48
580,600,X,38.44,10.94,3.19,17.27,1.23,12.4,11.48,12.66,88.53,17,43
600,620,X,37.17,10.25,3.51,16.89,2.43,11.43,11.82,12.47,87.02,8,51
620,640,X,42.89,0.57,5.11,17.82,2.04,11.82,13.22,12.32,75.41,7,57
640,660,X,45.94,6.36,6.56,18.33,2.67,11.24,12.32,12.06,82.02,14,52
660,680,X,46.16,8.33,8.37,17.2,3.86,10.53,11.97,11.81,85.14,9,59
680,700,X,49.08,4.86,10.47,18.32,2.73,11.17,12.44,11.66,81.22,14,55
700,720,X,53.28,10.27,13.5,18.57,4.93,9.89,11.74,11.26,86.97,11,54
720,740,X,53.05,7.67,18.24,17.41,6.65,8.83,12.08,10.76,83.77,12,55
740,760,X,57.13,9.13,20.5,18.42,5,9.56,12.08,10.75,85.18,8,60
760,780,X,64.71,1.43,22.72,18.38,3.66,10.76,13.07,10.76,76.2,7,64
780,800,X,62.13,26.35,24.02,18.47,6.67,8.88,10.44,10.64,103.88,17,58
800,820,X,60.91,18.91,26.57,17.59,7.15,8.38,11.93,10.25,94.54,11,61
820,840,X,68.83,0.33,31.32,18.61,6.79,8.45,13.28,9.89,75.25,6,66
840,860,X,72.26,13.13,33.01,18.35,5.76,9.12,11.35,9.9,90.16,8,72
860,880,X,71.75,42.8,31.16,18.91,5.27,9.52,9.77,10.19,119.98,15,67
880,900,X,75.85,21.5,34.49,18.48,6.13,9.05,11.56,9.83,97.31,14,63
900,920,X,70.43,45.44,32.11,18.35,6.74,8.56,9.85,9.92,122.36,16,57
920,940,X,70.15,18.18,33.45,18.43,6.28,9.12,11.2,10.13,94.51,11,60
940,960,X,76.52,13.78,37.12,18.51,5.73,9.24,11.62,9.98,90.97,9,60
960,980,X,75.67,38.33,36.25,18.22,6.38,8.78,11.38,9.77,114.72,9,63
980,1000,X,66.64,53.29,29.67,17.93,5.25,9.52,9.9,10.23,130.1,14,63
1000,1020,X,71.86,17.33,30.63,19.02,4.28,10.12,11.35,10.35,94.12,9,65
1020,1040,X,70.74,42.36,28.63,18.8,5.33,9.45,10.17,10.3,119.52,14,60
1040,1060,X,65.3,27.07,28.57,17.76,6.62,8.58,10.32,10.4,104.65,14,61
1060,1080,X,69.65,1.44,31.63,18.08,5.02,9.6,12.98,10.3,77.27,9,65
1080,1100,X,70.09,30.25,30.58,18.32,4.54,9.94,10.75,10.46,107.84,12,65
1100,1120,X,69.17,24.54,30.74,18.31,5.45,9.7,10.57,10.64,102.51,13,66
1120,1140,X,74.98,15,37.34,18.64,6.76,8.67,11.47,10.18,91.87,15,59
1140,1160,X,79.17,0,42.69,18.11,8.27,7.73,13.47,9.53,74.19,8,64
1160,1180,X,76.8,57.09,42.27,18.86,9.39,7.01,10.61,9.27,133.37,11,64
1180,1200,X,84.29,1.5,49.43,18.64,10.36,6.38,13.07,8.76,76.25,6,69
1200,1220,X,94.19,0,56.19,18.89,9.47,6.57,13.16,8.4,75.93,5,73
1220,1240,X,96.93,0,57.41,18.31,6.77,8.33,13.42,8.45,74.24,8,81
1240,1260,X,96.04,72.33,54.27,19.26,6.73,8.6,7.68,8.91,149.76,15,75
1260,1280,X,92.5,64.86,52.64,18.77,8.72,7.37,8.67,8.92,142.15,14,72
1280,1300,X,88.25,51.62,51.9,18.57,9.18,6.8,10.05,8.81,129.16,13,73
1300,1320,X,92.78,1.83,53.58,18.42,6.94,8.42,12.71,8.95,78.7,6,81
1320,1340,X,96.17,36.07,56.08,18.88,6.74,8.46,9.67,9.09,114.71,15,77
1340,1360,X,92.56,38.8,54.79,18.13,6.9,8.62,10.89,9.23,116.07,15,78
1360,1380,X,95.14,71.07,54.91,19.7,7.74,7.68,9.16,9.02,148.51,15,68
1380,1400,X,94.07,35.56,53.56,17.99,6.79,8.43,11.97,8.93,111.25,9,73
1400,1420,X,86.65,57.42,49,18.55,6.29,8.47,9.32,9.39,135.27,19,66
1420,1440,X,96.1,0,53.03,18.85,5.47,9.49,13.29,9.27,75.14,7,68
1440,1460,X,87.69,65.5,49.25,18.64,8.12,7.73,8.67,9.47,145.77,18,59
1460,1480,X,90.69,3.56,52.19,18.33,6.57,8.67,13,9.46,77.44,9,63
1480,1500,X,92.15,15.33,54.02,18.34,5.52,9.29,11.15,9.75,93.32,12,64
1500,1520,X,94.25,20.45,55.2,18.65,5.48,9.51,10.71,10,98.52,11,65
1520,1540,X,90.86,54.43,53.51,18.21,7.18,8.29,11.17,9.71,131.13,14,61
1540,1560,X,91.45,3.78,55.64,18.19,7.43,8.22,12.52,9.64,80.36,9,67
1560,1580,X,96.91,2.2,59.07,18.13,5.36,9.31,12.71,9.6,78.4,10,69
1580,1600,X,97.09,18.45,58.85,18.23,5.79,9.21,11.27,9.77,95.01,11,73
1600,1620,X,97.37,64.21,57.9,19.26,7.19,8.44,10.69,9.5,140.62,14,67
1620,1640,X,98.51,42.33,61.43,18.56,9.57,6.87,11.13,8.97,119.43,12,65
1640,1660,X,107.73,1.5,70.65,18.71,10.33,6.21,12.97,8.37,76.73,8,66
1660,1680,X,112.39,0.75,74.83,18.46,8.3,7.47,13.27,8.27,75.32,8,70
1680,1700,X,109.05,41.89,71.87,18.3,7.91,7.89,9.39,8.83,119.84,9,76
1700,1720,X,113.16,27.92,76.16,18.31,7.8,7.95,10.52,8.86,105.44,12,75
1720,1740,X,114.37,14.22,75.75,18.56,6.81,8.51,11.6,9.03,90.57,9,81
1740,1760,X,106.21,75.73,67.51,18.57,5.78,9,10.09,9.3,153.03,15,81
1760,1780,X,113.49,16.08,72.53,18.78,6.59,8.69,11.32,9.18,93.37,12,80
1780,1800,X,101.01,79.72,65.17,18.09,8.45,7.57,10.27,9.21,157.84,18,77
1800,1820,X,104.61,4.63,67.3,17.97,7.29,8.25,12.56,9.23,80.47,8,83
1820,1840,X,120.56,6.77,80.83,19.08,8.49,7.53,12.19,8.61,83.3,13,76
1840,1860,X,129.36,25.08,90.1,19.12,9.31,6.83,11.38,8.05,101.54,13,72
1860,1880,X,124.51,64.27,87.03,18.3,8.92,7.09,10.82,8.12,140.99,11,74
1880,1900,X,118.41,90.8,81.62,18.09,8.83,7.23,11.07,8.12,166.87,10,76
1900,1920,X,118.06,58.5,79.91,18.41,8.22,7.62,9.43,8.26,135.51,8,80
1920,1940,X,107.85,106.79,70.69,18.41,7.9,7.63,8.61,8.6,185.19,14,78
1940,1960,X,111.28,50.38,72.2,18.85,9.1,7.15,11.59,8.42,126.23,8,81
1960,1980,X,113.63,29.92,75.02,18.46,8.09,7.54,10.58,8.43,107.04,12,82
1980,2000,X,123.04,22,82.3,19.02,9.06,7.14,11.99,8.05,97.72,10,81
2000,2020,X,117.98,67.13,81.14,18.04,9.51,6.76,9.08,8.17,145.06,15,79
2020,2040,X,123.05,21.82,84.56,18.61,7.44,7.71,11.17,8.16,99.45,11,80
2040,2060,X,113.83,108.36,74.25,18.45,7.11,8.28,9.78,8.51,186.03,11,83
2060,2080,X,107.25,101.08,67.58,18.69,7.72,7.97,8.37,8.83,181.81,13,81
2080,2100,X,113.97,43.33,73.62,18.88,9.29,7.04,10.29,8.55,121.03,12,77
2100,2120,X,115.04,11.08,78.43,18.57,9.36,6.79,11.94,8.36,87.58,13,80
2120,2140,X,120.57,1.11,82.85,18.48,8.27,7.6,13,8.25,76.79,9,84
2140,2160,X,123.81,57.08,86.67,18.91,9.91,6.48,9.13,8.06,135.41,13,81
2160,2180,X,119.13,84.7,82.27,18.74,9.65,6.71,10.28,8.09,161.34,10,85
2180,2200,X,129.37,23.55,91.96,19.01,10.83,6.11,10.93,7.74,100.23,11,83
2200,2220,X,122.47,96.11,87.39,18.25,11.35,5.48,9.93,7.63,173.07,9,89
2220,2240,X,128.37,0.29,90.4,18.58,8.55,6.93,13.31,7.47,74.99,7,95
2240,2260,X,123.48,132.38,83.89,19.1,9.25,7.05,7.02,7.85,212.13,13,92
2260,2280,X,122.18,51.88,86.69,18.53,11,5.97,8.45,8.03,131.42,16,91
2280,2300,X,128.84,0.1,93.18,18.65,10.15,6.3,13.34,7.75,74.56,10,95
2300,2320,X,139.97,1.38,102.42,19.07,11.28,5.9,13.18,7.3,75.67,8,97
2320,2340,X,140.65,113.18,104.04,19.13,12.57,4.85,8.39,7.06,192.04,11,95
2340,2360,X,151.5,0,114.35,19.17,12.45,4.78,13.5,6.56,73.74,8,97
2360,2380,X,164.41,2,125.84,19.28,11.67,5.07,12.85,6.06,77.79,9,97
2380,2400,X,152.41,170.62,115.09,18.93,11.05,5.38,6.62,6.44,251.76,13,96
2400,2420,X,146.29,69.5,108.2,18.58,9.21,6.79,8.96,7.13,148,8,106
2420,2440,X,141.99,140.31,102.55,19.26,9.37,6.65,7.59,7.24,220.14,16,99
2440,2460,X,141.21,89.92,103.21,18.91,11.55,5.61,7.65,7.3,168.88,13,98
2460,2480,X,145.39,30.31,109.24,18.73,11.05,5.63,10.61,7.16,108.85,13,99
2480,2500,X,154.33,0.33,116.84,19.01,10.84,5.84,13.31,6.85,75.02,9,102
2500,2520,X,158.95,119.8,119.36,19.24,11.08,5.69,7.13,6.76,198.95,10,99
2520,2540,X,158.06,63.36,119.15,19.06,9.85,6.29,9.7,6.93,140.9,14,100
2540,2560,X,159.98,103.07,117.99,18.92,7.68,7.76,9.2,7.13,180.44,15,94
2560,2580,X,163.94,72.3,125.35,18.86,10.52,6.06,7.68,7.33,153.11,20,84
2580,2600,X,164.96,57.23,127.76,18.8,9.87,6.42,10.57,7.37,133.13,13,83
2600,2620,X,174.84,14.27,137.73,18.57,10.33,6.33,11.24,7.25,92.32,11,82
2620,2640,X,180.73,18.42,145.29,18.71,10.26,6.28,10.57,7.35,98,12,82
2640,2660,X,180.37,10,143.08,18.8,8.6,7.45,11.65,7.79,87.26,8,88
2660,2680,X,192.21,5.62,155.26,18.81,9.7,6.74,12.3,7.27,81.84,13,86
2680,2700,X,179.87,189.36,143.93,18.93,11.35,5.53,9.07,7.03,266.95,11,85
2700,2720,X,183.5,117.13,145.64,19.23,11.15,5.69,10.49,6.82,193.68,8,84
2720,2740,X,186.51,16.4,149.82,18.76,11.08,5.79,11.13,6.95,93.23,10,87
2740,2760,X,186.16,8.75,151.57,18.17,9.49,6.79,11.91,7.17,85.51,12,91
2760,2780,X,185.47,82.82,148.13,19.2,8.11,7.57,9.85,7.53,160.25,11,92
2780,2800,X,182.4,121.8,144.66,18.95,9.01,7.05,9.56,7.5,199.7,15,87
2800,2820,X,168.96,149.23,131.36,18.78,9,6.82,9.8,7.73,226.61,13,87
2820,2840,X,176.7,0.5,136.96,18.93,8.61,7.46,13.28,7.63,75.12,10,89
2840,2860,X,171.21,102.18,133.85,18.93,9.42,6.91,9.97,7.63,180.16,17,84
2860,2880,X,162.73,99,125.24,18.3,8.73,7.29,10.29,7.91,177,10,88
2880,2900,X,164.69,56,125.19,18.95,7.59,7.97,11.54,7.95,132.34,12,88
2900,2920,X,164.12,63.71,126.85,18.56,8.58,7.25,10.79,7.67,141.29,17,84
2920,2940,X,152.39,170.1,115,18.65,9.66,6.59,8.89,7.7,249.03,10,85
2940,2960,X,144.21,150.36,108.43,18.79,11.75,5.38,9.72,7.42,227.68,11,84
2960,2980,X,145.83,0.83,109.38,18.71,10.43,6.13,13.23,7.46,75.65,6,92
2980,3000,X,152.86,0.25,112.58,18.63,7.78,7.56,13.33,7.44,74.91,8,96
3000,3020,X,158.69,83.33,117.3,19.37,9.91,6.59,10.08,7.07,159.92,15,89
3020,3040,X,144.68,133.47,106.77,18.25,9.5,6.55,7.52,7.54,213.16,17,84
3040,3060,X,147.23,5.75,107.18,18.37,8.03,7.78,12.59,7.88,80.54,8,90
3060,3080,X,149.53,79.56,109.85,19.08,8.44,7.6,9.68,8,157.82,18,81
3080,3100,X,158.46,14.31,120.22,18.93,9.94,6.55,11.23,7.67,92.32,13,79
3100,3120,X,150.82,80.2,113.43,18.12,8.67,7.25,10.25,8.08,158.27,10,83
3120,3140,X,160.56,2.55,119.86,18.78,6.76,8.41,12.76,8.08,78.78,11,83
3140,3160,X,148.6,121.42,109.53,19.06,7.65,7.89,8.87,8.27,200.03,19,75
3160,3180,X,144.99,95.45,105.66,18.77,8.84,7.15,10.8,8.09,173.59,11,74
3180,3200,X,141.84,65.73,103.04,18.54,8.43,7.46,11.25,8.07,142.81,11,75
3200,3220,X,141.08,42.38,103.63,18.15,7.93,7.71,11.12,8.12,120.32,13,75
3220,3240,X,124.2,150.91,87.69,18.48,8.31,7.72,8.71,8.67,230.25,11,77
3240,3260,X,122.28,6.55,86.76,17.95,7.24,8.2,12.25,8.85,82.74,11,84
3260,3280,X,126.35,35.4,88.81,18.78,8.19,7.62,12.14,8.59,111.14,10,86
3280,3300,X,120.43,111,81.92,18.85,8.57,7.57,9.93,8.71,189.22,10,89
3300,3320,X,134.72,8.8,95.19,19.07,8.94,7.09,11.72,8.28,85.61,15,83
3320,3340,X,139.17,1.17,101.21,18.59,9.5,6.9,13.16,8.02,75.87,12,86
3340,3360,X,139.74,69.33,101.15,18.79,8.54,7.29,10.13,8.11,147.42,12,85
3360,3380,X,146.13,26.36,107.47,18.76,9.73,6.68,11.76,7.74,103.12,11,85
3380,3400,X,146.9,69.86,108.76,19.06,9.28,6.81,10.52,7.6,146.68,14,82
3400,3420,X,145.96,81,106.68,18.81,8.79,7.43,8.8,8.06,159.94,11,82
3420,3440,X,158.27,13.47,120.83,18.71,9.84,6.65,11.34,7.68,91.4,15,77
3440,3460,X,154.59,59.6,116.79,18.26,7.94,7.45,11.28,7.77,135.35,10,80
3460,3480,X,133.82,143.31,97.14,18.04,7.02,8.35,9.12,8.41,221.57,13,83
3480,3500,X,124.86,103.33,87.42,18.44,7.15,8.51,8.96,8.96,181.9,12,85
3500,3520,X,137.82,54.87,99.61,19.49,10.31,6.33,10.59,8.09,131.93,15,74
3520,3540,X,134.59,63.88,97.09,18.69,10.25,6.19,12.01,7.87,138.61,8,79
3540,3560,X,142.49,3.44,103.83,19.04,9.52,6.76,12.73,7.77,78.98,9,81
3560,3580,X,148.99,21.42,111.85,18.45,9.94,6.58,11.02,7.62,98.27,12,80
3580,3600,X,152.84,37.7,114.91,18.87,9.1,6.82,9.89,7.77,116.4,10,81
3600,3620,X,155.13,21.8,117.18,18.45,8.96,7.25,12.29,7.72,97.46,10,84
3620,3640,X,146.31,92.21,110.79,18.5,8.98,7.12,8.93,8.07,171.92,14,84
3640,3660,X,159.54,28.91,121.98,19,9.63,6.66,11.21,7.58,106.15,11,80
3660,3680,X,153.09,122.2,115.25,19.07,9.86,6.33,8.56,7.7,200.62,10,81
3680,3700,X,154.48,24.89,115.13,18.53,7.94,7.56,11.4,7.89,101.45,9,85
3700,3720,X,151.5,70.19,113.83,18.56,8.18,7.88,9.86,8.23,147.93,16,82
3720,3740,X,152.5,54.06,117.23,18.32,8.65,7.5,10.59,8.18,132.04,16,78
3740,3760,X,137.76,92,104.73,18.31,9.1,7.05,9.5,8.56,171.31,10,86
3760,3780,X,150.74,1,113.93,19.19,9.29,6.97,13.16,8.07,75.67,8,86
3780,3800,X,164.66,22.08,127.85,19.4,11.6,5.5,10.51,7.53,100.23,12,82
3800,3820,X,165.04,0.11,129.18,18.42,10.06,6.15,13.36,7.41,74.82,9,88
3820,3840,X,167.4,27.56,129.09,18.95,8.22,7.59,11.69,7.72,104.14,9,92
3840,3860,X,173.78,39.5,136.03,18.53,8.26,7.7,9.43,8,117.93,16,88
3860,3880,X,183.56,30.63,148.43,18.88,10.11,6.45,10.14,7.8,109.79,16,83
3880,3900,X,186.7,17.27,152.91,18.55,10.2,6.38,12.26,7.56,93.65,11,85
3900,3920,X,190.11,40.44,155.15,18.92,9.94,6.21,10.63,7.44,117.59,9,87
3920,3940,X,205.8,6.67,166.98,19.04,8.88,6.93,12.36,7.05,82.7,9,85
3940,3960,X,188.7,152.69,151.9,18.6,8.61,7.01,9.08,7.49,230.78,16,82
3960,3980,X,189.24,59.08,152.09,18.62,7.79,7.74,11.56,7.67,135.19,13,81
3980,4000,X,186.23,93.33,149.45,18.78,9.46,6.97,9.93,7.8,170.17,12,80
4000,4020,X,201.22,29.45,164.01,19.33,10.96,5.94,11.25,7.34,105.69,11,76
4020,4040,X,212.06,0.33,175.64,18.68,11.67,5.4,13.17,6.81,75.62,9,76
4040,4060,X,202.74,108.5,166.96,18.94,10.95,5.74,10.26,7.02,185.33,8,80
4060,4080,X,197.09,9.56,160.62,18.5,8.08,7.61,11.94,7.56,86.18,9,87
4080,4100,X,191.9,106.64,154.1,18.81,8.64,7.27,9.4,7.87,184.78,11,88
4100,4120,X,193.87,38.33,156.98,18.86,9.78,6.74,10.87,7.79,114.83,12,89
4120,4140,X,202.48,15.85,166.95,18.73,10.53,6.12,11.45,7.45,93.04,13,88
4140,4160,X,203.51,34,166.64,18.67,9.9,6.56,11.43,7.5,110.47,8,92
4160,4180,X,224.24,23.92,184.99,19.31,10.06,6.26,11.8,6.93,100.98,12,86
4180,4200,X,211.19,34.13,175.37,18.18,8.01,7.51,11.54,7.45,110.4,15,92
4200,4220,X,202.05,180,161.94,19.06,6.68,8.34,8.25,7.82,257.61,12,90
4220,4240,X,186.89,168.06,148.8,18.63,9.3,6.77,8.73,7.73,246.56,17,84
4240,4260,X,177.57,141.75,140.77,18.96,10.67,5.89,10.09,7.55,219.35,12,83
4260,4280,X,178.13,0,140.84,18.46,9.56,6.85,13.37,7.6,74.73,8,89
4280,4300,X,188.23,30,150.06,19.06,11.02,5.97,10.54,7.35,107.9,10,88
4300,4320,X,196.43,83.45,157.37,19.38,11.1,5.38,10.87,6.66,161.23,11,84
4320,4340,X,184.89,123.38,145.17,18.43,9.26,6.55,9.67,6.97,200.72,8,90
4340,4360,X,167.68,190.69,125.87,18.96,6.92,7.7,8.59,7.31,270.24,13,89
4360,4380,X,147.26,205.42,104.37,18.91,7.29,8.09,6.54,8.03,288.95,12,90
4380,4400,X,141.03,75.6,102.17,18.56,8.35,7.6,8.16,8.54,156.07,20,84
4400,4420,X,153.01,4,113.71,18.71,9.63,6.88,12.76,7.96,79.14,12,82
4420,4440,X,147.43,72.5,110.48,18.33,9.83,6.58,10.96,7.84,149.24,12,84
4440,4460,X,145.39,84.44,107.28,18.78,9.34,7.09,10.66,8.01,161.33,9,87
4460,4480,X,154.42,25.58,115.28,18.8,9.09,6.74,10.28,7.73,103.09,12,85
4480,4500,X,151.78,76.56,111.25,18.99,8.89,6.98,11.48,7.7,153.51,9,89
4500,4520,X,154.9,89.57,113.57,19.28,9.39,6.76,9.25,7.63,167.78,14,83
4520,4540,X,156.35,25,116.8,18.56,9.44,6.81,10.31,7.79,103.17,12,85
4540,4560,X,148.83,71.77,109.16,18.59,6.94,8.21,10.44,8.15,150.11,13,88
4560,4580,X,135.2,152.4,95.24,18.85,8.1,7.53,9.15,8.18,232.07,15,84
4580,4600,X,128.37,84.77,90.28,18.76,9.13,7.05,8.57,8.43,164.98,13,85
4600,4620,X,135.45,23.09,97.4,18.71,10.11,6.46,11.03,8.15,100.92,11,85
4620,4640,X,143.87,0.78,104.9,18.81,9.82,6.55,13.01,7.79,76.74,9,87
4640,4660,X,145.4,19.64,108.24,18.36,10.33,6.5,11.83,7.61,95.41,11,91
4660,4680,X,141.32,131.75,102.93,18.78,8.97,6.77,8.36,7.62,211.23,12,88
4680,4700,X,144.92,0,102.83,18.98,7.48,7.7,13.46,7.73,73.99,7,95
4700,4720,X,132.51,144.05,91.07,19,8.34,7.3,7.84,7.93,224.39,19,85
4720,4740,X,138.04,36.23,97.01,18.75,9.42,6.8,10.13,7.84,113.62,13,83
4740,4760,X,141.53,27.79,100.98,18.56,7.52,7.91,10.6,8.09,105.96,14,82
4760,4780,X,141.6,45.83,100.28,18.54,7.14,8.38,9.2,8.64,125.31,12,83
4780,4800,X,143.31,25.44,106.24,18.08,7.93,7.94,10.65,8.69,103.09,18,80
4800,4820,X,150.26,21.75,113.11,18.73,8.84,7.4,11.4,8.33,98.74,12,79
4820,4840,X,146.91,135.1,109.45,19.12,10.95,6.02,10.08,7.89,213.6,10,77
4840,4860,X,143.29,68.75,106.78,18.68,10.71,5.87,11.9,7.7,145.8,8,82
4860,4880,X,152.58,0,111.87,18.98,8.86,6.92,13.4,7.49,74.64,6,85
4880,4900,X,147.35,63.71,107.37,18.18,7.17,8.35,9.89,8.04,141.34,14,86
4900,4920,X,149.82,57.84,112.41,18.12,8.12,7.63,8.7,8.32,136.75,19,78
4920,4940,X,154.74,14.09,117.14,18.66,8.11,7.7,11.95,8.28,90.68,11,79
4940,4960,X,147.4,122,109.26,18.67,8.84,7.42,9.82,8.39,200.66,10,80
4960,4980,X,161.64,4.77,124.07,19.14,9.87,6.47,12.49,7.75,80.68,13,76
4980,5000,X,166.28,19.11,129.05,18.52,10.37,6.08,12.05,7.42,94.6,9,78
5000,5020,X,153.44,93.44,117.44,18.1,8.91,7.12,9.9,7.93,172.11,9,85
5020,5040,X,152.13,71.7,114.89,18.43,8.39,7.65,10.59,8.08,150.98,10,87
5040,5060,X,151.17,98.5,114.91,18.42,9.84,6.49,8.7,7.89,177.62,14,82
5060,5080,X,152.04,13.5,114.91,18.52,9.06,7.04,11.78,7.9,90,8,88
5080,5100,X,139.17,174.17,101.31,19.12,9.1,6.96,8.41,8.03,254.46,12,87
5100,5120,X,134.8,114.27,98.11,18.91,11.25,5.71,10.41,7.63,191.59,11,87
5120,5140,X,135.13,20.44,97.98,18.78,9.13,6.72,11.8,7.65,95.39,9,94
5140,5160,X,135.53,83.91,94.47,19.15,7.24,8.16,10.08,7.96,160.4,11,95
5160,5180,X,139.91,64,98.19,19.31,8.85,7.39,7.95,8.22,142.26,16,89
5180,5200,X,159.09,23.79,120.34,19.15,11.3,5.6,10.45,7.38,101.85,19,76
5200,5220,X,171.99,58,131.08,19.39,10.44,5.96,12.07,6.85,134.11,10,71
5220,5240,X,208.11,18.69,164.34,19.82,10.71,6.14,11.16,6.09,95.22,13,59
5240,5260,X,267.62,22.6,224.32,20,11.66,4.94,10.16,4.78,101.67,15,44
5260,5280,X,314.9,76.63,265.53,20,8.39,6.31,11.46,3.45,153.53,8,36
5280,5300,X,353.1,202.64,296.52,20,3.32,7.99,6.71,2.39,281.89,11,25
5300,5320,X,319.11,375.22,252.44,20,0.19,10.37,3.6,2.35,457.84,9,16
5320,5340,X,242.29,366.86,163.44,20,0,13.3,2.22,3.54,453.36,7,9
5340,5360,X,194.99,179.86,106,20,0,13.33,3.7,5.1,270.21,7,2
5360,5380,X,0,106,0,0,0,0,5.12,0,195.52,2,0
5380,5400,X,0,0,0,0,0,0,0,0,0,0,0
5400,5420,X,0,0,0,0,0,0,0,0,0,0,0
5420,5440,X,0,0,0,0,0,0,0,0,0,0,0
5440,5460,X,0,0,0,0,0,0,0,0,0,0,0
5460,5480,X,0,0,0,0,0,0,0,0,0,0,0
5480,5500,X,0,0,0,0,0,0,0,0,0,0,0
5500,5520,X,0,0,0,0,0,0,0,0,0,0,0
5520,5540,X,0,0,0,0,0,0,0,0,0,0,0
5540,5549,X,0,0,0,0,0,0,0,0,0,0,0
2770,2789.9604316547,#DIV/0!,122.3409352518,48.9908273381,86.0550719424,17.5244244604,7.3910431655,7.4189928058,10.075971223,8.1005035971,121.2164028777,10.6366906475,70.8381294964
