interval_begin,interval_end,interval_id,interval_meanDurationWithin,interval_meanHaltsPerVehicle,interval_meanHaltsPerVehicleWithin,interval_meanIntervalDurationWithin,interval_meanIntervalHaltsPerVehicleWithin,interval_meanIntervalSpeedWithin,interval_meanSpeed,interval_meanSpeedWithin,interval_meanTravelTime,interval_vehicleSum,interval_vehicleSumWithin
0,20,smallround,0,0,0,0,0,0,0,0,0,0,0
20,40,smallround,0,0,0,0,0,0,0,0,0,0,0
40,60,smallround,0,0,0,0,0,0,0,0,0,0,0
60,80,smallround,0,0,0,0,0,0,0,0,0,0,0
80,100,smallround,0,0,0,0,0,0,0,0,0,0,0
100,120,smallround,0,0,0,0,0,0,0,0,0,0,0
120,140,smallround,16.15,0,0,16.15,0,13.74,0,13.74,0,0,1
140,160,smallround,20.47,0,0,15.09,0,12.9,0,13.1,0,0,3
160,180,smallround,34.32,0,0,18.97,0,13.24,0,13.24,0,0,4
180,200,smallround,39.99,0,0,17.11,0,13.35,0,13.37,0,0,6
200,220,smallround,35.09,0,0,16.89,0,13.4,13.25,13.37,79.75,1,9
220,240,smallround,30.71,0,0,15.21,0,13.02,13.17,13.18,80.18,2,11
240,260,smallround,30.94,0,0.29,15.51,0.29,13.03,13.41,13.18,86.9,1,17
260,280,smallround,41.81,0,0.29,19.26,0,13.26,13.16,13.22,76.2,2,17
280,300,smallround,39.97,1.25,0,16.7,0,13.25,12.92,13.32,84.02,4,18
300,320,smallround,41.77,0,0,18.73,0,13.17,13.25,13.24,76.43,5,17
320,340,smallround,38.15,0,0,18.89,0,12.82,13.27,13.08,77.42,7,13
340,360,smallround,40.88,0,0,17.25,0,13.03,13.1,13.09,88.93,1,18
360,380,smallround,35.68,0,0,16.89,0,13.18,13.05,13.2,79.73,6,18
380,400,smallround,40.69,0,0,18.54,0,13.31,13.06,13.25,80.77,3,19
400,420,smallround,39.85,0,0.29,16.38,0.29,12.84,13.03,13.09,81.37,4,21
420,440,smallround,46.16,0,0.44,19.85,0.06,13.25,13.25,13.1,78.57,6,16
440,460,smallround,40.33,0,0.53,17.59,0.07,12.83,13.15,13.02,81.77,6,15
460,480,smallround,39.36,2.33,0.06,16.66,0,13.42,12.73,13.24,77.83,3,17
480,500,smallround,34.08,0,0.19,17.3,0.13,13.15,13.22,13.24,77.12,6,16
500,520,smallround,38.51,0.5,0.11,17.27,0,12.97,12.99,13.13,81.54,2,19
520,540,smallround,40.12,0.5,0,17.72,0,13.26,13.03,13.26,81.26,4,20
540,560,smallround,46.74,0,0,19.19,0,13.36,13.12,13.3,78.56,4,19
560,580,smallround,45.91,0,1.13,19.63,1.13,12.22,13.12,12.91,82,7,15
580,600,smallround,43.16,0,1.06,17.27,0,13.2,13.38,13.05,77,4,16
600,620,smallround,42.65,0,1,17.88,0,13.37,13.35,13.14,79.21,4,17
620,640,smallround,35.14,2.83,0.38,17.81,0.38,12.73,12.7,13.05,81.09,6,16
640,660,smallround,42.73,0,0.44,18.86,0.11,12.78,13.05,12.94,76.82,2,18
660,680,smallround,46.25,0,0.4,18.46,0,13.17,13.25,13.05,77.19,3,20
680,700,smallround,43.36,1,0.11,18.39,0,13.2,12.92,13.15,83.54,6,19
700,720,smallround,47.46,0.33,0.43,19.01,0.43,12.73,13.01,12.99,81.49,6,14
720,740,smallround,37.03,0,0.78,15.42,0.44,12.93,13.14,13.16,78.37,4,18
740,760,smallround,42.64,0,0.74,19.28,0,13.35,13.33,13.15,76.65,3,19
760,780,smallround,39.3,2,0.21,17,0,12.95,12.78,13.1,84.71,5,19
780,800,smallround,47.47,2,0.19,19.07,0.19,13.22,12.55,13.19,84.5,2,21
800,820,smallround,38.07,0,0.27,17.16,0,12.94,13.3,13.05,77.17,10,15
820,840,smallround,43.59,0,0.21,17.64,0,13.37,13.26,13.16,79.78,1,19
840,860,smallround,35.63,0.57,0.28,16.71,0.28,13,13.12,13.15,79.53,7,18
860,880,smallround,40.47,0,0.26,18.67,0,13.23,13.18,13.18,82.9,3,19
880,900,smallround,44.08,0,0.24,17.69,0,12.96,13.29,13.08,79.65,3,21
900,920,smallround,46.11,0.71,0,19.3,0,13.18,12.95,13.15,80.47,7,16
920,940,smallround,40.62,0,0,17.37,0,13.22,13.14,13.28,79.17,6,15
940,960,smallround,36.97,0,0,15.75,0,13.29,13.05,13.27,81.09,3,18
960,980,smallround,35.25,0,0.13,18.24,0.13,12.94,13.28,13.11,78.22,6,15
980,1000,smallround,38.53,0,0.11,17.56,0,13.1,13.33,13.1,75.11,2,19
1000,1020,smallround,42.36,0.67,0.52,17.65,0.52,12.74,12.82,13.03,79.72,3,21
1020,1040,smallround,46.73,0,0.58,19,0,13.15,13.33,13.04,79.32,5,19
1040,1060,smallround,47.68,1.33,0.19,19.14,0,13.04,12.98,13.05,83.36,6,16
1060,1080,smallround,44.47,0.6,0,17.89,0,13.06,12.92,13.13,80.12,5,15
1080,1100,smallround,39.96,0,0,16.96,0,13.43,13.19,13.3,80.21,4,17
1100,1120,smallround,33.57,0,0,16.69,0,13.11,13.09,13.23,79.23,5,18
1120,1140,smallround,39.6,0,0,18.46,0,13.17,13.19,13.23,74.56,3,19
1140,1160,smallround,40.87,0,0,16.73,0,13.13,13.19,13.21,80.29,4,20
1160,1180,smallround,47.37,0,0,18.89,0,13.31,13.18,13.28,80.62,3,21
1180,1200,smallround,47.92,0,0.71,19.19,0.71,12.7,13.19,12.98,80.24,8,14
1200,1220,smallround,37.19,0,0.61,16.08,0.06,13.13,13.19,13.12,80.27,4,18
1220,1240,smallround,40.98,0,0.61,18.7,0,13.26,13.33,13.15,75.21,4,18
1240,1260,smallround,36.94,2.2,0.22,17.23,0.22,12.65,12.81,13.05,86.05,5,18
1260,1280,smallround,47.59,0,0.29,18.62,0.1,13.18,13.15,13.1,71.98,1,21
1280,1300,smallround,44.65,0,0.38,18.02,0,13.18,13.1,13.14,78.74,8,16
1300,1320,smallround,42.45,1.33,0.32,17.12,0.21,12.76,13.02,13,78.55,3,19
1320,1340,smallround,33.68,0.33,0.2,15.45,0,13.17,13.03,13.1,82.66,6,20
1340,1360,smallround,40.65,1,0.33,19.39,0.33,12.86,12.74,13.09,80.8,4,18
1360,1380,smallround,44.1,0,0.95,17.93,0.65,12.36,13.17,12.77,83,3,20
1380,1400,smallround,47.89,0,1.06,18.95,0,13.23,13.04,12.89,79.52,5,18
1400,1420,smallround,45.67,1.6,0.61,17.69,0,13.22,12.93,13.07,80.69,5,18
1420,1440,smallround,37.9,1.83,0,16.69,0,12.96,12.7,13.15,82.05,6,17
1440,1460,smallround,37.99,0,0,17.82,0,13.34,13.09,13.25,80.72,4,18
1460,1480,smallround,42.57,0,0.26,18.21,0.26,12.76,12.94,13.11,75.99,3,19
1480,1500,smallround,43,0,0.67,18,0.43,12.78,13.01,13,79.25,4,21
1500,1520,smallround,44.73,0.83,0.56,18.9,0.06,12.95,12.94,12.96,83.13,6,18
1520,1540,smallround,45.04,0,0.59,18.16,0,13.3,13.06,13.12,81.29,5,17
1540,1560,smallround,47.7,2.5,0,18.51,0,13.4,12.68,13.37,81.48,4,16
1560,1580,smallround,37.95,0,0,16.72,0,13.36,13.3,13.43,79.53,6,16
1580,1600,smallround,35.31,0,0,17.74,0,13.28,13.25,13.34,77.93,4,18
1600,1620,smallround,40.43,0,0.29,19,0.29,12.6,13.26,13,75.66,4,17
1620,1640,smallround,47.84,0,0.26,18.45,0,13.04,13.17,13.01,76.41,2,19
1640,1660,smallround,43.15,0,0.26,18.24,0,13.28,13.19,13.15,81.75,6,19
1660,1680,smallround,46.26,0.83,0.36,19.12,0.36,12.79,12.92,13.03,82.12,6,14
1680,1700,smallround,35.53,0,0.67,15.31,0.43,12.96,13,13.15,81.54,3,21
1700,1720,smallround,42.43,0,0.78,19.72,0,13.14,13.33,13,76.03,5,18
1720,1740,smallround,45.12,1.67,0.95,17.53,0.47,12.51,12.8,12.82,85.76,3,19
1740,1760,smallround,46.84,2.25,0.45,18.53,0,13.28,12.6,13.09,82.14,4,20
1760,1780,smallround,45.5,0.13,0.57,19.15,0,13.12,13.18,13.04,78.25,8,14
1780,1800,smallround,39.05,2.67,0.06,17.29,0.06,13.12,12.39,13.21,88.39,3,18
1800,1820,smallround,37.52,0,0.28,16.72,0.22,12.92,13.25,13.07,78.17,5,18
1820,1840,smallround,38.23,0.25,0.21,18.21,0,13.22,13.16,13.15,80.25,4,19
1840,1860,smallround,44.21,1.33,0.2,18.16,0.2,12.72,12.83,13,82.49,3,20
1860,1880,smallround,43.51,0,0.22,18.46,0,13.28,13.12,13.15,80.64,6,18
1880,1900,smallround,46.79,0,0.22,18.44,0,13.17,13.27,13.15,77.79,4,18
1900,1920,smallround,37.82,0.67,0,16.19,0,13.14,12.96,13.19,80.35,6,18
1920,1940,smallround,37.48,0,0,17.49,0,13.31,13.15,13.25,78.61,5,17
1940,1960,smallround,41.68,0,0,17.34,0,13.14,13.15,13.21,76.21,2,20
1960,1980,smallround,40.54,0,0.1,17.76,0.1,12.98,13,13.07,81.52,5,20
1980,2000,smallround,44.75,0,0.39,18.87,0.28,12.89,13.25,12.99,78.18,5,18
2000,2020,smallround,47.72,0,0.63,19.7,0.19,12.46,13.07,12.78,82.92,5,16
2020,2040,smallround,46.85,0.5,0.5,17.37,0,13,13.04,12.78,79.02,4,16
2040,2060,smallround,40.36,1,0.18,16.87,0,13.44,12.8,13.18,81.07,5,17
2060,2080,smallround,31.09,0.5,0,16.73,0,13.07,12.94,13.21,80.72,6,17
2080,2100,smallround,39.06,0,0.42,18.16,0.42,13.03,13.12,13.11,76.56,2,19
2100,2120,smallround,45.28,0,0.4,17.75,0,13.03,13.24,13.08,77.14,3,20
2120,2140,smallround,44.9,0,0.75,18.14,0.35,13.04,13.24,13.06,80.02,5,20
2140,2160,smallround,43.66,1.14,0.47,18.14,0,13,13.08,13,82.34,7,15
2160,2180,smallround,35.53,0,0.86,14.77,0.52,12.86,13.15,13.08,80.47,3,21
2180,2200,smallround,40.91,1.4,0.61,19.05,0,13.29,12.86,13.11,78.96,5,18
2200,2220,smallround,38.12,0.75,0.4,16.54,0,13.07,12.96,13.14,85.82,4,20
2220,2240,smallround,44.78,2,0,18.96,0,13.28,12.87,13.25,80.29,4,19
2240,2260,smallround,40.86,0,0,16.65,0,12.85,13.15,13.06,75.66,7,16
2260,2280,smallround,42.89,0,0,17.32,0,13.36,13.27,13.25,83.79,2,19
2280,2300,smallround,32.62,0,0,15.96,0,13.23,13.15,13.29,80.45,7,19
2300,2320,smallround,39.28,0,0.05,18.29,0.05,13.15,13.2,13.28,80,3,19
2320,2340,smallround,41.27,0,0.05,16.68,0,13.14,13.1,13.21,83.46,3,22
2340,2360,smallround,43.26,0.14,0,18.37,0,13.22,13.09,13.27,78.64,7,17
2360,2380,smallround,42.44,0,0,19.09,0,12.82,13.22,13.09,81.46,6,14
2380,2400,smallround,35.87,0,0,16.3,0,13.44,13.08,13.36,74.68,4,17
2400,2420,smallround,34.76,0,0,17.47,0,13.29,13.12,13.34,80.53,5,16
2420,2440,smallround,41.69,0,0.1,17.33,0.1,13.04,13.38,13.21,70.74,1,20
2440,2460,smallround,38.81,0,0.1,16.75,0,13.22,13.23,13.22,80.02,5,21
2460,2480,smallround,42.37,0.33,0,18.96,0,13.28,13.02,13.3,81.29,6,17
2480,2500,smallround,42.14,0,0.19,18.03,0.19,12.9,13.29,13.15,79.79,5,16
2500,2520,smallround,43.26,0,0.19,18.11,0,13.28,13.28,13.16,77.51,4,16
2520,2540,smallround,41.88,0,0.18,17.19,0,13.45,13.15,13.32,78.29,4,17
2540,2560,smallround,33.63,0.5,0,16.98,0,13.18,13.17,13.31,79.17,6,17
2560,2580,smallround,41.15,0,0,18.49,0,12.99,13.35,13.14,79.15,2,19
2580,2600,smallround,45.39,0,0.17,18.04,0.17,13.01,13.2,13.11,78.12,4,18
2600,2620,smallround,45.14,0,0.15,18.49,0,13.26,13.11,13.18,78.75,4,20
2620,2640,smallround,46.78,0.43,0.29,19.2,0.29,12.71,13.02,12.98,82.68,7,14
2640,2660,smallround,34.82,0,0.84,15.69,0.63,12.92,13.19,13.1,80.22,4,19
2660,2680,smallround,43.41,0,0.89,19.18,0.05,13.27,13.06,13.14,75.39,3,19
2680,2700,smallround,38.55,2,0.45,16.34,0.1,12.99,12.98,13.14,83.56,5,20
2700,2720,smallround,45.17,1.5,0.21,19.05,0.05,13.24,13,13.21,81.57,4,19
2720,2740,smallround,40.37,0.13,0.21,17.95,0,13.1,13.15,13.21,78.38,8,14
2740,2760,smallround,45.33,0,0.17,17.8,0,13.27,13.23,13.21,71.8,1,18
2760,2780,smallround,30.84,0.38,0.29,15.53,0.29,13.03,13.13,13.2,79.69,8,17
2780,2800,smallround,38.16,0,0.63,18.37,0.37,12.77,13.2,13.04,84.26,2,19
2800,2820,smallround,43.9,0,0.9,18.22,0.3,12.47,13.2,12.72,82.78,3,20
2820,2840,smallround,47.82,1.75,0.9,18.75,0.35,13.09,12.79,12.93,80.84,4,20
2840,2860,smallround,42.9,1,0.64,19.08,0,12.99,12.84,13.02,80.63,9,14
2860,2880,smallround,42.24,0,0.5,16.53,0,13.28,13.26,13.13,75.91,2,18
2880,2900,smallround,37.2,1.5,0,18.22,0,13.5,12.92,13.37,82.11,6,17
2900,2920,smallround,43.31,0,0,18.06,0,13.12,13.18,13.25,75.86,2,19
2920,2940,smallround,42.21,0,0,17.9,0,13.38,13.31,13.35,81.62,4,21
2940,2960,smallround,48.96,0,0,19.37,0,13.32,13.29,13.32,76.23,5,18
2960,2980,smallround,43.84,0,0,18.96,0,13.31,13.28,13.34,81.1,7,15
2980,3000,smallround,43.29,0,0.13,17.29,0.13,12.99,13.32,13.17,77.19,4,15
3000,3020,smallround,41.46,0,0.11,17.78,0,13.46,13.42,13.29,78.87,3,18
3020,3040,smallround,34.02,0.29,0,18.04,0,13.11,13.15,13.24,78.13,7,16
3040,3060,smallround,39.78,0,0.79,18.18,0.79,12.47,13.38,12.91,74.91,2,19
3060,3080,smallround,47.02,0,1,17.66,0.29,12.65,13.41,12.81,74.93,2,21
3080,3100,smallround,45.49,0.83,0.8,18.72,0,13.32,12.96,13.04,81.67,6,20
3100,3120,smallround,50.58,1.5,0.47,19.1,0,12.97,12.7,13.02,83.68,6,15
3120,3140,smallround,33.65,1.4,0.35,15.06,0.35,13.11,12.98,13.22,83.52,5,20
3140,3160,smallround,44.18,0,0.37,19.71,0,13.14,13.16,13.12,74.83,3,19
3160,3180,smallround,40.45,0,0.58,16.83,0.21,12.81,13.21,12.93,83.59,5,19
3180,3200,smallround,48.27,3.5,0.19,18.59,0,13.46,12.47,13.24,80.83,2,21
3200,3220,smallround,34.57,0,0.29,16.8,0,12.77,13.21,13.08,77.8,11,14
3220,3240,smallround,39.89,4,0.11,17.33,0.11,13.05,12.47,13.11,93.6,1,18
3240,3260,smallround,36.59,0,0.11,16.29,0,13.11,13.07,13.17,79.18,5,19
3260,3280,smallround,41.3,0.5,0.5,19.23,0.5,12.75,12.94,13.07,81.67,4,18
3280,3300,smallround,37.15,0,1,16.72,0.55,12.34,13.15,12.75,80.51,5,20
3300,3320,smallround,49.54,0,1.61,19.71,0.5,12.94,13.05,12.78,81.02,3,18
3320,3340,smallround,48.54,1.5,1.25,18.72,0,13.01,12.89,12.87,79.53,6,16
3340,3360,smallround,42.86,1.5,0.78,16.71,0,13.36,12.63,13.16,81.81,4,18
3360,3380,smallround,30.59,1.75,0.07,17.22,0.07,13.16,13.04,13.21,80.57,8,15
3380,3400,smallround,42.44,0,0.32,18.29,0.26,12.85,0,13.08,0,0,19
3400,3420,smallround,40.05,0.2,0.25,17.72,0,13.3,13.22,13.18,80.15,5,20
3420,3440,smallround,46.42,0,0.26,18.86,0,13.09,13.12,13.13,80.72,4,19
3440,3460,smallround,46.46,0.83,0,18.95,0,13.19,13.05,13.21,82.65,6,16
3460,3480,smallround,42.67,0,0.12,15.85,0.12,13.11,13.26,13.25,75.59,4,17
3480,3500,smallround,41.28,0,0.11,17.79,0,13.45,13.12,13.29,80.59,4,18
3500,3520,smallround,32.32,0.29,0.25,17.42,0.25,12.89,13.11,13.19,78.36,7,16
3520,3540,smallround,38.9,0,1.05,18.11,0.84,12.35,13.41,12.88,74.65,2,19
3540,3560,smallround,44.75,0,1.23,17.15,0.32,12.69,13.16,12.76,76.41,2,22
3560,3580,smallround,44.95,1.67,0.9,18.41,0.05,13.2,12.85,13,82.66,6,20
3580,3600,smallround,52.82,1.2,1.13,19.34,0.38,12.94,12.82,12.93,82.77,5,16
3600,3620,smallround,35.86,2,0.72,15.03,0.39,12.76,12.72,13.04,84.83,6,18
3620,3640,smallround,39.56,0,0.72,18.81,0,13.34,13.34,13.14,75.21,4,18
3640,3660,smallround,37.02,2.25,0.2,16.46,0,12.95,12.82,13.1,84.86,4,20
3660,3680,smallround,46.76,2,0,19.2,0,13.36,12.76,13.23,91.6,2,21
3680,3700,smallround,38.66,0,0.07,17.74,0.07,13.03,13.21,13.18,76.77,10,15
3700,3720,smallround,44.15,0,0.05,17.54,0,13.43,12.91,13.34,73.52,1,19
3720,3740,smallround,30.17,0.13,0.26,14.87,0.26,12.99,13.24,13.25,78.79,8,19
3740,3760,smallround,40.73,0,0.63,18.52,0.37,12.82,13.27,13.05,83.78,2,19
3760,3780,smallround,40.97,0,0.8,16.59,0.2,12.66,13.19,12.78,80.22,4,20
3780,3800,smallround,49.16,0.67,0.7,18.88,0,13.34,12.96,13.01,78.76,3,20
3800,3820,smallround,42.12,1.22,0.5,19.03,0.29,12.76,12.9,12.99,83.33,9,14
3820,3840,smallround,40.24,1,0.25,16.7,0,12.99,12.93,13.03,76.47,3,16
3840,3860,smallround,40.28,0,0.24,17.96,0,13.44,13.22,13.26,75.85,4,17
3860,3880,smallround,41.61,1.33,0,18.07,0,13.19,12.66,13.3,83.56,3,19
3880,3900,smallround,38.83,0,0.14,17.11,0.14,13.25,13.24,13.32,82.02,4,22
3900,3920,smallround,45.71,0,0.21,19.06,0.05,12.9,13.3,13.06,76.19,5,19
3920,3940,smallround,50.17,0,0.47,19.68,0.24,12.92,13.29,12.93,79.9,5,17
3940,3960,smallround,44.6,0.6,0.29,16.72,0,13.09,12.99,13.03,81.4,5,17
3960,3980,smallround,40.88,0.2,0.24,18,0,13.36,13.16,13.14,81.95,5,17
3980,4000,smallround,34.7,0.67,0.94,17.83,0.94,12.4,12.92,12.87,77.9,6,16
4000,4020,smallround,40.01,0,1.53,17.69,0.74,12.51,13.22,12.75,75.75,2,19
4020,4040,smallround,42.25,0,1.45,17.37,0,12.96,13.26,12.81,79.84,4,20
4040,4060,smallround,42.67,5,0.32,17.95,0.11,12.97,12.29,12.99,86.39,5,19
4060,4080,smallround,44.45,0.67,0.6,18.43,0.47,12.56,12.79,12.88,82.93,6,15
4080,4100,smallround,33.87,0.4,1,15.46,0.61,12.73,13,12.96,79.72,5,18
4100,4120,smallround,43.53,0,0.95,18.83,0,13.19,13.26,12.98,75.6,2,19
4120,4140,smallround,40.33,3,0.42,17.09,0.26,12.84,12.52,13.06,86.63,5,19
4140,4160,smallround,46.31,1,0.25,19.28,0,13.21,12.99,13.09,84.36,3,20
4160,4180,smallround,43.46,0.63,0,18.93,0,13.07,13.06,13.13,78.94,8,15
4180,4200,smallround,41.42,0,0.17,17.3,0.17,13.2,13.22,13.21,77.04,3,18
4200,4220,smallround,35.73,0,0.15,15.68,0,13.27,13.21,13.25,78.47,5,20
4220,4240,smallround,42.29,0.75,0,19.57,0,13.23,12.94,13.3,81.62,4,18
4240,4260,smallround,41.47,0,0.1,17.48,0.1,12.74,13.21,13.05,80.03,4,20
4260,4280,smallround,47.13,0,0.12,19.15,0,13.13,13.24,13.07,79.97,5,17
4280,4300,smallround,47.76,0,0.13,18.97,0,13.26,13.21,13.14,78.48,5,16
4300,4320,smallround,38.47,0.4,0,16.12,0,13.37,12.86,13.36,80.59,5,17
4320,4340,smallround,33.54,0,0.13,17.76,0.13,13.25,13.28,13.31,76.86,6,16
4340,4360,smallround,42.74,0,0.21,18.39,0.11,12.89,13.22,13.1,79.89,1,19
4360,4380,smallround,44.1,0,0.18,17.94,0,13.22,13.24,13.16,79.97,3,22
4380,4400,smallround,42.76,0.29,0.11,18.11,0,13.24,13.15,13.24,81.9,7,19
4400,4420,smallround,43.26,0.33,0,18.74,0,13.19,13.05,13.26,79.72,6,16
4420,4440,smallround,48.38,0,0,18.45,0,13.12,13.23,13.17,77.01,3,16
4440,4460,smallround,42.66,0,0,17.99,0,13.17,13.2,13.15,78.37,5,17
4460,4480,smallround,34.02,0,0,17.21,0,13.25,13.15,13.26,79.18,6,17
4480,4500,smallround,39.14,0,0.22,18.06,0.22,12.98,13.2,13.18,77.29,3,18
4500,4520,smallround,48.85,0,0.21,18.95,0,13.13,13.25,13.13,75.83,2,19
4520,4540,smallround,43.67,0.67,0,18.45,0,13.26,12.96,13.28,83.15,6,19
4540,4560,smallround,44.86,0,0.07,18.39,0.07,13.21,13.19,13.23,80.17,6,15
4560,4580,smallround,34.56,0,0.72,16.13,0.67,12.59,13.29,13.08,78.01,5,18
4580,4600,smallround,44.02,0,0.68,18.86,0,13.26,13.26,13.07,75.58,2,19
4600,4620,smallround,45.39,1.5,0.95,17.87,0.58,12.44,12.86,12.82,84.62,4,19
4620,4640,smallround,42.65,1.4,0.55,18.05,0,13.32,12.9,13.12,82.35,5,20
4640,4660,smallround,40.45,0.14,0.69,17.29,0.06,13.06,13.16,13.05,78.09,7,16
4660,4680,smallround,42.34,3.33,0.12,17.8,0.06,13.18,12.42,13.25,85.31,3,17
4680,4700,smallround,33.94,0.17,0.17,15.72,0.11,13.19,13.25,13.27,77.07,6,18
4700,4720,smallround,40.48,0.33,0.11,19.17,0,13.01,13.03,13.14,83.94,3,18
4720,4740,smallround,41.1,0,0.79,17.36,0.68,12.59,13.17,12.88,82.41,4,19
4740,4760,smallround,44.85,0.5,0.79,18.62,0.11,13.03,12.86,13.04,80.38,4,19
4760,4780,smallround,44.4,0.14,0.93,19.31,0,12.96,13.15,12.95,79.18,7,15
4780,4800,smallround,44.17,2,0.53,17.08,0,13.26,12.59,13.15,79.84,2,19
4800,4820,smallround,35.13,1.25,0,17.6,0,13.51,13,13.42,79.64,8,16
4820,4840,smallround,43.67,0,0,18.29,0,12.95,13.09,13.19,80.76,1,19
4840,4860,smallround,42.35,0,0,17.88,0,13.46,13.22,13.33,82.23,4,21
4860,4880,smallround,46.71,0,0.05,18.78,0.05,12.92,13.07,13.16,77.49,5,19
4880,4900,smallround,44.95,0,0.2,19.3,0.13,12.87,13.3,13.01,80.92,7,15
4900,4920,smallround,44.42,0,0.18,17.26,0,12.98,13.21,12.97,77.13,3,17
4920,4940,smallround,42.75,0.25,0.11,17.54,0,13.14,12.99,13.07,81.47,4,18
4940,4960,smallround,35.06,0.33,0.17,17.12,0.17,12.95,12.98,13.1,80.4,6,18
4960,4980,smallround,40.47,0,0.37,18.48,0.21,13.04,12.99,13.11,75.75,3,19
4980,5000,smallround,42.38,0,0.35,17.63,0,13.04,13.09,13.15,80.9,4,20
5000,5020,smallround,46.42,0.75,0.2,18.46,0,13.27,12.95,13.17,79.7,4,20
5020,5040,smallround,41.14,0.5,0.4,17.18,0.4,12.71,13.06,13.05,81.28,8,15
5040,5060,smallround,36.63,0,1.71,16.33,1.35,12.16,13.3,12.71,79.56,4,17
5060,5080,smallround,41.39,0,1.61,18.37,0,13.07,13.16,12.82,77.74,3,18
5080,5100,smallround,44.76,4,0.89,18.02,0,13.11,12.34,13.06,88.76,3,19
5100,5120,smallround,45.38,4.25,0,18.37,0,13.32,12.39,13.26,83.6,4,20
5120,5140,smallround,43.79,0,0,18.72,0,12.99,13.18,13.12,80.35,7,16
5140,5160,smallround,43.11,0,0.25,17.49,0.25,12.87,13.18,13.04,78.01,4,16
5160,5180,smallround,40.56,0,0.24,16.59,0,13.38,13.22,13.23,80.05,4,17
5180,5200,smallround,47.55,0,0.5,20,0.21,12.98,12.99,13.08,79.12,4,14
5200,5220,smallround,52.08,1,0.27,19.17,0,12.83,12.99,12.95,83.53,4,11
5220,5240,smallround,59.55,0.6,0,20,0,13.6,13.05,13.19,79.7,5,6
5240,5260,smallround,65.52,0,0,20,0,12.77,13.3,12.85,79.65,4,2
5260,5280,smallround,70.84,0,0,20,0,13.74,12.8,13.14,82.74,1,1
5280,5300,smallround,0,0,0,0,0,0,13.16,0,72.47,1,0
5300,5320,smallround,0,0,0,0,0,0,0,0,0,0,0
5320,5340,smallround,0,0,0,0,0,0,0,0,0,0,0
5340,5360,smallround,0,0,0,0,0,0,0,0,0,0,0
5360,5380,smallround,0,0,0,0,0,0,0,0,0,0,0
5380,5400,smallround,0,0,0,0,0,0,0,0,0,0,0
5400,5420,smallround,0,0,0,0,0,0,0,0,0,0,0
5420,5438,smallround,0,0,0,0,0,0,0,0,0,0,0
2710,2729.9926470588,#DIV/0!,39.539375,0.4544117647,0.3170220588,16.9399632353,0.1140073529,12.3955882353,12.2104779412,12.4452941176,74.7020955882,4.1397058824,16.5698529412
