interval_begin,interval_end,interval_id,interval_meanDurationWithin,interval_meanHaltsPerVehicle,interval_meanHaltsPerVehicleWithin,interval_meanIntervalDurationWithin,interval_meanIntervalHaltsPerVehicleWithin,interval_meanIntervalSpeedWithin,interval_meanSpeed,interval_meanSpeedWithin,interval_meanTravelTime,interval_vehicleSum,interval_vehicleSumWithin
0,20,smallround,0,0,0,0,0,0,0,0,0,0,0
20,40,smallround,0,0,0,0,0,0,0,0,0,0,0
40,60,smallround,0,0,0,0,0,0,0,0,0,0,0
60,80,smallround,0,0,0,0,0,0,0,0,0,0,0
80,100,smallround,0,0,0,0,0,0,0,0,0,0,0
100,120,smallround,0,0,0,0,0,0,0,0,0,0,0
120,140,smallround,8.85,0,0,8.85,0,13.59,0,13.59,0,0,5
140,160,smallround,19.24,0,0,14.81,0,13.07,0,13.22,0,0,10
160,180,smallround,30.43,0,0,17.61,0,13.11,0,13.25,0,0,15
180,200,smallround,37.3,0,0,16.52,0,13,0,13.14,0,0,22
200,220,smallround,35.42,0,0.15,16.89,0.15,13.26,13.12,13.28,78.91,5,26
220,240,smallround,32.29,0,0.39,16.23,0.28,13.04,13.12,13.2,79.02,5,36
240,260,smallround,33.41,0.6,0.74,16.62,0.51,12.61,13.04,12.96,84.57,5,47
260,280,smallround,36.89,0.71,1.28,17.6,0.75,12.22,13.14,12.7,78.11,7,57
280,300,smallround,41.35,1.63,2.2,17.54,1.27,11.9,12.9,12.36,83.43,8,64
300,320,smallround,44.39,1.31,3.82,18.01,1.91,11.62,12.82,12.09,80.21,13,65
320,340,smallround,46.78,2.83,3.72,18.06,0.62,12.29,12.34,12.19,83.42,12,69
340,360,smallround,44.28,4.94,3.07,17.27,0.6,12.6,12.16,12.45,88.76,17,70
360,380,smallround,42.43,6.5,1.83,17.99,0.48,12.52,11.89,12.65,88.16,20,63
380,400,smallround,44.97,3.14,2.35,18,1.21,11.83,12.72,12.31,81.66,14,62
400,420,smallround,46.65,4,2.11,18,0.58,12.6,12.2,12.48,88.13,12,64
420,440,smallround,42.09,2.78,1.85,17.17,0.54,12.61,12.45,12.61,84.3,18,65
440,460,smallround,42.01,3.25,2.21,17.91,1.11,12.02,12.42,12.44,85.31,16,62
460,480,smallround,42.27,2.57,2.66,17.79,1.08,11.92,12.63,12.31,82.34,14,64
480,500,smallround,43.43,2.46,2.87,17.34,0.84,12.04,12.56,12.19,83.8,13,68
500,520,smallround,43.73,3.81,2.91,17.89,0.94,12.04,12.22,12.2,86.05,16,68
520,540,smallround,47.21,4.08,3.41,18.36,1.31,11.53,12.08,11.96,87.06,12,71
540,560,smallround,47.69,7.57,2.92,18.05,1.03,12.02,11.63,12.11,93.57,14,72
560,580,smallround,47.03,3.47,2.9,17.56,0.77,12.4,12.15,12.29,87.14,17,71
580,600,smallround,45.57,5.15,2.97,18.64,1.38,11.84,11.86,12.26,87.47,20,65
600,620,smallround,43.29,4.06,2.83,17.24,0.86,12.24,12.22,12.32,87.73,16,65
620,640,smallround,47.66,1.08,3.13,18.62,0.58,12.56,12.62,12.43,82.33,12,67
640,660,smallround,42.41,6.85,1.7,17.52,0.56,12.48,11.95,12.58,88.22,20,64
660,680,smallround,41.91,3.6,2.35,17.95,1.52,11.97,12.28,12.51,85.18,15,66
680,700,smallround,44.52,1.82,2.65,17.58,0.78,12.23,12.77,12.39,80.95,11,72
700,720,smallround,44.8,2.94,3,18.17,1.01,12.16,12.43,12.34,85.94,17,71
720,740,smallround,45.75,4.56,3.16,17.89,1.16,12.05,12.22,12.25,84.29,16,70
740,760,smallround,45.86,4.12,3.16,17.88,0.91,12.16,12.39,12.26,84.67,17,67
760,780,smallround,46.27,4.79,2.94,17.92,0.9,12.45,12.25,12.4,86.52,14,71
780,800,smallround,45.47,4.67,2.62,17.81,0.73,12.43,12.07,12.45,88.2,18,66
800,820,smallround,46.21,3.87,2.53,18.65,0.79,12.09,12.44,12.36,84.85,15,66
820,840,smallround,44.74,4.31,2.26,17.66,0.77,12.2,12.32,12.34,86.97,16,66
840,860,smallround,46.04,2.21,2.62,18.14,0.88,12.32,12.62,12.39,83.04,14,68
860,880,smallround,43.88,3.29,3.43,17.74,1.67,11.59,12.32,12.07,85.34,17,69
880,900,smallround,46.73,4,3.7,18.02,1.01,11.66,12.3,11.93,86.17,13,69
900,920,smallround,46.82,5.23,3.22,17.83,0.69,12.26,11.89,12.14,91.48,13,74
920,940,smallround,46.57,6.6,2.62,18.16,1.02,12.1,11.72,12.21,88.09,20,66
940,960,smallround,42.92,3.61,2.9,17.91,1.28,11.84,12.08,12.23,86.77,18,67
960,980,smallround,44.74,4.15,2.68,17.72,0.65,12.4,12.13,12.33,87.93,13,69
980,1000,smallround,43.63,2.06,3.25,17.3,1.07,12,12.44,12.26,84.55,17,69
1000,1020,smallround,44.78,6.4,2.45,18.14,0.59,12.54,12.04,12.44,86.7,15,69
1020,1040,smallround,44.48,4.06,2.33,17.99,0.83,12.39,12.27,12.49,87.41,16,69
1040,1060,smallround,45.27,4.19,2,18.51,0.62,12.38,12.22,12.52,87.81,16,68
1060,1080,smallround,43.9,2.56,2.35,17.65,0.98,12.11,12.57,12.35,82.28,18,66
1080,1100,smallround,42.97,2.78,2.23,17.96,0.59,12.47,12.53,12.49,82.96,18,64
1100,1120,smallround,46.67,3.31,2.33,18.41,0.75,12.42,12.33,12.45,85.5,13,63
1120,1140,smallround,40.94,3.44,2.14,17.13,0.85,12.33,12.34,12.56,84.81,18,66
1140,1160,smallround,43.94,2.67,2.51,18.33,0.9,12.33,12.66,12.46,83.01,15,63
1160,1180,smallround,43.83,3,2.82,17.46,1.03,11.83,12.48,12.27,85.86,14,65
1180,1200,smallround,45.07,4.85,2.38,18.12,0.62,12.36,12.13,12.38,87.33,13,68
1200,1220,smallround,44.32,3.06,2.44,17.58,0.83,12.41,12.42,12.4,82.53,16,70
1220,1240,smallround,43.3,4.67,2.29,18.28,0.97,11.99,12,12.38,89.54,18,66
1240,1260,smallround,44.2,2,2.52,17.66,0.74,12.38,12.64,12.38,84.51,14,69
1260,1280,smallround,43.32,4.76,2.03,18.13,0.7,12.49,12.08,12.58,85.75,17,70
1280,1300,smallround,45.41,2.63,2.59,18.4,1.12,11.85,12.42,12.29,83.43,16,68
1300,1320,smallround,46.4,3.93,3.17,17.83,1.42,11.72,12.37,12.12,86.38,14,69
1320,1340,smallround,44.99,3.06,3.41,17.61,1.03,11.94,12.45,12.09,84.14,17,70
1340,1360,smallround,43.8,4.38,3.23,17.48,0.85,12.04,11.94,12.18,88.93,16,71
1360,1380,smallround,46.32,6.94,2.7,18.59,0.91,12.06,11.72,12.22,90.56,16,66
1380,1400,smallround,46.74,3.54,3.03,17.7,1.17,12.12,12.14,12.24,86.49,13,71
1400,1420,smallround,43.32,5.41,2.25,18.57,0.75,12.22,11.96,12.4,87.52,22,64
1420,1440,smallround,45.74,2.46,2.48,18.34,0.79,12.35,12.51,12.39,84.81,13,66
1440,1460,smallround,43.87,3.38,2.07,17.21,0.46,12.59,12.29,12.55,85.44,16,68
1460,1480,smallround,42.7,4.06,1.4,17.89,0.35,12.65,12.33,12.71,84.74,18,65
1480,1500,smallround,42.57,2.25,1.77,18.01,0.92,12.09,12.59,12.5,83.36,16,65
1500,1520,smallround,44.42,3.07,2.22,18.02,1.09,12.01,12.41,12.37,85.6,14,64
1520,1540,smallround,42.38,1.33,2.58,16.8,0.81,12.39,12.68,12.45,82.56,15,69
1540,1560,smallround,45.34,3.6,3.04,18.29,1.19,12.12,12.26,12.35,83.41,15,67
1560,1580,smallround,44.69,3.94,3.32,18.13,1.18,11.74,12.28,12.12,88.55,16,66
1580,1600,smallround,45.07,5,2.87,17.98,0.7,12.31,12.14,12.29,87.51,13,71
1600,1620,smallround,46.14,4.68,2.61,18.53,0.81,12.11,12.17,12.24,86.08,19,64
1620,1640,smallround,43.88,3.5,2.78,17.48,1.12,11.93,12.17,12.25,84.79,16,67
1640,1660,smallround,43.11,5.07,2.2,17.81,0.61,12.59,12.11,12.5,88.4,15,69
1660,1680,smallround,43.59,1.67,2.82,17.54,1.06,12.14,12.61,12.36,81.79,15,72
1680,1700,smallround,47.04,6.46,2.76,18.42,1.11,12.1,11.89,12.29,90.87,13,72
1700,1720,smallround,46.25,3.1,3.06,18.07,0.98,11.93,12.44,12.2,84.23,20,66
1720,1740,smallround,48.13,4.71,2.98,18.74,0.92,12.18,12.21,12.23,87.82,14,66
1740,1760,smallround,43.63,4.5,3.1,17.18,1.37,11.81,11.99,12.22,86.09,18,67
1760,1780,smallround,45.29,3.13,3.32,18.03,0.85,12.15,12.44,12.2,85.43,15,65
1780,1800,smallround,44.8,6.54,2.8,17.7,0.93,12.28,11.79,12.37,89.91,13,70
1800,1820,smallround,43.54,4.65,2.75,17.62,1.06,12.05,12.02,12.33,87.53,17,69
1820,1840,smallround,45.33,3,3.37,17.9,1.24,12.03,12.46,12.22,84.31,15,68
1840,1860,smallround,43.73,4.75,2.64,17.56,0.46,12.18,12.18,12.34,87.62,16,70
1860,1880,smallround,46.31,4.08,2.31,18.15,0.49,12.8,12.23,12.55,85.65,12,75
1880,1900,smallround,45.27,5.77,2.11,18.44,1.39,11.77,11.9,12.38,88.04,22,64
1900,1920,smallround,45.33,1.33,2.82,17.89,1.05,11.83,12.75,12.17,83.26,15,65
1920,1940,smallround,46.23,2.87,2.62,18.22,0.46,12.68,12.38,12.41,85.16,15,65
1940,1960,smallround,40.9,4.17,2.17,17.01,0.8,12.46,12.18,12.55,84.33,18,69
1960,1980,smallround,41.01,4.12,1.94,18.09,0.73,12.27,12.3,12.56,87,17,66
1980,2000,smallround,44.59,2.5,2.6,17.6,1.19,11.95,12.57,12.33,81.88,10,73
2000,2020,smallround,46.79,3.29,3.51,18.24,1.57,11.79,12.44,12.14,84.42,17,69
2020,2040,smallround,45.99,2.65,4.06,17.84,1.16,11.95,12.26,12.11,85.72,17,68
2040,2060,smallround,45.57,5.53,4.19,17.71,1.43,11.89,12.16,12.11,87.3,15,70
2060,2080,smallround,47.45,8.31,3.2,18.67,0.74,12.15,11.67,12.19,91.98,16,65
2080,2100,smallround,44.27,4.88,3.09,17.76,1.2,12.19,12.15,12.34,86.89,16,69
2100,2120,smallround,45.79,4.39,3.32,18.74,1.19,11.96,12.34,12.2,84.2,18,63
2120,2140,smallround,45.79,3.17,3.59,17.8,1.14,12.06,12.37,12.22,84.78,12,70
2140,2160,smallround,43.77,4,3.42,17.93,0.83,12.22,12.32,12.28,86.8,20,66
2160,2180,smallround,45,7,3.1,17.65,1.12,11.78,11.87,12.2,89.07,13,68
2180,2200,smallround,45.1,4.6,2.97,17.77,0.94,12.3,12.31,12.29,84.45,15,70
2200,2220,smallround,46.52,4.4,2.83,18.01,0.77,12.3,12.02,12.33,87.45,15,69
2220,2240,smallround,43.15,4.35,2.5,17.46,0.82,12.34,12.2,12.44,87.96,17,72
2240,2260,smallround,44.39,4.24,2.4,18.1,0.81,12.09,12.26,12.33,85.09,17,68
2260,2280,smallround,45.21,3.43,2.87,17.63,1.23,11.96,12.46,12.22,86,14,70
2280,2300,smallround,45.15,3.83,3.06,17.9,1.06,12.1,12.06,12.27,85.84,18,66
2300,2320,smallround,44.66,3.5,2.94,17.71,0.76,12.29,12.4,12.34,86.53,14,70
2320,2340,smallround,44.82,4.88,2.33,18.3,0.49,12.51,12.09,12.5,87.58,17,67
2340,2360,smallround,43.18,4.71,2.27,17.58,1.13,12.14,12.26,12.45,85.21,17,67
2360,2380,smallround,43.76,2.88,2.94,18.13,1.33,11.67,12.45,12.17,83.42,17,64
2380,2400,smallround,45.38,1.93,4.02,17.79,1.5,11.77,12.7,11.97,83.17,14,64
2400,2420,smallround,43.3,6.69,3.08,17.15,0.72,12.44,11.87,12.3,89.85,13,72
2420,2440,smallround,45.32,5.28,2.44,18.62,0.45,12.62,11.95,12.48,89.08,18,64
2440,2460,smallround,43.1,5.07,2.16,17.58,0.99,12.04,12.18,12.41,86.27,15,68
2460,2480,smallround,42.96,2.25,2.52,17.51,0.91,12.13,12.49,12.37,82.91,16,69
2480,2500,smallround,46.82,3.29,3.28,18.42,1.37,11.84,12.52,12.14,83.81,14,67
2500,2520,smallround,44.72,3.19,4.07,17.62,1.66,11.58,12.24,12.02,87.04,16,70
2520,2540,smallround,45.17,6.47,3.48,18.08,0.83,12.21,11.92,12.18,89.16,15,71
2540,2560,smallround,46.19,4,3.88,17.72,1.32,11.92,12.15,12.09,84.42,15,73
2560,2580,smallround,46.63,7.82,3.58,18.22,1.41,11.72,11.71,12.05,91.26,17,69
2580,2600,smallround,48.77,4.13,3.63,18.26,0.87,12.21,12.34,12.09,85.78,15,67
2600,2620,smallround,45.78,5.65,2.8,17.97,0.67,12.5,11.94,12.42,88.55,17,69
2620,2640,smallround,44.53,3.71,2.69,17.64,0.78,12.43,12.29,12.43,86.2,17,68
2640,2660,smallround,43.89,5.13,2.81,17.79,1.3,11.95,12.12,12.33,86.87,16,67
2660,2680,smallround,46.65,4,2.61,18.5,0.61,12.55,12.36,12.47,86.68,14,66
2680,2700,smallround,43.65,3.16,2.57,18.18,0.85,12.15,12.39,12.37,84.82,19,65
2700,2720,smallround,43.84,5.15,2.5,17.72,1.07,12.17,12.14,12.41,84.96,13,70
2720,2740,smallround,45.54,3,2.8,18,0.91,12.23,12.5,12.34,84.58,15,69
2740,2760,smallround,45.75,3.94,2.58,18.08,0.7,12.44,12.31,12.44,85.84,17,67
2760,2780,smallround,44.05,4.73,1.8,17.41,0.34,12.92,12.06,12.76,88.36,15,70
2780,2800,smallround,42.24,3.25,1.58,17.96,0.65,12.38,12.43,12.68,83.3,20,65
2800,2820,smallround,44.1,2.53,1.71,17.9,0.66,12.24,12.64,12.48,82.89,15,62
2820,2840,smallround,41.53,1.53,2.24,17.17,1,12.19,12.73,12.44,83.87,15,67
2840,2860,smallround,44.62,2.93,2.26,18.14,0.61,12.51,12.49,12.47,82.12,14,66
2860,2880,smallround,45.05,3.47,2.58,18.32,1.13,11.91,12.4,12.28,86.03,15,67
2880,2900,smallround,44.2,4.69,2.61,18.02,1.15,12.03,12.14,12.26,87.87,16,67
2900,2920,smallround,44.73,2.38,2.8,17.5,0.73,12.16,12.41,12.27,82.13,16,66
2920,2940,smallround,45.33,3.36,3.12,18.01,1.12,12.19,12.39,12.31,84.22,14,69
2940,2960,smallround,42.7,5.82,2.17,17.83,0.51,12.47,11.95,12.51,89.47,17,70
2960,2980,smallround,46.61,1.54,2.79,18.25,0.93,12.08,12.59,12.29,86.14,13,71
2980,3000,smallround,42.35,5.45,2.39,17.35,1.11,11.84,12.08,12.24,85.51,20,70
3000,3020,smallround,47.43,2.07,3.37,18.67,1.31,11.92,12.44,12.12,84.69,14,67
3020,3040,smallround,47,4.06,3.1,18.17,0.7,12.4,12.06,12.29,87.19,16,67
3040,3060,smallround,44.47,5.06,2.55,18.05,0.77,12.32,12.15,12.42,87.65,18,66
3060,3080,smallround,41.3,3.16,3.02,17.56,1.35,11.86,12.5,12.27,83.36,19,65
3080,3100,smallround,46.43,6.67,2.9,18.12,0.93,11.97,11.88,12.2,89.99,9,69
3100,3120,smallround,47.77,2.33,3.06,18.08,0.67,12.38,12.49,12.29,86.15,15,69
3120,3140,smallround,46.16,5.17,2.35,17.93,0.56,12.56,11.97,12.49,86.93,18,66
3140,3160,smallround,43.47,4.44,1.77,17.88,0.59,12.46,12.24,12.61,86.33,18,64
3160,3180,smallround,42.94,3.71,1.24,17.71,0.33,12.67,12.29,12.71,86.53,14,67
3180,3200,smallround,43.22,2,1.51,17.83,0.74,12.62,12.62,12.76,82.45,15,69
3200,3220,smallround,42.2,1.83,2.03,17.78,0.97,12.02,12.63,12.48,83.22,18,67
3220,3240,smallround,44.57,1.36,2.64,17.61,1,12.21,12.84,12.37,82.65,11,74
3240,3260,smallround,44.29,4.45,2.56,17.9,0.95,12.13,12.15,12.33,87,20,66
3260,3280,smallround,42.34,2.27,3.13,17.17,1.25,11.89,12.59,12.22,83.26,15,72
3280,3300,smallround,45.27,4.19,2.94,18.07,0.58,12.46,12.21,12.31,84.93,16,67
3300,3320,smallround,45.82,4.5,2.97,17.76,1.05,12.1,12.25,12.27,86.4,16,65
3320,3340,smallround,41.57,5,2.26,17.4,0.7,12.5,11.99,12.55,88.18,18,66
3340,3360,smallround,42.05,2.69,2.47,17.65,0.81,12.12,12.57,12.38,84.6,16,64
3360,3380,smallround,45.63,3.7,2.56,18.08,0.83,12.03,12.27,12.27,84.94,10,70
3380,3400,smallround,44.09,4.33,2.09,17.8,0.62,12.42,12.32,12.38,85.49,18,69
3400,3420,smallround,45.33,3.27,2.3,18.13,0.94,11.99,12.29,12.25,83.69,15,70
3420,3440,smallround,45.74,3.35,2.9,18.31,1.34,11.85,12.19,12.17,86.91,17,67
3440,3460,smallround,48.4,2.58,3.07,18.05,0.74,12.24,12.39,12.19,85.74,12,70
3460,3480,smallround,45.27,4.39,2.87,17.79,0.96,12.37,12.11,12.37,87.05,18,71
3480,3500,smallround,44.14,4.3,2.75,18.23,0.91,12.11,12.16,12.33,86.2,20,64
3500,3520,smallround,46.74,3.67,2.98,18.34,0.98,12.03,12.21,12.25,88.5,12,66
3520,3540,smallround,47.05,4.67,2.97,18.05,1.07,12.23,12.19,12.33,84.51,15,67
3540,3560,smallround,44.45,5.13,2.27,18.06,0.6,12.6,12.14,12.56,88.62,16,70
3560,3580,smallround,45.08,2.56,2.51,17.73,0.8,12.38,12.5,12.48,83.37,16,69
3580,3600,smallround,44.05,4.88,2.36,17.37,0.99,12.23,12.31,12.47,85.8,16,69
3600,3620,smallround,44.29,2.82,2.52,17.95,0.81,12.38,12.57,12.44,83.58,17,67
3620,3640,smallround,42.69,3.75,2.22,17.7,0.64,12.25,12.44,12.38,84.95,16,69
3640,3660,smallround,43.89,4.43,2.11,17.87,0.83,12.29,12.14,12.41,87.63,14,71
3660,3680,smallround,47.27,3.18,2.5,18.47,1,11.96,12.37,12.25,83.31,17,64
3680,3700,smallround,46.45,2.2,3.18,18.08,1.26,11.92,12.5,12.15,83.71,15,66
3700,3720,smallround,44.65,4.44,2.61,18.07,0.58,12.45,12.26,12.32,86.14,18,64
3720,3740,smallround,42.13,4.14,2.09,16.98,0.51,12.36,12,12.48,88.65,14,69
3740,3760,smallround,42.26,4.53,1.68,17.93,0.67,12.52,12.2,12.62,86.51,17,66
3760,3780,smallround,44.88,2.08,1.79,18.15,0.58,12.4,12.63,12.53,82.06,12,71
3780,3800,smallround,43.99,3.21,2.13,18.33,1.15,12,12.34,12.39,86.74,19,67
3800,3820,smallround,45.33,1.86,3.13,18,1.46,11.72,12.69,12.12,80.79,14,70
3820,3840,smallround,47.53,3.07,3.3,18.48,0.8,12.09,12.35,12.15,86.52,15,69
3840,3860,smallround,47.85,5.11,3.06,18.17,0.9,12.21,11.94,12.2,87.74,18,63
3860,3880,smallround,43.94,5.17,2.84,17.79,1.25,12.12,12.04,12.37,87.09,18,63
3880,3900,smallround,43.44,2.93,2.82,17.69,0.73,12.34,12.45,12.4,84.18,14,66
3900,3920,smallround,44.47,5,2.79,18.01,1.01,12.03,12.08,12.34,89.49,13,68
3920,3940,smallround,43.02,5.06,2.5,17.64,0.97,12.25,12.29,12.41,86.68,17,68
3940,3960,smallround,44.58,3,2.36,17.97,0.52,12.44,12.5,12.44,82.6,16,66
3960,3980,smallround,44.46,3.41,2.48,18.39,0.95,12.14,12.33,12.38,85.55,17,64
3980,4000,smallround,45.55,3.29,2.92,18.16,1.21,11.75,12.4,12.17,84.53,14,66
4000,4020,smallround,43.7,4.36,2.75,17.56,0.92,12.31,12.21,12.35,87.59,14,72
4020,4040,smallround,45.75,3.47,2.93,18.35,0.9,12.26,12.1,12.34,86.45,15,72
4040,4060,smallround,46.69,3.72,3.33,18.27,1.18,11.81,12.36,12.13,85.34,18,67
4060,4080,smallround,46.2,4.69,3.03,17.86,0.85,12.27,12.16,12.27,84.89,16,68
4080,4100,smallround,44.75,4.88,2.81,17.63,0.96,12,12.16,12.2,87.7,16,69
4100,4120,smallround,44.19,4.38,2.68,17.85,0.85,12.21,12.12,12.29,87.66,16,68
4120,4140,smallround,45.48,3.13,2.9,18.16,0.91,12,12.16,12.24,85.57,15,68
4140,4160,smallround,42.82,4.28,2.82,17.64,1.06,12.03,12.28,12.26,85.9,18,68
4160,4180,smallround,46.09,4.15,3.14,18.17,1.14,11.97,12.26,12.15,85.15,13,69
4180,4200,smallround,47.71,4,3.16,18.39,0.85,12.11,12.09,12.21,88.68,15,68
4200,4220,smallround,45.71,5.5,2.77,18.29,1.02,12.12,12.02,12.27,89.45,18,66
4220,4240,smallround,42.18,3.89,2.91,17.45,1.2,11.93,12.28,12.24,84.46,19,64
4240,4260,smallround,42.48,3.77,3.26,17.53,1.28,11.88,12.16,12.2,85.94,13,69
4260,4280,smallround,43.86,4.2,2.94,17.66,0.59,12.29,12.23,12.28,85.44,15,69
4280,4300,smallround,45.44,4.54,2.89,18.03,0.92,12.16,12.08,12.29,88.53,13,73
4300,4320,smallround,45.88,5.19,3.1,18.75,1.45,11.67,12.09,12.14,87.22,21,62
4320,4340,smallround,45.37,3.73,3.13,17.12,1,12.01,12.24,12.16,86.77,11,71
4340,4360,smallround,41.49,5.19,2.13,17.26,0.45,12.56,12.09,12.46,86.02,21,67
4360,4380,smallround,43.44,3.43,2.25,17.94,0.84,12.26,12.27,12.44,86.73,14,67
4380,4400,smallround,41.34,5.13,1.84,17.03,0.79,12.17,11.81,12.53,90.54,15,70
4400,4420,smallround,44.15,1.73,2.43,17.55,0.91,12.18,12.64,12.33,81.65,15,68
4420,4440,smallround,44.6,3.53,2.42,18.27,0.8,12.15,12.25,12.37,85.4,17,65
4440,4460,smallround,43.77,2.63,2.14,17.82,0.37,12.63,12.46,12.49,84.87,16,65
4460,4480,smallround,44.36,5.75,1.74,17.74,0.76,12.45,12.03,12.6,86.49,12,72
4480,4500,smallround,44.49,2.84,1.8,18.19,0.71,12.44,12.45,12.59,85.57,19,65
4500,4520,smallround,41.73,1.25,2.39,17.04,0.99,12.07,12.73,12.45,82.2,16,69
4520,4540,smallround,44.18,4.33,2.19,18.14,0.7,12.59,12.22,12.59,86.27,15,67
4540,4560,smallround,42.88,1.69,2.63,17.22,0.91,12.02,12.77,12.31,81.5,16,70
4560,4580,smallround,42.92,3.44,3.26,17.76,1.41,12.03,12.3,12.3,86.6,16,70
4580,4600,smallround,43.99,4.38,3.57,17.87,1.28,11.73,12.36,12.1,85.52,16,69
4600,4620,smallround,46.71,4.14,3.84,18.22,1.12,12.08,12.23,12.11,86.32,14,69
4620,4640,smallround,46.31,4.53,3.58,17.65,0.78,12.11,12.18,12.15,85.99,17,67
4640,4660,smallround,43.5,6.88,2.67,17.4,0.81,12.4,11.86,12.39,90.84,16,70
4660,4680,smallround,44.88,4.88,2.67,18.05,1.02,12.33,11.91,12.47,87.64,16,66
4680,4700,smallround,44.28,3.6,2.9,17.42,1.07,12.28,12.44,12.5,85.69,15,67
4700,4720,smallround,42.25,4.35,2.58,17.31,0.79,12.3,12.36,12.49,85.21,17,67
4720,4740,smallround,44.07,3.47,2.39,18.21,0.56,12.32,12.49,12.44,82.9,15,66
4740,4760,smallround,43.91,3.86,2.43,17.66,0.94,12.07,12.41,12.34,85.35,14,70
4760,4780,smallround,44.94,3.53,2.58,18.08,0.93,12.15,12.25,12.31,85.34,15,71
4780,4800,smallround,45.33,2.71,3.23,17.97,1.25,11.87,12.38,12.16,85.94,17,69
4800,4820,smallround,47.58,4.71,3.17,18.17,0.9,12.27,12.17,12.23,85.83,14,69
4820,4840,smallround,44.44,3.83,3.1,17.16,0.93,12.23,12.28,12.3,86.45,18,69
4840,4860,smallround,44.26,4.59,3.3,18.02,1.27,12.21,12.27,12.37,85.42,17,67
4860,4880,smallround,44.76,6.21,2.62,18.18,0.65,12.42,11.7,12.49,90.37,14,68
4880,4900,smallround,44.31,3,2.59,17.82,0.73,12.41,12.62,12.49,84.36,16,70
4900,4920,smallround,44.94,5.47,2.28,18.43,0.97,12.14,12.24,12.44,86.91,17,67
4920,4940,smallround,44.81,2.21,2.97,18.31,1.15,11.87,12.52,12.22,82.93,19,61
4940,4960,smallround,47.88,4.4,2.88,18.26,0.84,12.31,12.36,12.32,84.62,10,67
4960,4980,smallround,45.71,4.05,2.71,18.21,0.87,12.33,12.31,12.37,85.33,19,63
4980,5000,smallround,41.7,4.25,2.21,17.41,0.67,12.53,12.26,12.58,87.6,16,67
5000,5020,smallround,42.29,4.86,1.48,17.29,0.32,12.69,12.21,12.73,86.07,14,69
5020,5040,smallround,43.38,1.81,2,17.92,0.93,12.35,12.63,12.58,82.92,16,68
5040,5060,smallround,45.02,3.75,2.34,18.16,1.17,11.92,12.42,12.34,83.14,16,65
5060,5080,smallround,43.82,0.93,2.75,17.45,0.72,12.27,12.83,12.3,82.73,15,68
5080,5100,smallround,43.13,4.69,2.09,17.84,0.46,12.55,12.07,12.5,88,16,69
5100,5120,smallround,42.01,3.72,2.12,17.75,0.97,12.11,12.21,12.45,85.68,18,67
5120,5140,smallround,44.32,3.27,2.3,17.99,0.84,12.09,12.34,12.35,85.84,15,64
5140,5160,smallround,46.77,2.07,2.27,18.02,0.42,12.65,12.69,12.46,82.47,14,64
5160,5180,smallround,47.31,4.22,1.95,18.48,0.69,12.44,12.05,12.57,87.25,18,55
5180,5200,smallround,46.66,2.63,2.2,18.06,0.88,12.28,12.55,12.47,84.23,16,49
5200,5220,smallround,49.41,2.15,2.33,18.77,0.47,12.59,12.61,12.5,82.87,13,43
5220,5240,smallround,55.64,2.31,2.66,19.54,0.47,12.5,12.64,12.35,84.65,13,32
5240,5260,smallround,61.55,5.17,2.05,20,0.9,12.29,12.18,12.34,86.16,12,20
5260,5280,smallround,71.39,0.89,3,20,0,13.14,12.82,12.27,79.82,9,11
5280,5300,smallround,80.81,2.14,4.5,20,0,13.47,12.76,11.99,86.63,7,4
5300,5320,smallround,0,4.5,0,0,0,0,12.1,0,84.05,4,0
5320,5340,smallround,0,0,0,0,0,0,0,0,0,0,0
5340,5360,smallround,0,0,0,0,0,0,0,0,0,0,0
5360,5380,smallround,0,0,0,0,0,0,0,0,0,0,0
5380,5400,smallround,0,0,0,0,0,0,0,0,0,0,0
5400,5420,smallround,0,0,0,0,0,0,0,0,0,0,0
5420,5440,smallround,0,0,0,0,0,0,0,0,0,0,0
5440,5460,smallround,0,0,0,0,0,0,0,0,0,0,0
5460,5480,smallround,0,0,0,0,0,0,0,0,0,0,0
5480,5500,smallround,0,0,0,0,0,0,0,0,0,0,0
5500,5509,smallround,0,0,0,0,0,0,0,0,0,0,0
2750,2769.9601449275,#DIV/0!,41.8018115942,3.5325362319,2.4585869565,16.7648550725,0.8279347826,11.4681884058,11.4080434783,11.6050724638,79.4947101449,14.2717391304,61.3442028986
