interval_begin,interval_end,interval_id,interval_meanDurationWithin,interval_meanHaltsPerVehicle,interval_meanHaltsPerVehicleWithin,interval_meanIntervalDurationWithin,interval_meanIntervalHaltsPerVehicleWithin,interval_meanIntervalSpeedWithin,interval_meanSpeed,interval_meanSpeedWithin,interval_meanTravelTime,interval_vehicleSum,interval_vehicleSumWithin
0,20,network,9.07,0,0,9.07,0,8.37,0,8.37,0,0,20
20,40,network,18.84,0,0,14.87,0,10.8,0,10.29,0,0,46
40,60,network,29.29,0,0,16.91,0,11.99,0,11.29,0,0,70
60,80,network,38.82,0,0,17.45,0,12.02,0,11.48,0,0,96
80,100,network,48.81,0,0.07,18.01,0.07,12.1,0,11.71,0,0,121
100,120,network,58.84,0,0.14,18.39,0.09,12.3,0,11.89,0,0,146
120,140,network,68.87,0,0.26,18.62,0.14,12.45,0,12.04,0,0,171
140,160,network,78.48,0,0.29,18.79,0.06,12.66,13.02,12.21,144.06,1,195
160,180,network,88.86,0,0.51,18.97,0.25,12.46,0,12.25,0,0,219
180,200,network,98.86,0,0.85,19.1,0.39,12.43,0,12.29,0,0,244
200,220,network,108.18,0,0.97,19.11,0.2,12.54,13.15,12.26,166.57,1,269
220,240,network,117.69,0,1.26,19.19,0.37,12.46,13.12,12.29,183.69,2,292
240,260,network,127.57,0,1.46,19.31,0.29,12.6,13.16,12.36,189.13,2,314
260,280,network,136.97,0.4,1.91,19.45,0.53,12.45,13.1,12.38,218.01,5,332
280,300,network,145.27,0,2.25,19.36,0.47,12.4,13.16,12.33,223.4,3,356
300,320,network,153.9,0.67,2.59,19.42,0.47,12.53,13.07,12.33,225.74,6,375
320,340,network,161.77,0,2.76,19.41,0.31,12.6,13.16,12.35,276.84,5,396
340,360,network,169.26,1.8,3.18,19.47,0.56,12.45,13.04,12.36,278.9,10,410
360,380,network,177.18,0.29,3.56,19.5,0.52,12.48,13.11,12.36,277.35,7,428
380,400,network,185.26,2.5,3.98,19.51,0.6,12.29,12.94,12.32,270.42,8,445
400,420,network,191.82,0.83,4.49,19.52,0.64,12.41,13.05,12.33,304.37,12,458
420,440,network,196.38,2.86,5,19.53,0.7,12.3,12.95,12.28,359.49,14,469
440,460,network,200.57,2.35,5.43,19.5,0.61,12.32,12.94,12.23,337.04,17,478
460,480,network,205.06,6.5,5.65,19.54,0.52,12.45,12.8,12.26,365.69,16,486
480,500,network,208.78,5.9,5.9,19.51,0.56,12.47,12.82,12.25,335.78,20,492
500,520,network,208.5,9.41,6.2,19.52,0.76,12.29,12.67,12.22,428.09,22,495
520,540,network,207.35,5.81,6.73,19.5,0.82,12.19,12.82,12.16,374.54,31,489
540,560,network,209.22,8.76,7.2,19.6,0.87,12.19,12.72,12.18,404.18,21,491
560,580,network,209.78,10.57,7.37,19.57,0.71,12.27,12.66,12.15,391.17,23,494
580,600,network,213.64,6.12,7.67,19.54,0.63,12.38,12.78,12.12,374.75,17,502
600,620,network,213.03,9,7.92,19.57,0.7,12.34,12.67,12.14,405.95,26,501
620,640,network,211.16,12.87,7.94,19.56,0.72,12.27,12.54,12.14,392.12,31,495
640,660,network,214.44,9.13,8.28,19.56,0.78,12.24,12.72,12.13,403.92,16,504
660,680,network,212.24,10.93,8.31,19.56,0.59,12.39,12.62,12.12,413.6,29,500
680,700,network,214.57,9.91,8.43,19.57,0.6,12.39,12.64,12.11,373.57,22,503
700,720,network,213.29,13.32,8.35,19.6,0.6,12.48,12.56,12.14,411.1,28,499
720,740,network,213.04,11.27,8.53,19.6,0.76,12.29,12.62,12.12,398.09,26,498
740,760,network,207.93,12.2,8.75,19.55,0.93,12.12,12.6,12.06,409.13,35,489
760,780,network,212.55,14.58,8.91,19.52,0.76,12.24,12.48,12.04,391.09,12,503
780,800,network,215.49,11.91,9.08,19.57,0.72,12.3,12.55,12.07,371.57,22,505
800,820,network,216.92,12.1,9.27,19.53,0.77,12.26,12.57,12.03,397.78,21,510
820,840,network,214.94,14.86,9.04,19.54,0.55,12.39,12.44,12.06,415.31,29,506
840,860,network,217.72,13.2,9.15,19.57,0.7,12.37,12.5,12.08,391.94,20,510
860,880,network,217.07,17.24,8.96,19.53,0.67,12.31,12.42,12.08,412.88,25,511
880,900,network,215.84,14.23,8.79,19.58,0.57,12.41,12.54,12.08,402.91,31,503
900,920,network,214.65,15.92,8.69,19.56,0.7,12.36,12.44,12.09,417.72,25,504
920,940,network,214.03,13.84,8.62,19.55,0.62,12.39,12.46,12.1,415.38,25,504
940,960,network,214.63,11.5,8.83,19.58,0.77,12.31,12.59,12.09,400.11,24,505
960,980,network,211.1,13.64,8.78,19.52,0.73,12.27,12.5,12.05,401.69,33,498
980,1000,network,212.74,16.2,8.76,19.57,0.7,12.39,12.39,12.1,416.22,20,502
1000,1020,network,213.54,13.77,8.63,19.52,0.53,12.44,12.49,12.08,401.54,22,506
1020,1040,network,217.22,9.19,8.94,19.6,0.73,12.36,12.6,12.1,371.28,21,508
1040,1060,network,215.64,15.16,8.89,19.57,0.71,12.35,12.39,12.09,431.55,25,509
1060,1080,network,217.03,16.46,8.79,19.61,0.67,12.3,12.33,12.14,394.32,24,509
1080,1100,network,216.28,14.32,8.56,19.55,0.53,12.45,12.52,12.12,393,28,507
1100,1120,network,216.1,17.32,8.28,19.56,0.58,12.41,12.41,12.11,409.77,25,507
1120,1140,network,216.02,13.28,8.18,19.63,0.57,12.46,12.48,12.14,395.15,29,501
1140,1160,network,213.87,15.21,8.18,19.6,0.76,12.35,12.46,12.13,446.99,24,503
1160,1180,network,212.29,12.71,8.19,19.55,0.72,12.26,12.49,12.09,384.23,31,498
1180,1200,network,210.25,14.04,8.05,19.56,0.58,12.41,12.53,12.12,429.63,26,497
1200,1220,network,212.41,13.15,8,19.56,0.55,12.44,12.52,12.12,393.03,20,502
1220,1240,network,212.94,10.31,7.89,19.52,0.43,12.56,12.61,12.13,375.82,26,502
1240,1260,network,214.33,11.59,8,19.58,0.64,12.43,12.56,12.16,406.29,22,504
1260,1280,network,213.44,12.59,7.96,19.6,0.59,12.42,12.53,12.16,412.86,27,501
1280,1300,network,213.88,12.96,7.9,19.56,0.57,12.36,12.51,12.13,400.3,23,504
1300,1320,network,214.85,8.92,8.2,19.52,0.76,12.26,12.7,12.1,382.78,24,506
1320,1340,network,216.57,13.79,8.15,19.58,0.6,12.51,12.53,12.14,384.83,24,506
1340,1360,network,211.2,14.85,7.74,19.51,0.48,12.47,12.47,12.13,423.86,34,498
1360,1380,network,211.96,10.91,8,19.57,0.76,12.29,12.6,12.13,417.94,22,500
1380,1400,network,211.16,9.21,8.33,19.57,0.81,12.23,12.69,12.11,392.45,28,497
1400,1420,network,210.73,13.24,8.57,19.56,0.9,12.18,12.51,12.1,405.52,25,497
1420,1440,network,214.15,13.81,8.46,19.53,0.5,12.42,12.49,12.1,388.27,16,507
1440,1460,network,216.13,10.37,8.53,19.56,0.57,12.48,12.56,12.1,361.76,27,504
1460,1480,network,215.93,13.23,8.35,19.54,0.46,12.5,12.56,12.11,425.28,22,508
1480,1500,network,215.22,14.82,8.22,19.53,0.64,12.29,12.5,12.1,395.58,28,505
1500,1520,network,214.63,15.38,8.13,19.61,0.62,12.41,12.53,12.15,442.71,24,504
1520,1540,network,214.18,9.62,8.14,19.52,0.53,12.42,12.69,12.13,366.96,29,502
1540,1560,network,214.64,14.17,8.01,19.57,0.53,12.43,12.51,12.14,418.35,23,503
1560,1580,network,214.01,10.92,8.07,19.52,0.62,12.34,12.6,12.11,415.26,24,505
1580,1600,network,213.78,13.66,8.08,19.6,0.7,12.31,12.53,12.13,394.63,29,499
1600,1620,network,210.11,10.97,8.25,19.54,0.78,12.2,12.6,12.08,412.57,31,494
1620,1640,network,211.56,17.35,8.34,19.56,0.81,12.26,12.41,12.08,445.14,17,502
1640,1660,network,214.81,9.17,8.47,19.58,0.58,12.38,12.61,12.08,348.89,23,504
1660,1680,network,215.71,11.54,8.59,19.56,0.69,12.34,12.58,12.04,392.7,24,505
1680,1700,network,215.55,15.13,8.52,19.58,0.64,12.37,12.45,12.1,424.5,23,507
1700,1720,network,215.28,16.22,8.37,19.57,0.69,12.34,12.41,12.12,397.91,27,505
1720,1740,network,217.92,10.21,8.48,19.53,0.6,12.39,12.66,12.1,384.71,19,512
1740,1760,network,214.85,14.78,8.29,19.53,0.63,12.42,12.48,12.11,411.82,32,505
1760,1780,network,214.89,14.81,8.37,19.59,0.79,12.27,12.5,12.12,411.29,26,502
1780,1800,network,213.78,13.44,8.36,19.56,0.69,12.34,12.51,12.09,399.83,27,501
1800,1820,network,212.72,10.36,8.52,19.6,0.68,12.32,12.61,12.12,406.95,28,497
1820,1840,network,211.76,12.92,8.57,19.59,0.69,12.32,12.55,12.1,418.19,25,497
1840,1860,network,211.99,15.29,8.39,19.53,0.56,12.36,12.44,12.07,411.61,21,503
1860,1880,network,215.4,12.95,8.56,19.58,0.76,12.27,12.51,12.07,369.02,22,504
1880,1900,network,215.64,13.09,8.74,19.53,0.84,12.18,12.5,12.04,398.81,23,508
1900,1920,network,214.52,12.33,8.8,19.56,0.66,12.37,12.47,12.07,418.24,27,505
1920,1940,network,215.82,12.05,8.87,19.53,0.66,12.36,12.56,12.05,389.92,22,509
1940,1960,network,216.91,10.28,8.76,19.56,0.38,12.55,12.63,12.11,392.99,25,508
1960,1980,network,215.04,16.96,8.38,19.57,0.5,12.54,12.36,12.12,418.47,28,505
1980,2000,network,215.38,11.46,8.37,19.55,0.55,12.47,12.61,12.12,403.57,24,506
2000,2020,network,213.34,13.33,8.33,19.56,0.67,12.35,12.48,12.15,406.65,30,501
2020,2040,network,212.54,11.36,8.57,19.58,0.82,12.15,12.64,12.11,402.85,28,497
2040,2060,network,211.49,17.21,8.46,19.57,0.76,12.28,12.4,12.1,418.79,24,499
2060,2080,network,214.63,15.16,8.45,19.6,0.64,12.37,12.45,12.1,392.18,19,504
2080,2100,network,216.43,12.73,8.57,19.57,0.74,12.35,12.52,12.08,380.18,22,508
2100,2120,network,214.68,12.87,8.69,19.56,0.8,12.22,12.53,12.04,402.49,30,503
2120,2140,network,215.06,14.32,8.91,19.53,0.95,12.17,12.44,12.05,387.79,25,504
2140,2160,network,214.89,13.18,8.96,19.61,0.64,12.33,12.59,12.09,454.5,22,505
2160,2180,network,214.38,12.72,8.89,19.52,0.63,12.36,12.53,12.05,373.78,29,503
2180,2200,network,216.25,17.5,8.64,19.57,0.51,12.51,12.34,12.11,415.45,20,507
2200,2220,network,213.36,10.7,8.76,19.53,0.7,12.33,12.59,12.09,412.22,30,503
2220,2240,network,212.19,12.63,8.74,19.54,0.62,12.37,12.52,12.09,409.59,27,501
2240,2260,network,211.54,10.3,8.96,19.53,0.74,12.33,12.67,12.08,397.93,27,499
2260,2280,network,213.47,17.56,8.92,19.57,0.69,12.33,12.41,12.1,431.79,18,505
2280,2300,network,213.95,16.25,8.75,19.53,0.7,12.32,12.39,12.07,366,28,503
2300,2320,network,217,11.59,8.62,19.57,0.38,12.61,12.56,12.12,416.44,17,510
2320,2340,network,216.56,13.17,8.67,19.61,0.72,12.36,12.5,12.13,388.73,30,504
2340,2360,network,215.63,14.52,8.42,19.53,0.48,12.44,12.47,12.12,423.35,23,508
2360,2380,network,216.27,12.08,8.6,19.6,0.74,12.25,12.55,12.13,409.63,25,506
2380,2400,network,216.39,11.12,8.61,19.56,0.58,12.38,12.57,12.11,387.76,26,506
2400,2420,network,213.38,13.57,8.49,19.53,0.63,12.36,12.52,12.09,413.9,30,502
2420,2440,network,213.58,12.67,8.59,19.57,0.7,12.39,12.53,12.13,414.79,24,502
2440,2460,network,212.78,10.41,8.73,19.59,0.65,12.37,12.58,12.12,409.49,27,499
2460,2480,network,211.16,15.54,8.5,19.56,0.62,12.43,12.46,12.12,398.79,28,497
2480,2500,network,212.59,8.68,8.71,19.56,0.64,12.35,12.69,12.11,391.49,22,500
2500,2520,network,215.56,16.32,8.6,19.56,0.6,12.36,12.43,12.11,381.13,19,506
2520,2540,network,217.08,10.39,8.81,19.56,0.71,12.28,12.59,12.08,388.33,23,508
2540,2560,network,216.16,13.14,8.74,19.6,0.59,12.38,12.54,12.12,409.89,28,504
2560,2580,network,217.54,16.1,8.68,19.53,0.68,12.31,12.43,12.11,396.49,20,511
2580,2600,network,217.93,14,8.65,19.57,0.65,12.31,12.54,12.12,408.42,25,510
2600,2620,network,215.84,17.04,8.31,19.53,0.56,12.47,12.42,12.12,416.24,28,508
2620,2640,network,214.8,13.16,8.1,19.57,0.49,12.44,12.56,12.12,385.28,32,500
2640,2660,network,212.07,17.12,7.85,19.57,0.62,12.42,12.44,12.13,446.86,26,499
2660,2680,network,211.37,7.7,8.03,19.56,0.57,12.38,12.64,12.14,397.92,27,497
2680,2700,network,212.14,11.68,8.21,19.53,0.76,12.28,12.54,12.13,396.49,22,501
2700,2720,network,214.38,13.05,8.29,19.56,0.68,12.34,12.5,12.14,386.23,22,503
2720,2740,network,217.16,13.16,8.28,19.52,0.6,12.42,12.47,12.12,378.19,19,510
2740,2760,network,217.45,11.46,8.33,19.57,0.61,12.43,12.58,12.12,402.04,26,508
2760,2780,network,216.24,16.67,7.99,19.57,0.51,12.46,12.44,12.15,413.44,27,506
2780,2800,network,215.32,15.24,7.92,19.56,0.68,12.36,12.46,12.14,422.21,25,506
2800,2820,network,215.6,8.15,8.16,19.55,0.65,12.3,12.73,12.13,391.47,26,505
2820,2840,network,213.92,15.41,7.79,19.52,0.47,12.46,12.41,12.13,398.78,29,502
2840,2860,network,212.77,12.22,7.66,19.52,0.5,12.46,12.57,12.14,408.46,27,500
2860,2880,network,214.39,11.95,7.77,19.6,0.62,12.39,12.56,12.17,429.8,20,503
2880,2900,network,210.72,10.94,7.84,19.53,0.69,12.35,12.55,12.11,402.8,32,498
2900,2920,network,211.42,12.43,8.01,19.57,0.76,12.32,12.53,12.16,407.03,23,499
2920,2940,network,213.04,13.21,7.91,19.6,0.54,12.44,12.55,12.17,383.67,24,499
2940,2960,network,217.01,8.06,8.07,19.59,0.55,12.49,12.65,12.17,384.92,16,508
2960,2980,network,214.01,12.1,8.07,19.56,0.67,12.39,12.54,12.17,409.96,31,503
2980,3000,network,214.92,15,8.07,19.6,0.74,12.33,12.45,12.16,385.48,26,501
3000,3020,network,216.07,10.6,8.1,19.57,0.54,12.32,12.58,12.16,413.18,20,507
3020,3040,network,215.75,10.34,8.13,19.58,0.55,12.44,12.68,12.17,390.3,29,502
3040,3060,network,213.76,16.96,7.89,19.57,0.65,12.37,12.39,12.16,425.94,26,502
3060,3080,network,212.57,11.54,7.91,19.51,0.61,12.44,12.61,12.13,408.12,26,502
3080,3100,network,213.5,13.16,8.03,19.59,0.75,12.24,12.56,12.12,398.92,25,500
3100,3120,network,209.38,11.85,8.08,19.56,0.73,12.26,12.6,12.1,408.81,33,493
3120,3140,network,211.21,11.56,8.28,19.53,0.74,12.28,12.6,12.09,411.01,18,501
3140,3160,network,214.67,14,8.16,19.57,0.52,12.47,12.46,12.13,357.65,22,503
3160,3180,network,216.63,16.05,8.19,19.56,0.72,12.35,12.45,12.11,413.24,19,509
3180,3200,network,214.63,12.62,8.05,19.52,0.54,12.39,12.5,12.11,406.05,29,506
3200,3220,network,213.36,13.63,7.92,19.59,0.57,12.52,12.5,12.19,405.67,30,499
3220,3240,network,214.84,7.05,8.21,19.52,0.68,12.32,12.76,12.12,391.94,20,506
3240,3260,network,215.34,9.92,8.22,19.53,0.5,12.48,12.7,12.14,385.11,26,505
3260,3280,network,214.66,16.42,7.94,19.57,0.53,12.42,12.42,12.17,417.3,26,503
3280,3300,network,213.27,12.88,7.92,19.53,0.64,12.43,12.53,12.15,422.83,25,504
3300,3320,network,211.84,11.83,7.87,19.56,0.56,12.36,12.6,12.17,408.38,29,499
3320,3340,network,211.64,14.96,7.85,19.56,0.73,12.31,12.43,12.15,404.25,25,499
3340,3360,network,212.06,14.56,7.71,19.59,0.58,12.42,12.49,12.18,399.22,25,498
3360,3380,network,213.81,9.68,7.78,19.56,0.55,12.49,12.68,12.17,374.15,22,502
3380,3400,network,215.26,10.52,7.95,19.52,0.7,12.3,12.57,12.13,380.03,23,505
3400,3420,network,215.02,10.4,8.04,19.53,0.6,12.39,12.66,12.13,408.36,25,505
3420,3440,network,215.87,20.3,7.73,19.52,0.57,12.33,12.31,12.15,429.56,20,510
3440,3460,network,217.52,9.63,8.01,19.56,0.73,12.33,12.67,12.15,388.37,24,510
3460,3480,network,213.49,13.76,7.72,19.53,0.5,12.49,12.46,12.14,414.22,33,503
3480,3500,network,214.01,11.44,7.77,19.52,0.62,12.4,12.57,12.14,390.63,25,503
3500,3520,network,212.53,13.88,7.73,19.55,0.63,12.34,12.5,12.13,438.81,25,502
3520,3540,network,209.8,8.63,7.86,19.52,0.6,12.42,12.7,12.15,378.22,35,493
3540,3560,network,210.76,12.45,7.95,19.53,0.67,12.37,12.59,12.14,418.31,20,498
3560,3580,network,212.23,14.96,7.75,19.53,0.55,12.42,12.51,12.14,371.59,25,498
3580,3600,network,215.13,10.53,7.82,19.56,0.53,12.46,12.66,12.16,415.11,17,505
3600,3620,network,214.25,10.33,8.01,19.6,0.7,12.36,12.62,12.17,413.06,27,502
3620,3640,network,215.38,10.91,8.1,19.54,0.65,12.37,12.51,12.14,377.03,23,506
3640,3660,network,215.6,13.74,8.1,19.53,0.66,12.32,12.59,12.13,416.45,23,508
3660,3680,network,214,14.97,7.98,19.51,0.69,12.31,12.48,12.11,400.76,30,503
3680,3700,network,214.51,13.04,7.97,19.53,0.62,12.43,12.49,12.12,407.73,23,505
3700,3720,network,211.85,11.81,8,19.55,0.66,12.32,12.6,12.12,407.63,32,497
3720,3740,network,211.92,10.3,8.26,19.56,0.77,12.28,12.62,12.12,413.86,23,499
3740,3760,network,211.35,10.21,8.46,19.55,0.73,12.29,12.65,12.09,382.59,29,495
3760,3780,network,212.62,17.31,8.39,19.53,0.65,12.29,12.37,12.09,450.37,16,505
3780,3800,network,214.59,13.79,8.44,19.53,0.72,12.32,12.49,12.1,370.6,24,506
3800,3820,network,216.93,12.38,8.6,19.56,0.72,12.36,12.55,12.1,396.59,21,509
3820,3840,network,216.66,14.5,8.5,19.57,0.65,12.27,12.46,12.09,389.4,28,506
3840,3860,network,214.73,14.41,8.47,19.51,0.73,12.27,12.5,12.07,417.53,27,505
3860,3880,network,214.78,11.8,8.6,19.56,0.69,12.29,12.6,12.08,410.52,25,504
3880,3900,network,213.56,13.68,8.37,19.51,0.51,12.45,12.53,12.09,396.19,28,502
3900,3920,network,215.12,12.43,8.23,19.54,0.43,12.55,12.54,12.11,400.92,21,506
3920,3940,network,213.67,10.23,8.3,19.53,0.58,12.35,12.64,12.11,423.3,26,505
3940,3960,network,211.9,13.52,8.24,19.56,0.62,12.41,12.44,12.12,428.27,27,502
3960,3980,network,210.28,11.63,8.3,19.56,0.68,12.32,12.52,12.12,396.28,30,497
3980,4000,network,212.74,16.63,8.28,19.53,0.73,12.33,12.36,12.11,384.98,19,504
4000,4020,network,213.06,12.8,8.27,19.54,0.63,12.38,12.54,12.12,396.59,25,504
4020,4040,network,215.99,13.82,8.35,19.57,0.71,12.32,12.42,12.11,373.89,22,506
4040,4060,network,215.81,11.08,8.28,19.52,0.48,12.42,12.59,12.11,407.7,24,508
4060,4080,network,216.14,18.61,8,19.54,0.59,12.42,12.36,12.15,415.82,23,510
4080,4100,network,216.97,11.65,8.09,19.57,0.66,12.42,12.6,12.16,392.16,26,508
4100,4120,network,216.3,15.56,7.85,19.58,0.56,12.44,12.42,12.16,403.36,27,506
4120,4140,network,213.69,14.78,7.76,19.61,0.74,12.32,12.53,12.16,410.57,32,498
4140,4160,network,214.07,13.9,7.77,19.57,0.67,12.35,12.49,12.12,416.55,21,503
4160,4180,network,211.83,10.27,7.9,19.59,0.65,12.36,12.6,12.13,413.05,30,497
4180,4200,network,209.16,9,8.13,19.56,0.72,12.3,12.63,12.11,401.92,30,493
4200,4220,network,211.2,15.11,8.18,19.53,0.72,12.33,12.48,12.1,403.99,18,501
4220,4240,network,214.78,9.18,8.41,19.59,0.66,12.38,12.69,12.12,361.74,22,502
4240,4260,network,215.83,9,8.84,19.55,0.88,12.22,12.65,12.06,395.84,22,506
4260,4280,network,216.14,13.36,8.75,19.56,0.57,12.42,12.48,12.08,398.7,25,506
4280,4300,network,215.72,17.39,8.48,19.57,0.56,12.4,12.4,12.11,432.46,23,508
4300,4320,network,214.3,11.42,8.44,19.55,0.56,12.48,12.58,12.11,391.65,31,502
4320,4340,network,212.9,15,8.2,19.51,0.57,12.37,12.48,12.09,398.42,28,500
4340,4360,network,214.35,12.19,8.16,19.51,0.53,12.38,12.56,12.11,402.47,21,504
4360,4380,network,212.02,13.11,8.23,19.53,0.74,12.26,12.51,12.12,431.94,27,502
4380,4400,network,208.92,9.43,8.46,19.51,0.74,12.28,12.64,12.09,387.35,35,492
4400,4420,network,211.87,14,8.53,19.56,0.65,12.36,12.49,12.11,425.42,16,500
4420,4440,network,213.81,17,8.41,19.57,0.62,12.33,12.36,12.11,412.26,19,506
4440,4460,network,216.14,11.96,8.64,19.57,0.81,12.31,12.48,12.11,364.04,24,507
4460,4480,network,214.38,11.82,8.71,19.57,0.67,12.31,12.57,12.07,416.76,28,504
4480,4500,network,215,15.04,8.75,19.56,0.77,12.26,12.48,12.07,399.29,24,505
4500,4520,network,217.91,14.78,8.72,19.63,0.57,12.32,12.48,12.1,423.21,18,510
4520,4540,network,217.64,12.54,8.86,19.55,0.81,12.29,12.48,12.07,375.79,28,509
4540,4560,network,215.83,17.39,8.51,19.57,0.56,12.46,12.38,12.12,418.5,28,506
4560,4580,network,216.39,14.58,8.43,19.59,0.62,12.4,12.48,12.13,409.29,24,506
4580,4600,network,213,13.26,8.37,19.52,0.69,12.34,12.5,12.1,408.95,31,502
4600,4620,network,212.37,10.83,8.6,19.59,0.76,12.25,12.62,12.07,397.09,29,496
4620,4640,network,211.93,15.75,8.47,19.53,0.62,12.38,12.48,12.08,435.34,20,503
4640,4660,network,213.62,13.72,8.38,19.57,0.58,12.44,12.48,12.12,376.52,25,502
4660,4680,network,214.39,9.17,8.5,19.53,0.59,12.37,12.63,12.1,392.86,23,505
4680,4700,network,215.07,11.46,8.59,19.57,0.63,12.36,12.58,12.12,406.5,24,505
4700,4720,network,215.37,14.15,8.56,19.56,0.69,12.37,12.49,12.11,389.84,26,504
4720,4740,network,215.86,14.43,8.59,19.57,0.69,12.23,12.56,12.11,430.22,21,508
4740,4760,network,215.17,13.82,8.55,19.54,0.69,12.25,12.49,12.08,390.97,28,506
4760,4780,network,215.13,12.96,8.6,19.57,0.67,12.41,12.51,12.11,413.52,25,505
4780,4800,network,214.12,14.96,8.42,19.56,0.59,12.42,12.47,12.11,407.49,27,503
4800,4820,network,214.21,12.88,8.45,19.56,0.66,12.33,12.54,12.12,409.19,24,504
4820,4840,network,212.23,11.68,8.74,19.56,0.92,12.16,12.56,12.09,395.99,31,498
4840,4860,network,212.46,15,8.81,19.63,0.8,12.3,12.51,12.11,402.35,26,495
4860,4880,network,215.09,9.44,9.1,19.56,0.79,12.29,12.59,12.07,376.29,18,504
4880,4900,network,217.24,11.68,9.51,19.57,0.95,12.12,12.57,12.04,410.76,19,510
4900,4920,network,214.22,14.73,9.33,19.52,0.62,12.41,12.47,12.05,416.69,30,506
4920,4940,network,217.21,14.86,9.29,19.57,0.63,12.38,12.46,12.09,380.55,21,509
4940,4960,network,215.76,13.15,9.22,19.56,0.6,12.4,12.59,12.1,420.48,27,507
4960,4980,network,214.68,14.65,8.92,19.54,0.45,12.55,12.46,12.13,410.62,26,507
4980,5000,network,215.83,14.68,8.84,19.56,0.63,12.44,12.44,12.13,388.73,25,506
5000,5020,network,221.44,14.79,9.06,19.98,0.67,12.6,12.46,12.29,427.02,29,482
5020,5040,network,230.83,11.25,9.86,20,0.94,12.4,12.57,12.29,402.53,28,454
5040,5060,network,242.05,13.04,10.47,20,0.79,12.38,12.47,12.28,392.01,25,429
5060,5080,network,255.52,13.78,11.06,20,0.74,12.43,12.62,12.25,399.49,18,411
5080,5100,network,268.27,15.65,11.37,20,0.58,12.63,12.42,12.27,386.57,23,388
5100,5120,network,279.98,13.7,11.73,20,0.5,12.73,12.5,12.29,409.8,23,365
5120,5140,network,291.06,18.21,11.84,20,0.65,12.59,12.32,12.32,395.34,28,337
5140,5160,network,302.13,15.36,12.23,20,0.63,12.53,12.5,12.32,426.8,22,315
5160,5180,network,314.45,12.88,12.4,20,0.23,12.95,12.56,12.34,400.19,25,290
5180,5200,network,324.95,15.11,12.41,20,0.29,12.93,12.46,12.37,415.76,27,263
5200,5220,network,333.54,17.17,11.94,20,0.14,13.06,12.45,12.41,422.24,30,233
5220,5240,network,343.46,13.96,12.18,20,0.46,12.82,12.5,12.42,429.87,24,209
5240,5260,network,354.99,11.2,12.67,20,0.36,12.85,12.58,12.43,415.74,25,184
5260,5280,network,364.03,13.35,12.64,20,0.06,13.22,12.57,12.46,439.2,23,161
5280,5300,network,378.99,13.21,12.63,20,0.07,13.2,12.55,12.49,410.11,19,142
5300,5320,network,395.91,11.22,12.95,20,0.11,13.09,12.65,12.5,411.26,18,124
5320,5340,network,402.64,14.76,12.55,20,0.05,13.22,12.56,12.52,457.41,25,99
5340,5360,network,418.24,7.5,13.53,20,0.15,13.11,12.79,12.51,438.61,14,85
5360,5380,network,435.14,12,14.3,20,0.52,12.95,12.72,12.5,442.85,12,73
5380,5400,network,444.29,15.46,13.78,20,0.04,13.21,12.55,12.52,465.75,24,49
5400,5420,network,458.29,11.27,14.5,20,0,13.38,12.61,12.54,470.69,11,38
5420,5440,network,469.27,13.87,14.91,20,0,13.49,12.63,12.53,480.38,15,23
5440,5460,network,483.94,10.2,16.22,20,0,13.53,12.76,12.51,495.92,5,18
5460,5480,network,493.56,12.45,22.14,20,0,13.44,12.62,12.4,498.23,11,7
5480,5500,network,515.04,16.8,35.5,20,0,13.57,12.55,12.13,499.64,5,2
5500,5510,network,0,35.5,0,0,0,0,12.14,0,519.19,2,0
2750,2769.963768116,#DIV/0!,218.1842028986,11.9572826087,8.2397101449,19.4267753623,0.5905072464,12.3525,12.1548913043,12.0797826087,384.355326087,22.6449275362,455.4746376812
